docs/radhdl/0.2.1/simulations/tb_cordic_atan2/tb_cordic_atan2.vcd
$date
  Wed Jul  8 17:45:14 2026
$end
$version
  GHDL v0
$end
$timescale
  1 fs
$end
$scope module standard $end
$upscope $end
$scope module textio $end
$upscope $end
$scope module std_logic_1164 $end
$upscope $end
$scope module numeric_std $end
$upscope $end
$scope module math_real $end
$upscope $end
$scope module env $end
$upscope $end
$scope module cordic_atan_pkg $end
$upscope $end
$scope module tb_cordic_atan2 $end
$var reg 1 ! clk $end
$var reg 1 " rst $end
$var reg 1 # input_valid $end
$var reg 16 $ x_in[15:0] $end
$var reg 16 % y_in[15:0] $end
$var reg 1 & input_ready $end
$var reg 1 ' busy $end
$var reg 1 ( phase_valid $end
$var reg 32 ) phase_out[31:0] $end
$scope module dut $end
$var reg 1 * clk $end
$var reg 1 + rst $end
$var reg 1 , input_valid $end
$var reg 16 - x_in[15:0] $end
$var reg 16 . y_in[15:0] $end
$var reg 1 / input_ready $end
$var reg 1 0 busy $end
$var reg 1 1 phase_valid $end
$var reg 32 2 phase_out[31:0] $end
$comment x_pipe is not handled $end
$comment y_pipe is not handled $end
$comment z_pipe is not handled $end
$var reg 25 3 valid_pipe[0:24] $end
$scope module cordic_pipeline(0) $end
$upscope $end
$scope module cordic_pipeline(1) $end
$upscope $end
$scope module cordic_pipeline(2) $end
$upscope $end
$scope module cordic_pipeline(3) $end
$upscope $end
$scope module cordic_pipeline(4) $end
$upscope $end
$scope module cordic_pipeline(5) $end
$upscope $end
$scope module cordic_pipeline(6) $end
$upscope $end
$scope module cordic_pipeline(7) $end
$upscope $end
$scope module cordic_pipeline(8) $end
$upscope $end
$scope module cordic_pipeline(9) $end
$upscope $end
$scope module cordic_pipeline(10) $end
$upscope $end
$scope module cordic_pipeline(11) $end
$upscope $end
$scope module cordic_pipeline(12) $end
$upscope $end
$scope module cordic_pipeline(13) $end
$upscope $end
$scope module cordic_pipeline(14) $end
$upscope $end
$scope module cordic_pipeline(15) $end
$upscope $end
$scope module cordic_pipeline(16) $end
$upscope $end
$scope module cordic_pipeline(17) $end
$upscope $end
$scope module cordic_pipeline(18) $end
$upscope $end
$scope module cordic_pipeline(19) $end
$upscope $end
$scope module cordic_pipeline(20) $end
$upscope $end
$scope module cordic_pipeline(21) $end
$upscope $end
$scope module cordic_pipeline(22) $end
$upscope $end
$scope module cordic_pipeline(23) $end
$upscope $end
$upscope $end
$upscope $end
$enddefinitions $end
#0
0!
1"
0#
b0000000000000000 $
b0000000000000000 %
1&
0'
0(
b00000000000000000000000000000000 )
0*
1+
0,
b0000000000000000 -
b0000000000000000 .
1/
00
01
b00000000000000000000000000000000 2
b0000000000000000000000000 3
#5000000
1!
1*
#10000000
0!
0*
#15000000
1!
1*
#20000000
0!
0*
#25000000
1!
1*
#30000000
0!
0*
#35000000
1!
1*
#40000000
0!
0*
#45000000
1!
1*
#50000000
0!
0*
#55000000
1!
0"
1*
0+
#60000000
0!
0*
#65000000
1!
1#
b0010011100010000 $
1*
1,
b0010011100010000 -
#70000000
0!
0*
#75000000
1!
0#
1'
1*
0,
10
b1000000000000000000000000 3
#80000000
0!
0*
#85000000
1!
1*
b0100000000000000000000000 3
#90000000
0!
0*
#95000000
1!
1*
b0010000000000000000000000 3
#100000000
0!
0*
#105000000
1!
1*
b0001000000000000000000000 3
#110000000
0!
0*
#115000000
1!
1*
b0000100000000000000000000 3
#120000000
0!
0*
#125000000
1!
1*
b0000010000000000000000000 3
#130000000
0!
0*
#135000000
1!
1*
b0000001000000000000000000 3
#140000000
0!
0*
#145000000
1!
1*
b0000000100000000000000000 3
#150000000
0!
0*
#155000000
1!
1*
b0000000010000000000000000 3
#160000000
0!
0*
#165000000
1!
1*
b0000000001000000000000000 3
#170000000
0!
0*
#175000000
1!
1*
b0000000000100000000000000 3
#180000000
0!
0*
#185000000
1!
1*
b0000000000010000000000000 3
#190000000
0!
0*
#195000000
1!
1*
b0000000000001000000000000 3
#200000000
0!
0*
#205000000
1!
1*
b0000000000000100000000000 3
#210000000
0!
0*
#215000000
1!
1*
b0000000000000010000000000 3
#220000000
0!
0*
#225000000
1!
1*
b0000000000000001000000000 3
#230000000
0!
0*
#235000000
1!
1*
b0000000000000000100000000 3
#240000000
0!
0*
#245000000
1!
1*
b0000000000000000010000000 3
#250000000
0!
0*
#255000000
1!
1*
b0000000000000000001000000 3
#260000000
0!
0*
#265000000
1!
1*
b0000000000000000000100000 3
#270000000
0!
0*
#275000000
1!
1*
b0000000000000000000010000 3
#280000000
0!
0*
#285000000
1!
1*
b0000000000000000000001000 3
#290000000
0!
0*
#295000000
1!
1*
b0000000000000000000000100 3
#300000000
0!
0*
#305000000
1!
1*
b0000000000000000000000010 3
#310000000
0!
0*
#315000000
1!
1(
b00000000000000001100010100101001 )
1*
11
b00000000000000001100010100101001 2
b0000000000000000000000001 3
#320000000
0!
0*
#325000000
1!
1#
b0010011100010000 %
0'
0(
b00000000000000000000000000000000 )
1*
1,
b0010011100010000 .
00
01
b00000000000000000000000000000000 2
b0000000000000000000000000 3
#330000000
0!
0*
#335000000
1!
0#
1'
1*
0,
10
b1000000000000000000000000 3
#340000000
0!
0*
#345000000
1!
1*
b0100000000000000000000000 3
#350000000
0!
0*
#355000000
1!
1*
b0010000000000000000000000 3
#360000000
0!
0*
#365000000
1!
1*
b0001000000000000000000000 3
#370000000
0!
0*
#375000000
1!
1*
b0000100000000000000000000 3
#380000000
0!
0*
#385000000
1!
1*
b0000010000000000000000000 3
#390000000
0!
0*
#395000000
1!
1*
b0000001000000000000000000 3
#400000000
0!
0*
#405000000
1!
1*
b0000000100000000000000000 3
#410000000
0!
0*
#415000000
1!
1*
b0000000010000000000000000 3
#420000000
0!
0*
#425000000
1!
1*
b0000000001000000000000000 3
#430000000
0!
0*
#435000000
1!
1*
b0000000000100000000000000 3
#440000000
0!
0*
#445000000
1!
1*
b0000000000010000000000000 3
#450000000
0!
0*
#455000000
1!
1*
b0000000000001000000000000 3
#460000000
0!
0*
#465000000
1!
1*
b0000000000000100000000000 3
#470000000
0!
0*
#475000000
1!
1*
b0000000000000010000000000 3
#480000000
0!
0*
#485000000
1!
1*
b0000000000000001000000000 3
#490000000
0!
0*
#495000000
1!
1*
b0000000000000000100000000 3
#500000000
0!
0*
#505000000
1!
1*
b0000000000000000010000000 3
#510000000
0!
0*
#515000000
1!
1*
b0000000000000000001000000 3
#520000000
0!
0*
#525000000
1!
1*
b0000000000000000000100000 3
#530000000
0!
0*
#535000000
1!
1*
b0000000000000000000010000 3
#540000000
0!
0*
#545000000
1!
1*
b0000000000000000000001000 3
#550000000
0!
0*
#555000000
1!
1*
b0000000000000000000000100 3
#560000000
0!
0*
#565000000
1!
1*
b0000000000000000000000010 3
#570000000
0!
0*
#575000000
1!
1(
b00100000000000000111101101000111 )
1*
11
b00100000000000000111101101000111 2
b0000000000000000000000001 3
#580000000
0!
0*
#585000000
1!
1#
b0000000000000000 $
b0010111011100000 %
0'
0(
b00000000000000000000000000000000 )
1*
1,
b0000000000000000 -
b0010111011100000 .
00
01
b00000000000000000000000000000000 2
b0000000000000000000000000 3
#590000000
0!
0*
#595000000
1!
0#
1'
1*
0,
10
b1000000000000000000000000 3
#600000000
0!
0*
#605000000
1!
1*
b0100000000000000000000000 3
#610000000
0!
0*
#615000000
1!
1*
b0010000000000000000000000 3
#620000000
0!
0*
#625000000
1!
1*
b0001000000000000000000000 3
#630000000
0!
0*
#635000000
1!
1*
b0000100000000000000000000 3
#640000000
0!
0*
#645000000
1!
1*
b0000010000000000000000000 3
#650000000
0!
0*
#655000000
1!
1*
b0000001000000000000000000 3
#660000000
0!
0*
#665000000
1!
1*
b0000000100000000000000000 3
#670000000
0!
0*
#675000000
1!
1*
b0000000010000000000000000 3
#680000000
0!
0*
#685000000
1!
1*
b0000000001000000000000000 3
#690000000
0!
0*
#695000000
1!
1*
b0000000000100000000000000 3
#700000000
0!
0*
#705000000
1!
1*
b0000000000010000000000000 3
#710000000
0!
0*
#715000000
1!
1*
b0000000000001000000000000 3
#720000000
0!
0*
#725000000
1!
1*
b0000000000000100000000000 3
#730000000
0!
0*
#735000000
1!
1*
b0000000000000010000000000 3
#740000000
0!
0*
#745000000
1!
1*
b0000000000000001000000000 3
#750000000
0!
0*
#755000000
1!
1*
b0000000000000000100000000 3
#760000000
0!
0*
#765000000
1!
1*
b0000000000000000010000000 3
#770000000
0!
0*
#775000000
1!
1*
b0000000000000000001000000 3
#780000000
0!
0*
#785000000
1!
1*
b0000000000000000000100000 3
#790000000
0!
0*
#795000000
1!
1*
b0000000000000000000010000 3
#800000000
0!
0*
#805000000
1!
1*
b0000000000000000000001000 3
#810000000
0!
0*
#815000000
1!
1*
b0000000000000000000000100 3
#820000000
0!
0*
#825000000
1!
1*
b0000000000000000000000010 3
#830000000
0!
0*
#835000000
1!
1(
b01000000000000001000000000100111 )
1*
11
b01000000000000001000000000100111 2
b0000000000000000000000001 3
#840000000
0!
0*
#845000000
1!
1#
b1101000100100000 $
0'
0(
b00000000000000000000000000000000 )
1*
1,
b1101000100100000 -
00
01
b00000000000000000000000000000000 2
b0000000000000000000000000 3
#850000000
0!
0*
#855000000
1!
0#
1'
1*
0,
10
b1000000000000000000000000 3
#860000000
0!
0*
#865000000
1!
1*
b0100000000000000000000000 3
#870000000
0!
0*
#875000000
1!
1*
b0010000000000000000000000 3
#880000000
0!
0*
#885000000
1!
1*
b0001000000000000000000000 3
#890000000
0!
0*
#895000000
1!
1*
b0000100000000000000000000 3
#900000000
0!
0*
#905000000
1!
1*
b0000010000000000000000000 3
#910000000
0!
0*
#915000000
1!
1*
b0000001000000000000000000 3
#920000000
0!
0*
#925000000
1!
1*
b0000000100000000000000000 3
#930000000
0!
0*
#935000000
1!
1*
b0000000010000000000000000 3
#940000000
0!
0*
#945000000
1!
1*
b0000000001000000000000000 3
#950000000
0!
0*
#955000000
1!
1*
b0000000000100000000000000 3
#960000000
0!
0*
#965000000
1!
1*
b0000000000010000000000000 3
#970000000
0!
0*
#975000000
1!
1*
b0000000000001000000000000 3
#980000000
0!
0*
#985000000
1!
1*
b0000000000000100000000000 3
#990000000
0!
0*
#995000000
1!
1*
b0000000000000010000000000 3
#1000000000
0!
0*
#1005000000
1!
1*
b0000000000000001000000000 3
#1010000000
0!
0*
#1015000000
1!
1*
b0000000000000000100000000 3
#1020000000
0!
0*
#1025000000
1!
1*
b0000000000000000010000000 3
#1030000000
0!
0*
#1035000000
1!
1*
b0000000000000000001000000 3
#1040000000
0!
0*
#1045000000
1!
1*
b0000000000000000000100000 3
#1050000000
0!
0*
#1055000000
1!
1*
b0000000000000000000010000 3
#1060000000
0!
0*
#1065000000
1!
1*
b0000000000000000000001000 3
#1070000000
0!
0*
#1075000000
1!
1*
b0000000000000000000000100 3
#1080000000
0!
0*
#1085000000
1!
1*
b0000000000000000000000010 3
#1090000000
0!
0*
#1095000000
1!
1(
b01100000000000000111101010100010 )
1*
11
b01100000000000000111101010100010 2
b0000000000000000000000001 3
#1100000000
0!
0*
#1105000000
1!
1#
b1101000100100000 %
0'
0(
b00000000000000000000000000000000 )
1*
1,
b1101000100100000 .
00
01
b00000000000000000000000000000000 2
b0000000000000000000000000 3
#1110000000
0!
0*
#1115000000
1!
0#
1'
1*
0,
10
b1000000000000000000000000 3
#1120000000
0!
0*
#1125000000
1!
1*
b0100000000000000000000000 3
#1130000000
0!
0*
#1135000000
1!
1*
b0010000000000000000000000 3
#1140000000
0!
0*
#1145000000
1!
1*
b0001000000000000000000000 3
#1150000000
0!
0*
#1155000000
1!
1*
b0000100000000000000000000 3
#1160000000
0!
0*
#1165000000
1!
1*
b0000010000000000000000000 3
#1170000000
0!
0*
#1175000000
1!
1*
b0000001000000000000000000 3
#1180000000
0!
0*
#1185000000
1!
1*
b0000000100000000000000000 3
#1190000000
0!
0*
#1195000000
1!
1*
b0000000010000000000000000 3
#1200000000
0!
0*
#1205000000
1!
1*
b0000000001000000000000000 3
#1210000000
0!
0*
#1215000000
1!
1*
b0000000000100000000000000 3
#1220000000
0!
0*
#1225000000
1!
1*
b0000000000010000000000000 3
#1230000000
0!
0*
#1235000000
1!
1*
b0000000000001000000000000 3
#1240000000
0!
0*
#1245000000
1!
1*
b0000000000000100000000000 3
#1250000000
0!
0*
#1255000000
1!
1*
b0000000000000010000000000 3
#1260000000
0!
0*
#1265000000
1!
1*
b0000000000000001000000000 3
#1270000000
0!
0*
#1275000000
1!
1*
b0000000000000000100000000 3
#1280000000
0!
0*
#1285000000
1!
1*
b0000000000000000010000000 3
#1290000000
0!
0*
#1295000000
1!
1*
b0000000000000000001000000 3
#1300000000
0!
0*
#1305000000
1!
1*
b0000000000000000000100000 3
#1310000000
0!
0*
#1315000000
1!
1*
b0000000000000000000010000 3
#1320000000
0!
0*
#1325000000
1!
1*
b0000000000000000000001000 3
#1330000000
0!
0*
#1335000000
1!
1*
b0000000000000000000000100 3
#1340000000
0!
0*
#1345000000
1!
1*
b0000000000000000000000010 3
#1350000000
0!
0*
#1355000000
1!
1(
b10100000000000000111101010100100 )
1*
11
b10100000000000000111101010100100 2
b0000000000000000000000001 3
#1360000000
0!
0*
#1365000000
1!
1#
b0000000000000000 $
b1101100011110000 %
0'
0(
b00000000000000000000000000000000 )
1*
1,
b0000000000000000 -
b1101100011110000 .
00
01
b00000000000000000000000000000000 2
b0000000000000000000000000 3
#1370000000
0!
0*
#1375000000
1!
0#
1'
1*
0,
10
b1000000000000000000000000 3
#1380000000
0!
0*
#1385000000
1!
1*
b0100000000000000000000000 3
#1390000000
0!
0*
#1395000000
1!
1*
b0010000000000000000000000 3
#1400000000
0!
0*
#1405000000
1!
1*
b0001000000000000000000000 3
#1410000000
0!
0*
#1415000000
1!
1*
b0000100000000000000000000 3
#1420000000
0!
0*
#1425000000
1!
1*
b0000010000000000000000000 3
#1430000000
0!
0*
#1435000000
1!
1*
b0000001000000000000000000 3
#1440000000
0!
0*
#1445000000
1!
1*
b0000000100000000000000000 3
#1450000000
0!
0*
#1455000000
1!
1*
b0000000010000000000000000 3
#1460000000
0!
0*
#1465000000
1!
1*
b0000000001000000000000000 3
#1470000000
0!
0*
#1475000000
1!
1*
b0000000000100000000000000 3
#1480000000
0!
0*
#1485000000
1!
1*
b0000000000010000000000000 3
#1490000000
0!
0*
#1495000000
1!
1*
b0000000000001000000000000 3
#1500000000
0!
0*
#1505000000
1!
1*
b0000000000000100000000000 3
#1510000000
0!
0*
#1515000000
1!
1*
b0000000000000010000000000 3
#1520000000
0!
0*
#1525000000
1!
1*
b0000000000000001000000000 3
#1530000000
0!
0*
#1535000000
1!
1*
b0000000000000000100000000 3
#1540000000
0!
0*
#1545000000
1!
1*
b0000000000000000010000000 3
#1550000000
0!
0*
#1555000000
1!
1*
b0000000000000000001000000 3
#1560000000
0!
0*
#1565000000
1!
1*
b0000000000000000000100000 3
#1570000000
0!
0*
#1575000000
1!
1*
b0000000000000000000010000 3
#1580000000
0!
0*
#1585000000
1!
1*
b0000000000000000000001000 3
#1590000000
0!
0*
#1595000000
1!
1*
b0000000000000000000000100 3
#1600000000
0!
0*
#1605000000
1!
1*
b0000000000000000000000010 3
#1610000000
0!
0*
#1615000000
1!
1(
b11000000000000001100010100101001 )
1*
11
b11000000000000001100010100101001 2
b0000000000000000000000001 3
#1620000000
0!
0*
#1625000000
1!
1#
b0001111101000000 $
b1111000001100000 %
0'
0(
b00000000000000000000000000000000 )
1*
1,
b0001111101000000 -
b1111000001100000 .
00
01
b00000000000000000000000000000000 2
b0000000000000000000000000 3
#1630000000
0!
0*
#1635000000
1!
0#
1'
1*
0,
10
b1000000000000000000000000 3
#1640000000
0!
0*
#1645000000
1!
1*
b0100000000000000000000000 3
#1650000000
0!
0*
#1655000000
1!
1*
b0010000000000000000000000 3
#1660000000
0!
0*
#1665000000
1!
1*
b0001000000000000000000000 3
#1670000000
0!
0*
#1675000000
1!
1*
b0000100000000000000000000 3
#1680000000
0!
0*
#1685000000
1!
1*
b0000010000000000000000000 3
#1690000000
0!
0*
#1695000000
1!
1*
b0000001000000000000000000 3
#1700000000
0!
0*
#1705000000
1!
1*
b0000000100000000000000000 3
#1710000000
0!
0*
#1715000000
1!
1*
b0000000010000000000000000 3
#1720000000
0!
0*
#1725000000
1!
1*
b0000000001000000000000000 3
#1730000000
0!
0*
#1735000000
1!
1*
b0000000000100000000000000 3
#1740000000
0!
0*
#1745000000
1!
1*
b0000000000010000000000000 3
#1750000000
0!
0*
#1755000000
1!
1*
b0000000000001000000000000 3
#1760000000
0!
0*
#1765000000
1!
1*
b0000000000000100000000000 3
#1770000000
0!
0*
#1775000000
1!
1*
b0000000000000010000000000 3
#1780000000
0!
0*
#1785000000
1!
1*
b0000000000000001000000000 3
#1790000000
0!
0*
#1795000000
1!
1*
b0000000000000000100000000 3
#1800000000
0!
0*
#1805000000
1!
1*
b0000000000000000010000000 3
#1810000000
0!
0*
#1815000000
1!
1*
b0000000000000000001000000 3
#1820000000
0!
0*
#1825000000
1!
1*
b0000000000000000000100000 3
#1830000000
0!
0*
#1835000000
1!
1*
b0000000000000000000010000 3
#1840000000
0!
0*
#1845000000
1!
1*
b0000000000000000000001000 3
#1850000000
0!
0*
#1855000000
1!
1*
b0000000000000000000000100 3
#1860000000
0!
0*
#1865000000
1!
1*
b0000000000000000000000010 3
#1870000000
0!
0*
#1875000000
1!
1(
b11101101000110101000001001110011 )
1*
11
b11101101000110101000001001110011 2
b0000000000000000000000001 3
#1880000000
0!
0*
#1885000000
1!
1#
b1110110001111000 $
b0010001100101000 %
0'
0(
b00000000000000000000000000000000 )
1*
1,
b1110110001111000 -
b0010001100101000 .
00
01
b00000000000000000000000000000000 2
b0000000000000000000000000 3
#1890000000
0!
0*
#1895000000
1!
0#
1'
1*
0,
10
b1000000000000000000000000 3
#1900000000
0!
0*
#1905000000
1!
1*
b0100000000000000000000000 3
#1910000000
0!
0*
#1915000000
1!
1*
b0010000000000000000000000 3
#1920000000
0!
0*
#1925000000
1!
1*
b0001000000000000000000000 3
#1930000000
0!
0*
#1935000000
1!
1*
b0000100000000000000000000 3
#1940000000
0!
0*
#1945000000
1!
1*
b0000010000000000000000000 3
#1950000000
0!
0*
#1955000000
1!
1*
b0000001000000000000000000 3
#1960000000
0!
0*
#1965000000
1!
1*
b0000000100000000000000000 3
#1970000000
0!
0*
#1975000000
1!
1*
b0000000010000000000000000 3
#1980000000
0!
0*
#1985000000
1!
1*
b0000000001000000000000000 3
#1990000000
0!
0*
#1995000000
1!
1*
b0000000000100000000000000 3
#2000000000
0!
0*
#2005000000
1!
1*
b0000000000010000000000000 3
#2010000000
0!
0*
#2015000000
1!
1*
b0000000000001000000000000 3
#2020000000
0!
0*
#2025000000
1!
1*
b0000000000000100000000000 3
#2030000000
0!
0*
#2035000000
1!
1*
b0000000000000010000000000 3
#2040000000
0!
0*
#2045000000
1!
1*
b0000000000000001000000000 3
#2050000000
0!
0*
#2055000000
1!
1*
b0000000000000000100000000 3
#2060000000
0!
0*
#2065000000
1!
1*
b0000000000000000010000000 3
#2070000000
0!
0*
#2075000000
1!
1*
b0000000000000000001000000 3
#2080000000
0!
0*
#2085000000
1!
1*
b0000000000000000000100000 3
#2090000000
0!
0*
#2095000000
1!
1*
b0000000000000000000010000 3
#2100000000
0!
0*
#2105000000
1!
1*
b0000000000000000000001000 3
#2110000000
0!
0*
#2115000000
1!
1*
b0000000000000000000000100 3
#2120000000
0!
0*
#2125000000
1!
1*
b0000000000000000000000010 3
#2130000000
0!
0*
#2135000000
1!
1(
b01010100101010010100100000011110 )
1*
11
b01010100101010010100100000011110 2
b0000000000000000000000001 3
#2140000000
0!
0*
#2145000000
1!
1#
b0000110011001100 $
b1111001100110100 %
0'
0(
b00000000000000000000000000000000 )
1*
1,
b0000110011001100 -
b1111001100110100 .
00
01
b00000000000000000000000000000000 2
b0000000000000000000000000 3
#2150000000
0!
0*
#2155000000
1!
0#
1'
1*
0,
10
b1000000000000000000000000 3
#2160000000
0!
0*
#2165000000
1!
1*
b0100000000000000000000000 3
#2170000000
0!
0*
#2175000000
1!
1*
b0010000000000000000000000 3
#2180000000
0!
0*
#2185000000
1!
1*
b0001000000000000000000000 3
#2190000000
0!
0*
#2195000000
1!
1*
b0000100000000000000000000 3
#2200000000
0!
0*
#2205000000
1!
1*
b0000010000000000000000000 3
#2210000000
0!
0*
#2215000000
1!
1*
b0000001000000000000000000 3
#2220000000
0!
0*
#2225000000
1!
1*
b0000000100000000000000000 3
#2230000000
0!
0*
#2235000000
1!
1*
b0000000010000000000000000 3
#2240000000
0!
0*
#2245000000
1!
1*
b0000000001000000000000000 3
#2250000000
0!
0*
#2255000000
1!
1*
b0000000000100000000000000 3
#2260000000
0!
0*
#2265000000
1!
1*
b0000000000010000000000000 3
#2270000000
0!
0*
#2275000000
1!
1*
b0000000000001000000000000 3
#2280000000
0!
0*
#2285000000
1!
1*
b0000000000000100000000000 3
#2290000000
0!
0*
#2295000000
1!
1*
b0000000000000010000000000 3
#2300000000
0!
0*
#2305000000
1!
1*
b0000000000000001000000000 3
#2310000000
0!
0*
#2315000000
1!
1*
b0000000000000000100000000 3
#2320000000
0!
0*
#2325000000
1!
1*
b0000000000000000010000000 3
#2330000000
0!
0*
#2335000000
1!
1*
b0000000000000000001000000 3
#2340000000
0!
0*
#2345000000
1!
1*
b0000000000000000000100000 3
#2350000000
0!
0*
#2355000000
1!
1*
b0000000000000000000010000 3
#2360000000
0!
0*
#2365000000
1!
1*
b0000000000000000000001000 3
#2370000000
0!
0*
#2375000000
1!
1*
b0000000000000000000000100 3
#2380000000
0!
0*
#2385000000
1!
1*
b0000000000000000000000010 3
#2390000000
0!
0*
#2395000000
1!
1(
b11100000000001101101100001100011 )
1*
11
b11100000000001101101100001100011 2
b0000000000000000000000001 3
#2400000000
0!
0*
#2405000000
1!
1#
b1111001100110100 $
b1111100000110000 %
0'
0(
b00000000000000000000000000000000 )
1*
1,
b1111001100110100 -
b1111100000110000 .
00
01
b00000000000000000000000000000000 2
b0000000000000000000000000 3
#2410000000
0!
0*
#2415000000
1!
0#
1'
1*
0,
10
b1000000000000000000000000 3
#2420000000
0!
0*
#2425000000
1!
1*
b0100000000000000000000000 3
#2430000000
0!
0*
#2435000000
1!
1*
b0010000000000000000000000 3
#2440000000
0!
0*
#2445000000
1!
1*
b0001000000000000000000000 3
#2450000000
0!
0*
#2455000000
1!
1*
b0000100000000000000000000 3
#2460000000
0!
0*
#2465000000
1!
1*
b0000010000000000000000000 3
#2470000000
0!
0*
#2475000000
1!
1*
b0000001000000000000000000 3
#2480000000
0!
0*
#2485000000
1!
1*
b0000000100000000000000000 3
#2490000000
0!
0*
#2495000000
1!
1*
b0000000010000000000000000 3
#2500000000
0!
0*
#2505000000
1!
1*
b0000000001000000000000000 3
#2510000000
0!
0*
#2515000000
1!
1*
b0000000000100000000000000 3
#2520000000
0!
0*
#2525000000
1!
1*
b0000000000010000000000000 3
#2530000000
0!
0*
#2535000000
1!
1*
b0000000000001000000000000 3
#2540000000
0!
0*
#2545000000
1!
1*
b0000000000000100000000000 3
#2550000000
0!
0*
#2555000000
1!
1*
b0000000000000010000000000 3
#2560000000
0!
0*
#2565000000
1!
1*
b0000000000000001000000000 3
#2570000000
0!
0*
#2575000000
1!
1*
b0000000000000000100000000 3
#2580000000
0!
0*
#2585000000
1!
1*
b0000000000000000010000000 3
#2590000000
0!
0*
#2595000000
1!
1*
b0000000000000000001000000 3
#2600000000
0!
0*
#2605000000
1!
1*
b0000000000000000000100000 3
#2610000000
0!
0*
#2615000000
1!
1*
b0000000000000000000010000 3
#2620000000
0!
0*
#2625000000
1!
1*
b0000000000000000000001000 3
#2630000000
0!
0*
#2635000000
1!
1*
b0000000000000000000000100 3
#2640000000
0!
0*
#2645000000
1!
1*
b0000000000000000000000010 3
