docs/radhdl/0.2.1/simulations/tb_radif_gpio_irq/tb_radif_gpio_irq.vcd
$date
  Wed Jul  8 18:12:49 2026
$end
$version
  GHDL v0
$end
$timescale
  1 fs
$end
$scope module standard $end
$upscope $end
$scope module textio $end
$upscope $end
$scope module std_logic_1164 $end
$upscope $end
$scope module numeric_std $end
$upscope $end
$scope module env $end
$upscope $end
$scope module tb_radif_gpio_irq $end
$var reg 1 ! clk $end
$var reg 1 " rstn $end
$var reg 4 # gpio_i[3:0] $end
$var reg 4 $ gpio_o[3:0] $end
$var reg 4 % gpio_oe[3:0] $end
$var reg 1 & gpio_irq $end
$var reg 16 ' gpio_wr_addr[15:0] $end
$var reg 16 ( gpio_rd_addr[15:0] $end
$var reg 1 ) gpio_wr_en $end
$var reg 1 * gpio_rd_en $end
$var reg 32 + gpio_data_in[31:0] $end
$var reg 32 , gpio_data_out[31:0] $end
$var reg 1 - gpio_wr_rdy $end
$var reg 1 . gpio_rd_rdy $end
$var reg 1 / gpio_wr_valid $end
$var reg 1 0 gpio_rd_valid $end
$var reg 1 1 gpio_error $end
$var reg 4 2 irq_inputs[3:0] $end
$var reg 1 3 irq_o $end
$var reg 4 4 irq_pending[3:0] $end
$var reg 16 5 irq_wr_addr[15:0] $end
$var reg 16 6 irq_rd_addr[15:0] $end
$var reg 1 7 irq_wr_en $end
$var reg 1 8 irq_rd_en $end
$var reg 32 9 irq_data_in[31:0] $end
$var reg 32 : irq_data_out[31:0] $end
$var reg 1 ; irq_wr_rdy $end
$var reg 1 < irq_rd_rdy $end
$var reg 1 = irq_wr_valid $end
$var reg 1 > irq_rd_valid $end
$var reg 1 ? irq_error $end
$scope module u_gpio $end
$var reg 1 @ clk $end
$var reg 1 A rstn $end
$var reg 4 B gpio_i[3:0] $end
$var reg 4 C gpio_o[3:0] $end
$var reg 4 D gpio_oe_o[3:0] $end
$var reg 1 E irq_o $end
$var reg 16 F reg_wr_addr[15:0] $end
$var reg 16 G reg_rd_addr[15:0] $end
$var reg 1 H reg_wr_en $end
$var reg 1 I reg_rd_en $end
$var reg 32 J reg_data_in[31:0] $end
$var reg 32 K reg_data_out[31:0] $end
$var reg 1 L reg_wr_rdy $end
$var reg 1 M reg_rd_rdy $end
$var reg 1 N reg_wr_valid $end
$var reg 1 O reg_rd_valid $end
$var reg 1 P reg_error $end
$var reg 4 Q out_value_r[3:0] $end
$var reg 4 R out_en_r[3:0] $end
$var reg 4 S irq_stat_r[3:0] $end
$var reg 4 T irq_mask_r[3:0] $end
$var reg 4 U rise_en_r[3:0] $end
$var reg 4 V fall_en_r[3:0] $end
$var reg 4 W gpio_meta_r[3:0] $end
$var reg 4 X gpio_sync_r[3:0] $end
$var reg 4 Y gpio_prev_r[3:0] $end
$var reg 32 Z rd_data_r[31:0] $end
$var reg 1 [ wr_valid_r $end
$var reg 1 \ rd_valid_r $end
$var reg 1 ] error_r $end
$upscope $end
$scope module u_irq $end
$var reg 1 ^ clk $end
$var reg 1 _ rstn $end
$var reg 4 ` irq_i[3:0] $end
$var reg 1 a irq_o $end
$var reg 4 b irq_pending_o[3:0] $end
$var reg 16 c reg_wr_addr[15:0] $end
$var reg 16 d reg_rd_addr[15:0] $end
$var reg 1 e reg_wr_en $end
$var reg 1 f reg_rd_en $end
$var reg 32 g reg_data_in[31:0] $end
$var reg 32 h reg_data_out[31:0] $end
$var reg 1 i reg_wr_rdy $end
$var reg 1 j reg_rd_rdy $end
$var reg 1 k reg_wr_valid $end
$var reg 1 l reg_rd_valid $end
$var reg 1 m reg_error $end
$var reg 32 n control_r[31:0] $end
$var reg 4 o mask_r[3:0] $end
$var reg 4 p pending_r[3:0] $end
$var reg 4 q irq_meta_r[3:0] $end
$var reg 4 r irq_sync_r[3:0] $end
$var reg 32 s rd_data_r[31:0] $end
$var reg 1 t wr_valid_r $end
$var reg 1 u rd_valid_r $end
$var reg 1 v error_r $end
$upscope $end
$upscope $end
$enddefinitions $end
#0
0!
0"
b0000 #
b0000 $
b0000 %
0&
b0000000000000000 '
b0000000000000000 (
0)
0*
b00000000000000000000000000000000 +
b00000000000000000000000000000000 ,
1-
1.
0/
00
01
b0000 2
03
b0000 4
b0000000000000000 5
b0000000000000000 6
07
08
b00000000000000000000000000000000 9
b00000000000000000000000000000000 :
1;
1<
0=
0>
0?
0@
0A
b0000 B
b0000 C
b0000 D
0E
b0000000000000000 F
b0000000000000000 G
0H
0I
b00000000000000000000000000000000 J
b00000000000000000000000000000000 K
1L
1M
0N
0O
0P
b0000 Q
b0000 R
b0000 S
b0000 T
b0000 U
b0000 V
b0000 W
b0000 X
b0000 Y
b00000000000000000000000000000000 Z
0[
0\
0]
0^
0_
b0000 `
0a
b0000 b
b0000000000000000 c
b0000000000000000 d
0e
0f
b00000000000000000000000000000000 g
b00000000000000000000000000000000 h
1i
1j
0k
0l
0m
b00000000000000000000000000000000 n
b0000 o
b0000 p
b0000 q
b0000 r
b00000000000000000000000000000000 s
0t
0u
0v
#5000000
1!
1@
1^
#10000000
0!
0@
0^
#15000000
1!
1@
1^
#20000000
0!
0@
0^
#25000000
1!
1@
1^
#30000000
0!
0@
0^
#35000000
1!
1@
1^
#40000000
0!
0@
0^
#45000000
1!
1@
1^
#50000000
0!
0@
0^
#55000000
1!
1@
1^
#60000000
0!
0@
0^
#65000000
1!
1@
1^
#70000000
0!
0@
0^
#75000000
1!
1@
1^
#80000000
0!
0@
0^
#85000000
1!
1@
1^
#90000000
0!
0@
0^
#95000000
1!
1@
1^
#100000000
0!
1"
0@
1A
0^
1_
#105000000
1!
1@
1^
#110000000
0!
0@
0^
#115000000
1!
1@
1^
#120000000
0!
0@
0^
#125000000
1!
1@
1^
#130000000
0!
0@
0^
#135000000
1!
1@
1^
#140000000
0!
0@
0^
#145000000
1!
1@
1^
#150000000
0!
0@
0^
#155000000
1!
1)
b00000000000000000000000000001010 +
1@
1H
b00000000000000000000000000001010 J
1^
#160000000
0!
0@
0^
#165000000
1!
b1010 $
0)
1/
1@
b1010 C
0H
1N
b1010 Q
1[
1^
#170000000
0!
0@
0^
#175000000
1!
b0000000000000100 '
1)
b00000000000000000000000000001111 +
0/
1@
b0000000000000100 F
1H
b00000000000000000000000000001111 J
0N
0[
1^
#180000000
0!
0@
0^
#185000000
1!
b0010 #
b1111 %
0)
1/
1@
b0010 B
b1111 D
0H
1N
b1111 R
1[
1^
#190000000
0!
0@
0^
#195000000
1!
0/
1@
0N
b0010 W
0[
1^
#200000000
0!
0@
0^
#205000000
1!
1@
b0010 X
1^
#210000000
0!
0@
0^
#215000000
1!
1@
b0010 Y
1^
#220000000
0!
0@
0^
#225000000
1!
1@
1^
#230000000
0!
0@
0^
#235000000
1!
b0000000000001000 (
1*
1@
b0000000000001000 G
1I
1^
#240000000
0!
0@
0^
#245000000
1!
0*
b00000000000000000000000000000010 ,
10
1@
0I
b00000000000000000000000000000010 K
1O
b00000000000000000000000000000010 Z
1\
1^
#250000000
0!
0@
0^
#255000000
1!
b0000000000010000 '
1)
b00000000000000000000000000000010 +
00
1@
b0000000000010000 F
1H
b00000000000000000000000000000010 J
0O
0\
1^
#260000000
0!
0@
0^
#265000000
1!
0)
1/
1@
0H
1N
b0010 T
1[
1^
#270000000
0!
0@
0^
#275000000
1!
b0000000000010100 '
1)
0/
1@
b0000000000010100 F
1H
0N
0[
1^
#280000000
0!
0@
0^
#285000000
1!
b0000 #
0)
1/
1@
b0000 B
0H
1N
b0010 U
1[
1^
#290000000
0!
0@
0^
#295000000
1!
0/
1@
0N
b0000 W
0[
1^
#300000000
0!
0@
0^
#305000000
1!
1@
b0000 X
1^
#310000000
0!
0@
0^
#315000000
1!
1@
b0000 Y
1^
#320000000
0!
0@
0^
#325000000
1!
b0010 #
1@
b0010 B
1^
#330000000
0!
0@
0^
#335000000
1!
1@
b0010 W
1^
#340000000
0!
0@
0^
#345000000
1!
1@
b0010 X
1^
#350000000
0!
0@
0^
#355000000
1!
1&
b1000 2
1@
1E
b0010 S
b0010 Y
1^
b1000 `
#360000000
0!
0@
0^
#365000000
1!
1@
1^
b1000 q
#370000000
0!
0@
0^
#375000000
1!
1@
1^
b1000 r
#380000000
0!
0@
0^
#385000000
1!
1@
1^
b1000 p
#390000000
0!
0@
0^
#395000000
1!
b0000000000001100 (
1*
1@
b0000000000001100 G
1I
1^
#400000000
0!
0@
0^
#405000000
1!
0*
10
1@
0I
1O
1\
1^
#410000000
0!
0@
0^
#415000000
1!
00
b0000000000001000 5
17
b00000000000000000000000000001000 9
1@
0O
0\
1^
b0000000000001000 c
1e
b00000000000000000000000000001000 g
#420000000
0!
0@
0^
#425000000
1!
b1000 4
07
1=
1@
1^
b1000 b
0e
1k
b1000 o
1t
#430000000
0!
0@
0^
#435000000
1!
b0000000000000000 5
17
b00000000000000000000000000000001 9
0=
1@
1^
b0000000000000000 c
1e
b00000000000000000000000000000001 g
0k
0t
#440000000
0!
0@
0^
#445000000
1!
13
07
1=
1@
1^
1a
0e
1k
b00000000000000000000000000000001 n
1t
#450000000
0!
0@
0^
#455000000
1!
0=
1@
1^
0k
0t
#460000000
0!
0@
0^
#465000000
1!
1@
1^
#470000000
0!
0@
0^
#475000000
1!
1@
1^
#480000000
0!
0@
0^
#485000000
1!
1@
1^
#490000000
0!
0@
0^
#495000000
1!
1@
1^
#500000000
0!
0@
0^
#505000000
1!
1@
1^
#510000000
0!
0@
0^
#515000000
1!
1@
1^
#520000000
0!
0@
0^
#525000000
1!
1@
1^
#530000000
0!
0@
0^
#535000000
1!
b0000000000001100 6
18
1@
1^
b0000000000001100 d
1f
#540000000
0!
0@
0^
#545000000
1!
08
b00000000000000000000000000001000 :
1>
1@
1^
0f
b00000000000000000000000000001000 h
1l
b00000000000000000000000000001000 s
1u
#550000000
0!
0@
0^
#555000000
1!
b0000000000001100 '
1)
0>
1@
b0000000000001100 F
1H
1^
0l
0u
#560000000
0!
0@
0^
#565000000
1!
0&
0)
1/
b0000 2
1@
0E
0H
1N
b0000 S
1[
1^
b0000 `
#570000000
0!
0@
0^
#575000000
1!
0/
1@
0N
0[
1^
b0000 q
#580000000
0!
0@
0^
#585000000
1!
1@
1^
b0000 r
#590000000
0!
0@
0^
#595000000
1!
1@
1^
#600000000
0!
0@
0^
#605000000
1!
b0000000000010000 5
17
b00000000000000000000000000001000 9
1@
1^
b0000000000010000 c
1e
b00000000000000000000000000001000 g
#610000000
0!
0@
0^
#615000000
1!
03
b0000 4
07
1=
1@
1^
0a
b0000 b
0e
1k
b0000 p
1t
#620000000
0!
0@
0^
#625000000
1!
0=
1@
1^
0k
0t
