docs/radhdl/0.2.1/simulations/tb_radif_reg_bank/tb_radif_reg_bank.vcd
$date
  Wed Jul  8 18:37:39 2026
$end
$version
  GHDL v0
$end
$timescale
  1 fs
$end
$scope module standard $end
$upscope $end
$scope module textio $end
$upscope $end
$scope module std_logic_1164 $end
$upscope $end
$scope module numeric_std $end
$upscope $end
$scope module radif_pkg $end
$upscope $end
$scope module env $end
$upscope $end
$scope module tb_radif_reg_bank $end
$var reg 1 ! clk $end
$var reg 1 " rstn $end
$var reg 16 # wr_addr[15:0] $end
$var reg 16 $ rd_addr[15:0] $end
$var reg 1 % wr_en $end
$var reg 1 & rd_en $end
$var reg 32 ' din[31:0] $end
$var reg 32 ( dout[31:0] $end
$var reg 1 ) wr_rdy $end
$var reg 1 * rd_rdy $end
$var reg 1 + wr_valid $end
$var reg 1 , rd_valid $end
$var reg 1 - error $end
$comment ro_regs is not handled $end
$comment rw_regs is not handled $end
$scope module u_dut $end
$var reg 1 . clk $end
$var reg 1 / rstn $end
$var reg 16 0 wr_addr[15:0] $end
$var reg 16 1 rd_addr[15:0] $end
$var reg 1 2 wr_en $end
$var reg 1 3 rd_en $end
$var reg 32 4 data_in[31:0] $end
$var reg 32 5 data_out[31:0] $end
$comment read_only_regs_i is not handled $end
$comment read_write_regs_o is not handled $end
$var reg 1 6 wr_rdy $end
$var reg 1 7 rd_rdy $end
$var reg 1 8 wr_valid $end
$var reg 1 9 rd_valid $end
$var reg 1 : error $end
$comment regs is not handled $end
$var reg 32 ; rd_data_r[31:0] $end
$var reg 1 < wr_v_r $end
$var reg 1 = rd_v_r $end
$var reg 1 > err_r $end
$scope module gen_xilinx_vendor $end
$upscope $end
$upscope $end
$upscope $end
$enddefinitions $end
#0
0!
0"
b0000000000000000 #
b0000000000000000 $
0%
0&
b00000000000000000000000000000000 '
b00000000000000000000000000000000 (
1)
1*
0+
0,
0-
0.
0/
b0000000000000000 0
b0000000000000000 1
02
03
b00000000000000000000000000000000 4
b00000000000000000000000000000000 5
16
17
08
09
0:
b00000000000000000000000000000000 ;
0<
0=
0>
#5000000
1!
1.
#10000000
0!
0.
#15000000
1!
1.
#20000000
0!
0.
#25000000
1!
1.
#30000000
0!
0.
#35000000
1!
1.
#40000000
0!
1"
0.
1/
#45000000
1!
b0000000000001000 #
1%
b00010010001101000101011001111000 '
1.
b0000000000001000 0
12
b00010010001101000101011001111000 4
#50000000
0!
0.
#55000000
1!
0%
1+
1.
02
18
1<
#60000000
0!
0.
#65000000
1!
b0000000000001000 $
1&
0+
1.
b0000000000001000 1
13
08
0<
#70000000
0!
0.
#75000000
1!
0&
b00010010001101000101011001111000 (
1,
1.
03
b00010010001101000101011001111000 5
19
b00010010001101000101011001111000 ;
1=
#80000000
0!
0.
#85000000
1!
b0000000000010000 $
1&
0,
1.
b0000000000010000 1
13
09
0=
#90000000
0!
0.
#95000000
1!
0&
b10100101101001010000000000000001 (
1,
1.
03
b10100101101001010000000000000001 5
19
b10100101101001010000000000000001 ;
1=
#100000000
0!
0.
#105000000
1!
b0000000000010000 #
1%
b11011110101011011011111011101111 '
0,
1.
b0000000000010000 0
12
b11011110101011011011111011101111 4
09
0=
#110000000
0!
0.
#115000000
1!
0%
1+
1-
1.
02
18
1:
1<
1>
#120000000
0!
0.
#125000000
1!
b0000000000100000 #
1%
0+
0-
1.
b0000000000100000 0
12
08
0:
0<
0>
#130000000
0!
0.
#135000000
1!
0%
1+
1-
1.
02
18
1:
1<
1>
