docs/radhdl/current/simulations/tb_radif_axi4_axis_dma/tb_radif_axi4_axis_dma.vcd
$date
  Wed Jul  8 13:14:29 2026
$end
$version
  GHDL v0
$end
$timescale
  1 fs
$end
$scope module standard $end
$upscope $end
$scope module textio $end
$upscope $end
$scope module std_logic_1164 $end
$upscope $end
$scope module numeric_std $end
$upscope $end
$scope module env $end
$upscope $end
$scope module tb_radif_axi4_axis_dma $end
$var reg 1 ! clk $end
$var reg 1 " rstn $end
$var reg 16 # reg_wr_addr[15:0] $end
$var reg 16 $ reg_rd_addr[15:0] $end
$var reg 1 % reg_wr_en $end
$var reg 1 & reg_rd_en $end
$var reg 32 ' reg_din[31:0] $end
$var reg 32 ( reg_dout[31:0] $end
$var reg 1 ) reg_wr_rdy $end
$var reg 1 * reg_rd_rdy $end
$var reg 1 + reg_wr_valid $end
$var reg 1 , reg_rd_valid $end
$var reg 1 - reg_error $end
$var reg 1 . irq $end
$var reg 32 / awaddr[31:0] $end
$var reg 8 0 awlen[7:0] $end
$var reg 3 1 awsize[2:0] $end
$var reg 2 2 awburst[1:0] $end
$var reg 1 3 awvalid $end
$var reg 1 4 awready $end
$var reg 32 5 wdata[31:0] $end
$var reg 4 6 wstrb[3:0] $end
$var reg 1 7 wlast $end
$var reg 1 8 wvalid $end
$var reg 1 9 wready $end
$var reg 2 : bresp[1:0] $end
$var reg 1 ; bvalid $end
$var reg 1 < bready $end
$var reg 32 = araddr[31:0] $end
$var reg 8 > arlen[7:0] $end
$var reg 3 ? arsize[2:0] $end
$var reg 2 @ arburst[1:0] $end
$var reg 1 A arvalid $end
$var reg 1 B arready $end
$var reg 32 C rdata[31:0] $end
$var reg 2 D rresp[1:0] $end
$var reg 1 E rlast $end
$var reg 1 F rvalid $end
$var reg 1 G rready $end
$var reg 32 H m_tdata[31:0] $end
$var reg 1 I m_tvalid $end
$var reg 1 J m_tready $end
$var reg 1 K m_tlast $end
$var reg 32 L s_tdata[31:0] $end
$var reg 1 M s_tvalid $end
$var reg 1 N s_tready $end
$var reg 1 O s_tlast $end
$scope module u_dut $end
$var reg 1 P clk $end
$var reg 1 Q rstn $end
$var reg 16 R reg_wr_addr[15:0] $end
$var reg 16 S reg_rd_addr[15:0] $end
$var reg 1 T reg_wr_en $end
$var reg 1 U reg_rd_en $end
$var reg 32 V reg_data_in[31:0] $end
$var reg 32 W reg_data_out[31:0] $end
$var reg 1 X reg_wr_rdy $end
$var reg 1 Y reg_rd_rdy $end
$var reg 1 Z reg_wr_valid $end
$var reg 1 [ reg_rd_valid $end
$var reg 1 \ reg_error $end
$var reg 1 ] irq_o $end
$var reg 32 ^ m_axi_awaddr[31:0] $end
$var reg 8 _ m_axi_awlen[7:0] $end
$var reg 3 ` m_axi_awsize[2:0] $end
$var reg 2 a m_axi_awburst[1:0] $end
$var reg 1 b m_axi_awvalid $end
$var reg 1 c m_axi_awready $end
$var reg 32 d m_axi_wdata[31:0] $end
$var reg 4 e m_axi_wstrb[3:0] $end
$var reg 1 f m_axi_wlast $end
$var reg 1 g m_axi_wvalid $end
$var reg 1 h m_axi_wready $end
$var reg 2 i m_axi_bresp[1:0] $end
$var reg 1 j m_axi_bvalid $end
$var reg 1 k m_axi_bready $end
$var reg 32 l m_axi_araddr[31:0] $end
$var reg 8 m m_axi_arlen[7:0] $end
$var reg 3 n m_axi_arsize[2:0] $end
$var reg 2 o m_axi_arburst[1:0] $end
$var reg 1 p m_axi_arvalid $end
$var reg 1 q m_axi_arready $end
$var reg 32 r m_axi_rdata[31:0] $end
$var reg 2 s m_axi_rresp[1:0] $end
$var reg 1 t m_axi_rlast $end
$var reg 1 u m_axi_rvalid $end
$var reg 1 v m_axi_rready $end
$var reg 32 w m_axis_tdata[31:0] $end
$var reg 1 x m_axis_tvalid $end
$var reg 1 y m_axis_tready $end
$var reg 1 z m_axis_tlast $end
$var reg 32 { s_axis_tdata[31:0] $end
$var reg 1 | s_axis_tvalid $end
$var reg 1 } s_axis_tready $end
$var reg 1 !" s_axis_tlast $end
$var reg 32 "" control_r[31:0] $end
$var reg 32 #" status_r[31:0] $end
$var reg 32 $" mm2s_base_r[31:0] $end
$var reg 32 %" mm2s_end_r[31:0] $end
$var reg 32 &" mm2s_addr_r[31:0] $end
$var reg 32 '" mm2s_len_r[31:0] $end
$var reg 32 (" mm2s_rem_r[31:0] $end
$var reg 32 )" s2mm_base_r[31:0] $end
$var reg 32 *" s2mm_end_r[31:0] $end
$var reg 32 +" s2mm_addr_r[31:0] $end
$var reg 32 ," s2mm_len_r[31:0] $end
$var reg 32 -" s2mm_rem_r[31:0] $end
$comment mm2s_state is not handled $end
$comment s2mm_state is not handled $end
$var reg 32 ." rd_data_r[31:0] $end
$var reg 1 /" wr_valid_r $end
$var reg 1 0" rd_valid_r $end
$var reg 1 1" error_r $end
$var reg 1 2" irq_r $end
$var reg 32 3" awaddr_r[31:0] $end
$var reg 32 4" araddr_r[31:0] $end
$var reg 1 5" awvalid_r $end
$var reg 1 6" wvalid_r $end
$var reg 1 7" bready_r $end
$var reg 1 8" arvalid_r $end
$var reg 1 9" rready_r $end
$var reg 32 :" wdata_r[31:0] $end
$var reg 33 ;" mm_fifo_din[32:0] $end
$var reg 33 <" mm_fifo_dout[32:0] $end
$var reg 1 =" mm_fifo_wr_en $end
$var reg 1 >" mm_fifo_rd_en $end
$var reg 1 ?" mm_fifo_empty $end
$var reg 1 @" mm_fifo_full $end
$var reg 1 A" mm_fifo_valid $end
$var reg 1 B" mm_fifo_rst $end
$var reg 1 C" mm_word_valid $end
$var reg 32 D" mm_word_data[31:0] $end
$var reg 1 E" mm_word_last $end
$var reg 1 F" mm_wait_data $end
$var reg 33 G" s2_fifo_din[32:0] $end
$var reg 33 H" s2_fifo_dout[32:0] $end
$var reg 1 I" s2_fifo_wr_en $end
$var reg 1 J" s2_fifo_rd_en $end
$var reg 1 K" s2_fifo_empty $end
$var reg 1 L" s2_fifo_full $end
$var reg 1 M" s2_fifo_valid $end
$var reg 1 N" s2_fifo_rst $end
$var reg 1 O" s2_word_valid $end
$var reg 32 P" s2_word_data[31:0] $end
$var reg 1 Q" s2_word_last $end
$var reg 1 R" s2_wait_data $end
$var reg 1 S" s2_aw_done $end
$var reg 1 T" s2_w_done $end
$scope module gen_xilinx_vendor $end
$upscope $end
$scope module u_mm2s_fifo $end
$upscope $end
$scope module u_s2mm_fifo $end
$upscope $end
$upscope $end
$upscope $end
$enddefinitions $end
#0
0!
0"
b0000000000000000 #
b0000000000000000 $
0%
0&
b00000000000000000000000000000000 '
b00000000000000000000000000000000 (
1)
1*
0+
0,
0-
0.
b00000000000000000000000000000000 /
b00000000 0
b010 1
b01 2
03
14
b00000000000000000000000000000000 5
b1111 6
17
08
19
b00 :
0;
0<
b00000000000000000000000000000000 =
b00000000 >
b010 ?
b01 @
0A
1B
b00000000000000000000000000000000 C
b00 D
1E
0F
0G
b00000000000000000000000000000000 H
0I
1J
0K
b00000000000000000000000000000000 L
0M
0N
0O
0P
0Q
b0000000000000000 R
b0000000000000000 S
0T
0U
b00000000000000000000000000000000 V
b00000000000000000000000000000000 W
1X
1Y
0Z
0[
0\
0]
b00000000000000000000000000000000 ^
b00000000 _
b010 `
b01 a
0b
1c
b00000000000000000000000000000000 d
b1111 e
1f
0g
1h
b00 i
0j
0k
b00000000000000000000000000000000 l
b00000000 m
b010 n
b01 o
0p
1q
b00000000000000000000000000000000 r
b00 s
1t
0u
0v
b00000000000000000000000000000000 w
0x
1y
0z
b00000000000000000000000000000000 {
0|
0}
0!"
b00000000000000000000000000000000 ""
b00000000000000000000000000000000 #"
b00000000000000000000000000000000 $"
b00000000000000000000000000000000 %"
b00000000000000000000000000000000 &"
b00000000000000000000000000000000 '"
b00000000000000000000000000000000 ("
b00000000000000000000000000000000 )"
b00000000000000000000000000000000 *"
b00000000000000000000000000000000 +"
b00000000000000000000000000000000 ,"
b00000000000000000000000000000000 -"
b00000000000000000000000000000000 ."
0/"
00"
01"
02"
b00000000000000000000000000000000 3"
b00000000000000000000000000000000 4"
05"
06"
07"
08"
09"
b00000000000000000000000000000000 :"
b000000000000000000000000000000000 ;"
bUUUUUUUUUUUUUUUUUUUUUUUUUUUUUUUUU <"
0="
0>"
U?"
U@"
UA"
1B"
0C"
b00000000000000000000000000000000 D"
0E"
0F"
b000000000000000000000000000000000 G"
bUUUUUUUUUUUUUUUUUUUUUUUUUUUUUUUUU H"
0I"
0J"
UK"
UL"
UM"
1N"
0O"
b00000000000000000000000000000000 P"
0Q"
0R"
0S"
0T"
#5000000
1!
1P
#10000000
0!
0P
#15000000
1!
1P
#20000000
0!
0P
#25000000
1!
1P
#30000000
0!
0P
#35000000
1!
1P
#40000000
0!
0P
#45000000
1!
1P
#50000000
0!
0P
#55000000
1!
1P
#60000000
0!
1"
0P
1Q
0B"
0N"
#65000000
1!
b0000000000001000 #
1%
b00000000000000000000000100000000 '
1P
b0000000000001000 R
1T
b00000000000000000000000100000000 V
b000000000000000000000000UUUU0000 #"
#70000000
0!
0P
#75000000
1!
1+
1P
1Z
b00000000000000000000000100000000 $"
1/"
#76000000
0%
0T
#80000000
0!
0P
#85000000
1!
b0000000000010000 #
1%
b00000000000000000000000100001000 '
0+
1P
b0000000000010000 R
1T
b00000000000000000000000100001000 V
0Z
0/"
#90000000
0!
0P
#95000000
1!
1+
1P
1Z
b00000000000000000000000100001000 %"
1/"
#96000000
0%
0T
#100000000
0!
0P
#105000000
1!
b0000000000011000 #
1%
b00000000000000000000000000000100 '
0+
1P
b0000000000011000 R
1T
b00000000000000000000000000000100 V
0Z
0/"
#110000000
0!
0P
#115000000
1!
1+
1P
1Z
b00000000000000000000000000000100 '"
1/"
#116000000
0%
0T
#120000000
0!
0P
#125000000
1!
b0000000000000000 #
1%
b00000000000000000000000000000001 '
0+
1P
b0000000000000000 R
1T
b00000000000000000000000000000001 V
0Z
0/"
#130000000
0!
0P
#135000000
1!
1+
1P
1Z
b00000000000000000000000000000001 ""
b000000000000000000000000UUUU0001 #"
b00000000000000000000000100000000 &"
b00000000000000000000000000000100 ("
1/"
#136000000
0%
0T
#140000000
0!
0P
#145000000
1!
0+
1P
0Z
0/"
