docs/radhdl/0.2.1/simulations/tb_radif_reg_to_spi_master/tb_radif_reg_to_spi_master.vcd
$date
  Wed Jul  8 18:12:51 2026
$end
$version
  GHDL v0
$end
$timescale
  1 fs
$end
$scope module standard $end
$upscope $end
$scope module textio $end
$upscope $end
$scope module std_logic_1164 $end
$upscope $end
$scope module numeric_std $end
$upscope $end
$scope module env $end
$upscope $end
$scope module tb_radif_reg_to_spi_master $end
$var reg 1 ! clk $end
$var reg 1 " rstn $end
$var reg 16 # reg_wr_addr[15:0] $end
$var reg 16 $ reg_rd_addr[15:0] $end
$var reg 1 % reg_wr_en $end
$var reg 1 & reg_rd_en $end
$var reg 32 ' reg_data_in[31:0] $end
$var reg 32 ( reg_data_out[31:0] $end
$var reg 1 ) reg_wr_rdy $end
$var reg 1 * reg_rd_rdy $end
$var reg 1 + reg_wr_valid $end
$var reg 1 , reg_rd_valid $end
$var reg 1 - reg_error $end
$var reg 1 . spi_sclk $end
$var reg 1 / spi_cs_n $end
$var reg 1 0 spi_mosi $end
$var reg 1 1 spi_miso $end
$scope module dut $end
$var reg 1 2 clk $end
$var reg 1 3 rstn $end
$var reg 16 4 reg_wr_addr[15:0] $end
$var reg 16 5 reg_rd_addr[15:0] $end
$var reg 1 6 reg_wr_en $end
$var reg 1 7 reg_rd_en $end
$var reg 32 8 reg_data_in[31:0] $end
$var reg 32 9 reg_data_out[31:0] $end
$var reg 1 : reg_wr_rdy $end
$var reg 1 ; reg_rd_rdy $end
$var reg 1 < reg_wr_valid $end
$var reg 1 = reg_rd_valid $end
$var reg 1 > reg_error $end
$var reg 1 ? spi_sclk_o $end
$var reg 1 @ spi_cs_n_o $end
$var reg 1 A spi_mosi_o $end
$var reg 1 B spi_miso_i $end
$var reg 32 C control_r[31:0] $end
$var reg 32 D status_r[31:0] $end
$var reg 16 E clk_div_r[15:0] $end
$var reg 32 F config_r[31:0] $end
$var reg 32 G tx_data_r[31:0] $end
$var reg 32 H rx_data_r[31:0] $end
$var reg 32 I shift_tx_r[31:0] $end
$var reg 32 J shift_rx_r[31:0] $end
$comment state is not handled $end
$var reg 16 K div_count[15:0] $end
$var integer 32 L bit_count $end
$var integer 32 M bits_total $end
$var reg 1 N sclk_r $end
$var reg 1 O cs_n_r $end
$var reg 1 P mosi_r $end
$var reg 1 Q wr_valid_r $end
$var reg 1 R rd_valid_r $end
$var reg 1 S error_r $end
$var reg 32 T rd_data_r[31:0] $end
$upscope $end
$upscope $end
$enddefinitions $end
#0
0!
0"
b0000000000000000 #
b0000000000000000 $
0%
0&
b00000000000000000000000000000000 '
b00000000000000000000000000000000 (
1)
1*
0+
0,
0-
0.
1/
00
01
02
03
b0000000000000000 4
b0000000000000000 5
06
07
b00000000000000000000000000000000 8
b00000000000000000000000000000000 9
1:
1;
0<
0=
0>
0?
1@
0A
0B
b00000000000000000000000000000000 C
b00000000000000000000000000000000 D
b0000000000000001 E
b00000000000000000000000000000000 F
b00000000000000000000000000000000 G
b00000000000000000000000000000000 H
b00000000000000000000000000000000 I
b00000000000000000000000000000000 J
b0000000000000000 K
b0 L
b1000 M
0N
1O
0P
0Q
0R
0S
b00000000000000000000000000000000 T
#5000000
1!
12
b00000000000000000000100000000000 F
#10000000
0!
02
#15000000
1!
12
#20000000
0!
02
#25000000
1!
12
#30000000
0!
02
#35000000
1!
12
#40000000
0!
1"
02
13
#45000000
1!
b0000000000001000 #
1%
b00000000000000000000000000000001 '
12
b0000000000001000 4
16
b00000000000000000000000000000001 8
#50000000
0!
02
#55000000
1!
0%
1+
12
06
1<
1Q
#60000000
0!
02
#65000000
1!
b0000000000001100 #
1%
b00000000000000000000100000000000 '
0+
12
b0000000000001100 4
16
b00000000000000000000100000000000 8
0<
0Q
#70000000
0!
02
#75000000
1!
0%
1+
12
06
1<
1Q
#80000000
0!
02
#85000000
1!
b0000000000010000 #
1%
b10100101000000000000000000000000 '
0+
12
b0000000000010000 4
16
b10100101000000000000000000000000 8
0<
0Q
#90000000
0!
02
#95000000
1!
0%
1+
12
06
1<
b10100101000000000000000000000000 G
1Q
#100000000
0!
02
#105000000
1!
b0000000000000000 #
1%
b00000000000000000000000000000001 '
0+
12
b0000000000000000 4
16
b00000000000000000000000000000001 8
0<
0Q
#110000000
0!
02
#115000000
1!
0%
1+
10
11
12
06
1<
1A
1B
b00000000000000000000000000000001 C
b10100101000000000000000000000000 I
b0000000000000001 K
b1000 L
1P
1Q
#120000000
0!
02
#125000000
1!
0+
0/
12
0<
0@
b00000000000000000000000000000001 D
b0000000000000000 K
0O
0Q
#130000000
0!
02
#135000000
1!
12
b0000000000000001 K
#140000000
0!
02
#145000000
1!
12
b0000000000000000 K
#150000000
0!
02
#155000000
1!
00
01
12
0A
0B
b01001010000000000000000000000000 I
b00000000000000000000000000000001 J
b0000000000000001 K
b111 L
0P
#160000000
0!
02
#165000000
1!
12
b0000000000000000 K
#170000000
0!
02
#175000000
1!
1.
12
1?
b0000000000000001 K
1N
#180000000
0!
02
#185000000
1!
12
b0000000000000000 K
#190000000
0!
02
#195000000
1!
0.
10
11
12
0?
1A
1B
b10010100000000000000000000000000 I
b00000000000000000000000000000010 J
b0000000000000001 K
b110 L
0N
1P
#200000000
0!
02
#205000000
1!
12
b0000000000000000 K
#210000000
0!
02
#215000000
1!
1.
12
1?
b0000000000000001 K
1N
#220000000
0!
02
#225000000
1!
12
b0000000000000000 K
#230000000
0!
02
#235000000
1!
0.
00
01
12
0?
0A
0B
b00101000000000000000000000000000 I
b00000000000000000000000000000101 J
b0000000000000001 K
b101 L
0N
0P
#240000000
0!
02
#245000000
1!
12
b0000000000000000 K
#250000000
0!
02
#255000000
1!
1.
12
1?
b0000000000000001 K
1N
#260000000
0!
02
#265000000
1!
12
b0000000000000000 K
#270000000
0!
02
#275000000
1!
0.
12
0?
b01010000000000000000000000000000 I
b00000000000000000000000000001010 J
b0000000000000001 K
b100 L
0N
#280000000
0!
02
#285000000
1!
12
b0000000000000000 K
#290000000
0!
02
#295000000
1!
1.
12
1?
b0000000000000001 K
1N
#300000000
0!
02
#305000000
1!
12
b0000000000000000 K
#310000000
0!
02
#315000000
1!
0.
10
11
12
0?
1A
1B
b10100000000000000000000000000000 I
b00000000000000000000000000010100 J
b0000000000000001 K
b11 L
0N
1P
#320000000
0!
02
#325000000
1!
12
b0000000000000000 K
#330000000
0!
02
#335000000
1!
1.
12
1?
b0000000000000001 K
1N
#340000000
0!
02
#345000000
1!
12
b0000000000000000 K
#350000000
0!
02
#355000000
1!
0.
00
01
12
0?
0A
0B
b01000000000000000000000000000000 I
b00000000000000000000000000101001 J
b0000000000000001 K
b10 L
0N
0P
#360000000
0!
02
#365000000
1!
12
b0000000000000000 K
#370000000
0!
02
#375000000
1!
1.
12
1?
b0000000000000001 K
1N
#380000000
0!
02
#385000000
1!
12
b0000000000000000 K
#390000000
0!
02
#395000000
1!
0.
10
11
12
0?
1A
1B
b10000000000000000000000000000000 I
b00000000000000000000000001010010 J
b0000000000000001 K
b1 L
0N
1P
#400000000
0!
02
#405000000
1!
12
b0000000000000000 K
#410000000
0!
02
#415000000
1!
1.
12
1?
b0000000000000001 K
1N
#420000000
0!
02
#425000000
1!
12
b0000000000000000 K
#430000000
0!
02
#435000000
1!
0.
12
0?
b00000000000000000000000010100101 J
b0000000000000001 K
0N
#440000000
0!
02
#445000000
1!
1/
12
1@
b00000000000000000000000000000011 D
b00000000000000000000000010100101 H
1O
#450000000
0!
02
#455000000
1!
12
b00000000000000000000000000000010 D
#460000000
0!
02
#465000000
1!
b0000000000000100 $
1&
12
b0000000000000100 5
17
#470000000
0!
02
#475000000
1!
0&
b00000000000000000000000000000010 (
1,
12
07
b00000000000000000000000000000010 9
1=
1R
b00000000000000000000000000000010 T
#480000000
0!
02
#485000000
1!
0,
12
0=
0R
#490000000
0!
02
#495000000
1!
b0000000000010100 $
1&
12
b0000000000010100 5
17
#500000000
0!
02
#505000000
1!
0&
b00000000000000000000000010100101 (
1,
12
07
b00000000000000000000000010100101 9
1=
1R
b00000000000000000000000010100101 T
