docs/radhdl/0.2.2/simulations/tb_radif_reg_to_spi_master/tb_radif_reg_to_spi_master.vcd
$date
  Wed Jul  8 20:52:45 2026
$end
$version
  GHDL v0
$end
$timescale
  1 fs
$end
$scope module standard $end
$upscope $end
$scope module textio $end
$upscope $end
$scope module std_logic_1164 $end
$upscope $end
$scope module numeric_std $end
$upscope $end
$scope module env $end
$upscope $end
$scope module radhdl_spi_pkg $end
$upscope $end
$scope module tb_radif_reg_to_spi_master $end
$var reg 1 ! clk $end
$var reg 1 " rstn $end
$var reg 16 # reg_wr_addr[15:0] $end
$var reg 16 $ reg_rd_addr[15:0] $end
$var reg 1 % reg_wr_en $end
$var reg 1 & reg_rd_en $end
$var reg 32 ' reg_data_in[31:0] $end
$var reg 32 ( reg_data_out[31:0] $end
$var reg 1 ) reg_wr_rdy $end
$var reg 1 * reg_rd_rdy $end
$var reg 1 + reg_wr_valid $end
$var reg 1 , reg_rd_valid $end
$var reg 1 - reg_error $end
$comment spi_m_o is not handled $end
$comment spi_m_i is not handled $end
$scope module dut $end
$var reg 1 . clk $end
$var reg 1 / rstn $end
$var reg 16 0 reg_wr_addr[15:0] $end
$var reg 16 1 reg_rd_addr[15:0] $end
$var reg 1 2 reg_wr_en $end
$var reg 1 3 reg_rd_en $end
$var reg 32 4 reg_data_in[31:0] $end
$var reg 32 5 reg_data_out[31:0] $end
$var reg 1 6 reg_wr_rdy $end
$var reg 1 7 reg_rd_rdy $end
$var reg 1 8 reg_wr_valid $end
$var reg 1 9 reg_rd_valid $end
$var reg 1 : reg_error $end
$var reg 1 ; spi_sclk_o $end
$var reg 1 < spi_cs_n_o $end
$var reg 1 = spi_mosi_o $end
$var reg 1 > spi_miso_i $end
$var reg 32 ? control_r[31:0] $end
$var reg 32 @ status_r[31:0] $end
$var reg 16 A clk_div_r[15:0] $end
$var reg 32 B config_r[31:0] $end
$var reg 32 C tx_data_r[31:0] $end
$var reg 32 D rx_data_r[31:0] $end
$var reg 32 E shift_tx_r[31:0] $end
$var reg 32 F shift_rx_r[31:0] $end
$comment state is not handled $end
$var reg 16 G div_count[15:0] $end
$var integer 32 H bit_count $end
$var integer 32 I bits_total $end
$var reg 1 J sclk_r $end
$var reg 1 K cs_n_r $end
$var reg 1 L mosi_r $end
$var reg 1 M wr_valid_r $end
$var reg 1 N rd_valid_r $end
$var reg 1 O error_r $end
$var reg 32 P rd_data_r[31:0] $end
$upscope $end
$upscope $end
$enddefinitions $end
#0
0!
0"
b0000000000000000 #
b0000000000000000 $
0%
0&
b00000000000000000000000000000000 '
b00000000000000000000000000000000 (
1)
1*
0+
0,
0-
0.
0/
b0000000000000000 0
b0000000000000000 1
02
03
b00000000000000000000000000000000 4
b00000000000000000000000000000000 5
16
17
08
09
0:
0;
1<
0=
0>
b00000000000000000000000000000000 ?
b00000000000000000000000000000000 @
b0000000000000001 A
b00000000000000000000000000000000 B
b00000000000000000000000000000000 C
b00000000000000000000000000000000 D
b00000000000000000000000000000000 E
b00000000000000000000000000000000 F
b0000000000000000 G
b0 H
b1000 I
0J
1K
0L
0M
0N
0O
b00000000000000000000000000000000 P
#5000000
1!
1.
b00000000000000000000100000000000 B
#10000000
0!
0.
#15000000
1!
1.
#20000000
0!
0.
#25000000
1!
1.
#30000000
0!
0.
#35000000
1!
1.
#40000000
0!
1"
0.
1/
#45000000
1!
b0000000000001000 #
1%
b00000000000000000000000000000001 '
1.
b0000000000001000 0
12
b00000000000000000000000000000001 4
#50000000
0!
0.
#55000000
1!
0%
1+
1.
02
18
1M
#60000000
0!
0.
#65000000
1!
b0000000000001100 #
1%
b00000000000000000000100000000000 '
0+
1.
b0000000000001100 0
12
b00000000000000000000100000000000 4
08
0M
#70000000
0!
0.
#75000000
1!
0%
1+
1.
02
18
1M
#80000000
0!
0.
#85000000
1!
b0000000000010000 #
1%
b10100101000000000000000000000000 '
0+
1.
b0000000000010000 0
12
b10100101000000000000000000000000 4
08
0M
#90000000
0!
0.
#95000000
1!
0%
1+
1.
02
18
b10100101000000000000000000000000 C
1M
#100000000
0!
0.
#105000000
1!
b0000000000000000 #
1%
b00000000000000000000000000000001 '
0+
1.
b0000000000000000 0
12
b00000000000000000000000000000001 4
08
0M
#110000000
0!
0.
#115000000
1!
0%
1+
1.
02
18
1=
1>
b00000000000000000000000000000001 ?
b10100101000000000000000000000000 E
b0000000000000001 G
b1000 H
1L
1M
#120000000
0!
0.
#125000000
1!
0+
1.
08
0<
b00000000000000000000000000000001 @
b0000000000000000 G
0K
0M
#130000000
0!
0.
#135000000
1!
1.
b0000000000000001 G
#140000000
0!
0.
#145000000
1!
1.
b0000000000000000 G
#150000000
0!
0.
#155000000
1!
1.
0=
0>
b01001010000000000000000000000000 E
b00000000000000000000000000000001 F
b0000000000000001 G
b111 H
0L
#160000000
0!
0.
#165000000
1!
1.
b0000000000000000 G
#170000000
0!
0.
#175000000
1!
1.
1;
b0000000000000001 G
1J
#180000000
0!
0.
#185000000
1!
1.
b0000000000000000 G
#190000000
0!
0.
#195000000
1!
1.
0;
1=
1>
b10010100000000000000000000000000 E
b00000000000000000000000000000010 F
b0000000000000001 G
b110 H
0J
1L
#200000000
0!
0.
#205000000
1!
1.
b0000000000000000 G
#210000000
0!
0.
#215000000
1!
1.
1;
b0000000000000001 G
1J
#220000000
0!
0.
#225000000
1!
1.
b0000000000000000 G
#230000000
0!
0.
#235000000
1!
1.
0;
0=
0>
b00101000000000000000000000000000 E
b00000000000000000000000000000101 F
b0000000000000001 G
b101 H
0J
0L
#240000000
0!
0.
#245000000
1!
1.
b0000000000000000 G
#250000000
0!
0.
#255000000
1!
1.
1;
b0000000000000001 G
1J
#260000000
0!
0.
#265000000
1!
1.
b0000000000000000 G
#270000000
0!
0.
#275000000
1!
1.
0;
b01010000000000000000000000000000 E
b00000000000000000000000000001010 F
b0000000000000001 G
b100 H
0J
#280000000
0!
0.
#285000000
1!
1.
b0000000000000000 G
#290000000
0!
0.
#295000000
1!
1.
1;
b0000000000000001 G
1J
#300000000
0!
0.
#305000000
1!
1.
b0000000000000000 G
#310000000
0!
0.
#315000000
1!
1.
0;
1=
1>
b10100000000000000000000000000000 E
b00000000000000000000000000010100 F
b0000000000000001 G
b11 H
0J
1L
#320000000
0!
0.
#325000000
1!
1.
b0000000000000000 G
#330000000
0!
0.
#335000000
1!
1.
1;
b0000000000000001 G
1J
#340000000
0!
0.
#345000000
1!
1.
b0000000000000000 G
#350000000
0!
0.
#355000000
1!
1.
0;
0=
0>
b01000000000000000000000000000000 E
b00000000000000000000000000101001 F
b0000000000000001 G
b10 H
0J
0L
#360000000
0!
0.
#365000000
1!
1.
b0000000000000000 G
#370000000
0!
0.
#375000000
1!
1.
1;
b0000000000000001 G
1J
#380000000
0!
0.
#385000000
1!
1.
b0000000000000000 G
#390000000
0!
0.
#395000000
1!
1.
0;
1=
1>
b10000000000000000000000000000000 E
b00000000000000000000000001010010 F
b0000000000000001 G
b1 H
0J
1L
#400000000
0!
0.
#405000000
1!
1.
b0000000000000000 G
#410000000
0!
0.
#415000000
1!
1.
1;
b0000000000000001 G
1J
#420000000
0!
0.
#425000000
1!
1.
b0000000000000000 G
#430000000
0!
0.
#435000000
1!
1.
0;
b00000000000000000000000010100101 F
b0000000000000001 G
0J
#440000000
0!
0.
#445000000
1!
1.
1<
b00000000000000000000000000000011 @
b00000000000000000000000010100101 D
1K
#450000000
0!
0.
#455000000
1!
1.
b00000000000000000000000000000010 @
#460000000
0!
0.
#465000000
1!
b0000000000000100 $
1&
1.
b0000000000000100 1
13
#470000000
0!
0.
#475000000
1!
0&
b00000000000000000000000000000010 (
1,
1.
03
b00000000000000000000000000000010 5
19
1N
b00000000000000000000000000000010 P
#480000000
0!
0.
#485000000
1!
0,
1.
09
0N
#490000000
0!
0.
#495000000
1!
b0000000000010100 $
1&
1.
b0000000000010100 1
13
#500000000
0!
0.
#505000000
1!
0&
b00000000000000000000000010100101 (
1,
1.
03
b00000000000000000000000010100101 5
19
1N
b00000000000000000000000010100101 P
