docs/radhdl/0.2.1/simulations/tb_zc_chirp_frame_detector_iqcal/tb_zc_chirp_frame_detector_iqcal.vcd
$date
  Wed Jul  8 18:45:44 2026
$end
$version
  GHDL v0
$end
$timescale
  1 fs
$end
$scope module standard $end
$upscope $end
$scope module textio $end
$upscope $end
$scope module std_logic_1164 $end
$upscope $end
$scope module numeric_std $end
$upscope $end
$scope module env $end
$upscope $end
$scope module iqcal_capture_pkg $end
$upscope $end
$scope module zc_reference_pkg $end
$upscope $end
$scope module tb_zc_chirp_frame_detector_iqcal $end
$var reg 1 ! clk $end
$var reg 1 " rst $end
$var reg 1 # frame_start $end
$var reg 1 $ sample_valid $end
$var reg 16 % sample_i[15:0] $end
$var reg 16 & sample_q[15:0] $end
$var reg 1 ' sample_ready $end
$var reg 1 ( processing $end
$var reg 1 ) peak_valid $end
$var integer 32 * peak_index $end
$var reg 40 + peak_i[39:0] $end
$var reg 40 , peak_q[39:0] $end
$var reg 1 - chirp_valid $end
$var integer 32 . chirp_index $end
$var reg 16 / chirp_i[15:0] $end
$var reg 16 0 chirp_q[15:0] $end
$var reg 1 1 chirp_done $end
$scope module dut $end
$var reg 1 2 clk $end
$var reg 1 3 rst $end
$var reg 1 4 frame_start $end
$var reg 1 5 sample_valid $end
$var reg 16 6 sample_i[15:0] $end
$var reg 16 7 sample_q[15:0] $end
$var reg 1 8 sample_ready $end
$var reg 1 9 processing $end
$var reg 1 : peak_valid $end
$var integer 32 ; peak_index $end
$var reg 40 < peak_i[39:0] $end
$var reg 40 = peak_q[39:0] $end
$var reg 1 > chirp_valid $end
$var integer 32 ? chirp_index $end
$var reg 16 @ chirp_i[15:0] $end
$var reg 16 A chirp_q[15:0] $end
$var reg 1 B chirp_done $end
$comment state is not handled $end
$var integer 32 C wr_idx $end
$var integer 32 D offset_idx $end
$var integer 32 E zc_idx $end
$var integer 32 F replay_idx $end
$var integer 32 G chirp_base $end
$comment frame_i0 is not handled $end
$comment frame_q0 is not handled $end
$comment frame_i1 is not handled $end
$comment frame_q1 is not handled $end
$var integer 32 H frame_rd_addr0 $end
$var integer 32 I frame_rd_addr1 $end
$var reg 16 J frame_rd_i0[15:0] $end
$var reg 16 K frame_rd_q0[15:0] $end
$var reg 16 L frame_rd_i1[15:0] $end
$var reg 16 M frame_rd_q1[15:0] $end
$var reg 40 N acc_i[39:0] $end
$var reg 40 O acc_q[39:0] $end
$var reg 1 P mul_valid $end
$var reg 16 Q mul_xi[15:0] $end
$var reg 16 R mul_xq[15:0] $end
$var reg 16 S mul_ci[15:0] $end
$var reg 16 T mul_cq[15:0] $end
$var reg 48 U rr_p[47:0] $end
$var reg 48 V qq_p[47:0] $end
$var reg 48 W qi_p[47:0] $end
$var reg 48 X iq_p[47:0] $end
$var reg 1 Y rr_valid $end
$var reg 1 Z unused_valid0 $end
$var reg 1 [ unused_valid1 $end
$var reg 1 \ unused_valid2 $end
$var reg 1 ] unused_sub0 $end
$var reg 1 ^ unused_sub1 $end
$var reg 1 _ unused_sub2 $end
$var reg 1 ` unused_sub3 $end
$var reg 1 a unused_last0 $end
$var reg 1 b unused_last1 $end
$var reg 1 c unused_last2 $end
$var reg 1 d unused_last3 $end
$var reg 40 e best_i[39:0] $end
$var reg 40 f best_q[39:0] $end
$var reg 80 g best_mag[79:0] $end
$var integer 32 h best_idx $end
$var reg 40 i candidate_i[39:0] $end
$var reg 40 j candidate_q[39:0] $end
$var integer 32 k candidate_idx $end
$var reg 80 l mag_i_reg[79:0] $end
$var reg 80 m mag_q_reg[79:0] $end
$var reg 1 n mag_start $end
$var reg 40 o mag_value[39:0] $end
$var reg 80 p mag_square[79:0] $end
$var reg 1 q mag_valid $end
$var reg 1 r mag_busy $end
$var reg 80 s candidate_mag[79:0] $end
$var reg 1 t peak_v $end
$var reg 1 u chirp_v $end
$var integer 32 v chirp_index_r $end
$var reg 16 w chirp_i_r[15:0] $end
$var reg 16 x chirp_q_r[15:0] $end
$var reg 1 y chirp_done_r $end
$scope module rr_mul_i $end
$var reg 1 z clk $end
$var reg 1 { rst $end
$var reg 1 | valid_i $end
$var reg 1 } subtract_i $end
$var reg 1 !" last_i $end
$var reg 16 "" a_i[15:0] $end
$var reg 16 #" b_i[15:0] $end
$var reg 1 $" valid_o $end
$var reg 1 %" subtract_o $end
$var reg 1 &" last_o $end
$var reg 48 '" p_o[47:0] $end
$var reg 2 (" valid_pipe[1:0] $end
$var reg 2 )" subtract_pipe[1:0] $end
$var reg 2 *" last_pipe[1:0] $end
$var reg 48 +" product_pipe0[47:0] $end
$var reg 48 ," product_pipe1[47:0] $end
$upscope $end
$scope module qq_mul_i $end
$var reg 1 -" clk $end
$var reg 1 ." rst $end
$var reg 1 /" valid_i $end
$var reg 1 0" subtract_i $end
$var reg 1 1" last_i $end
$var reg 16 2" a_i[15:0] $end
$var reg 16 3" b_i[15:0] $end
$var reg 1 4" valid_o $end
$var reg 1 5" subtract_o $end
$var reg 1 6" last_o $end
$var reg 48 7" p_o[47:0] $end
$var reg 2 8" valid_pipe[1:0] $end
$var reg 2 9" subtract_pipe[1:0] $end
$var reg 2 :" last_pipe[1:0] $end
$var reg 48 ;" product_pipe0[47:0] $end
$var reg 48 <" product_pipe1[47:0] $end
$upscope $end
$scope module qi_mul_i $end
$var reg 1 =" clk $end
$var reg 1 >" rst $end
$var reg 1 ?" valid_i $end
$var reg 1 @" subtract_i $end
$var reg 1 A" last_i $end
$var reg 16 B" a_i[15:0] $end
$var reg 16 C" b_i[15:0] $end
$var reg 1 D" valid_o $end
$var reg 1 E" subtract_o $end
$var reg 1 F" last_o $end
$var reg 48 G" p_o[47:0] $end
$var reg 2 H" valid_pipe[1:0] $end
$var reg 2 I" subtract_pipe[1:0] $end
$var reg 2 J" last_pipe[1:0] $end
$var reg 48 K" product_pipe0[47:0] $end
$var reg 48 L" product_pipe1[47:0] $end
$upscope $end
$scope module iq_mul_i $end
$var reg 1 M" clk $end
$var reg 1 N" rst $end
$var reg 1 O" valid_i $end
$var reg 1 P" subtract_i $end
$var reg 1 Q" last_i $end
$var reg 16 R" a_i[15:0] $end
$var reg 16 S" b_i[15:0] $end
$var reg 1 T" valid_o $end
$var reg 1 U" subtract_o $end
$var reg 1 V" last_o $end
$var reg 48 W" p_o[47:0] $end
$var reg 2 X" valid_pipe[1:0] $end
$var reg 2 Y" subtract_pipe[1:0] $end
$var reg 2 Z" last_pipe[1:0] $end
$var reg 48 [" product_pipe0[47:0] $end
$var reg 48 \" product_pipe1[47:0] $end
$upscope $end
$scope module mag_square_i $end
$var reg 1 ]" clk $end
$var reg 1 ^" rst $end
$var reg 1 _" start_i $end
$var reg 40 `" x_i[39:0] $end
$var reg 1 a" busy_o $end
$var reg 1 b" valid_o $end
$var reg 80 c" y_o[79:0] $end
$comment state is not handled $end
$var reg 40 d" abs_x[39:0] $end
$var integer 32 e" i_idx $end
$var integer 32 f" j_idx $end
$var reg 80 g" acc[79:0] $end
$var reg 80 h" y_reg[79:0] $end
$var reg 1 i" valid_reg $end
$var reg 1 j" mul_valid $end
$var reg 17 k" mul_a[16:0] $end
$var reg 17 l" mul_b[16:0] $end
$var reg 48 m" mul_p[47:0] $end
$var reg 1 n" mul_p_valid $end
$var reg 1 o" unused_sub $end
$var reg 1 p" unused_last $end
$scope module mul_i $end
$var reg 1 q" clk $end
$var reg 1 r" rst $end
$var reg 1 s" valid_i $end
$var reg 1 t" subtract_i $end
$var reg 1 u" last_i $end
$var reg 17 v" a_i[16:0] $end
$var reg 17 w" b_i[16:0] $end
$var reg 1 x" valid_o $end
$var reg 1 y" subtract_o $end
$var reg 1 z" last_o $end
$var reg 48 {" p_o[47:0] $end
$var reg 2 |" valid_pipe[1:0] $end
$var reg 2 }" subtract_pipe[1:0] $end
$var reg 2 !# last_pipe[1:0] $end
$var reg 48 "# product_pipe0[47:0] $end
$var reg 48 ## product_pipe1[47:0] $end
$upscope $end
$upscope $end
$upscope $end
$upscope $end
$enddefinitions $end
#0
0!
1"
0#
0$
b0000000000000000 %
b0000000000000000 &
1'
0(
0)
b0 *
b0000000000000000000000000000000000000000 +
b0000000000000000000000000000000000000000 ,
0-
b0 .
b0000000000000000 /
b0000000000000000 0
01
02
13
04
05
b0000000000000000 6
b0000000000000000 7
18
09
0:
b0 ;
b0000000000000000000000000000000000000000 <
b0000000000000000000000000000000000000000 =
0>
b0 ?
b0000000000000000 @
b0000000000000000 A
0B
b0 C
b0 D
b0 E
b0 F
b0 G
b0 H
b0 I
b0000000000000000 J
b0000000000000000 K
b0000000000000000 L
b0000000000000000 M
b0000000000000000000000000000000000000000 N
b0000000000000000000000000000000000000000 O
0P
b0000000000000000 Q
b0000000000000000 R
b0000000000000000 S
b0000000000000000 T
b000000000000000000000000000000000000000000000000 U
b000000000000000000000000000000000000000000000000 V
b000000000000000000000000000000000000000000000000 W
b000000000000000000000000000000000000000000000000 X
0Y
0Z
0[
0\
0]
0^
0_
0`
0a
0b
0c
0d
b0000000000000000000000000000000000000000 e
b0000000000000000000000000000000000000000 f
b00000000000000000000000000000000000000000000000000000000000000000000000000000000 g
b0 h
b0000000000000000000000000000000000000000 i
b0000000000000000000000000000000000000000 j
b0 k
b00000000000000000000000000000000000000000000000000000000000000000000000000000000 l
b00000000000000000000000000000000000000000000000000000000000000000000000000000000 m
0n
b0000000000000000000000000000000000000000 o
b00000000000000000000000000000000000000000000000000000000000000000000000000000000 p
0q
0r
b00000000000000000000000000000000000000000000000000000000000000000000000000000000 s
0t
0u
b0 v
b0000000000000000 w
b0000000000000000 x
0y
0z
1{
0|
0}
0!"
b0000000000000000 ""
b0000000000000000 #"
0$"
0%"
0&"
b000000000000000000000000000000000000000000000000 '"
b00 ("
b00 )"
b00 *"
b000000000000000000000000000000000000000000000000 +"
b000000000000000000000000000000000000000000000000 ,"
0-"
1."
0/"
00"
01"
b0000000000000000 2"
b0000000000000000 3"
04"
05"
06"
b000000000000000000000000000000000000000000000000 7"
b00 8"
b00 9"
b00 :"
b000000000000000000000000000000000000000000000000 ;"
b000000000000000000000000000000000000000000000000 <"
0="
1>"
0?"
0@"
0A"
b0000000000000000 B"
b0000000000000000 C"
0D"
0E"
0F"
b000000000000000000000000000000000000000000000000 G"
b00 H"
b00 I"
b00 J"
b000000000000000000000000000000000000000000000000 K"
b000000000000000000000000000000000000000000000000 L"
0M"
1N"
0O"
0P"
0Q"
b0000000000000000 R"
b0000000000000000 S"
0T"
0U"
0V"
b000000000000000000000000000000000000000000000000 W"
b00 X"
b00 Y"
b00 Z"
b000000000000000000000000000000000000000000000000 ["
b000000000000000000000000000000000000000000000000 \"
0]"
1^"
0_"
b0000000000000000000000000000000000000000 `"
0a"
0b"
b00000000000000000000000000000000000000000000000000000000000000000000000000000000 c"
b0000000000000000000000000000000000000000 d"
b0 e"
b0 f"
b00000000000000000000000000000000000000000000000000000000000000000000000000000000 g"
b00000000000000000000000000000000000000000000000000000000000000000000000000000000 h"
0i"
0j"
b00000000000000000 k"
b00000000000000000 l"
b000000000000000000000000000000000000000000000000 m"
0n"
0o"
0p"
0q"
1r"
0s"
0t"
0u"
b00000000000000000 v"
b00000000000000000 w"
0x"
0y"
0z"
b000000000000000000000000000000000000000000000000 {"
b00 |"
b00 }"
b00 !#
b000000000000000000000000000000000000000000000000 "#
b000000000000000000000000000000000000000000000000 ##
#5000000
1!
12
1z
1-"
1="
1M"
1]"
1q"
#10000000
0!
02
0z
0-"
0="
0M"
0]"
0q"
#15000000
1!
12
1z
1-"
1="
1M"
1]"
1q"
#20000000
0!
02
0z
0-"
0="
0M"
0]"
0q"
#25000000
1!
12
1z
1-"
1="
1M"
1]"
1q"
#30000000
0!
02
0z
0-"
0="
0M"
0]"
0q"
#35000000
1!
12
1z
1-"
1="
1M"
1]"
1q"
#40000000
0!
02
0z
0-"
0="
0M"
0]"
0q"
#45000000
1!
12
1z
1-"
1="
1M"
1]"
1q"
#50000000
0!
02
0z
0-"
0="
0M"
0]"
0q"
#55000000
1!
0"
12
03
1z
0{
1-"
0."
1="
0>"
1M"
0N"
1]"
0^"
1q"
0r"
#60000000
0!
02
0z
0-"
0="
0M"
0]"
0q"
#65000000
1!
1#
12
14
1z
1-"
1="
1M"
1]"
1q"
#70000000
0!
02
0z
0-"
0="
0M"
0]"
0q"
#75000000
1!
0#
1$
b1111111111111101 %
b0000000000000110 &
12
04
15
b1111111111111101 6
b0000000000000110 7
1z
1-"
1="
1M"
1]"
1q"
#80000000
0!
02
0z
0-"
0="
0M"
0]"
0q"
#85000000
1!
b1111111111111010 %
b1111111111111011 &
12
b1111111111111010 6
b1111111111111011 7
b1 C
1z
1-"
1="
1M"
1]"
1q"
#90000000
0!
02
0z
0-"
0="
0M"
0]"
0q"
#95000000
1!
b0000000000001000 %
b1111111111111101 &
12
b0000000000001000 6
b1111111111111101 7
b10 C
b1111111111111101 J
b0000000000000110 K
b1111111111111101 L
b0000000000000110 M
1z
1-"
1="
1M"
1]"
1q"
#100000000
0!
02
0z
0-"
0="
0M"
0]"
0q"
#105000000
1!
b1111111111110110 %
b1111111111111111 &
12
b1111111111110110 6
b1111111111111111 7
b11 C
1z
1-"
1="
1M"
1]"
1q"
#110000000
0!
02
0z
0-"
0="
0M"
0]"
0q"
#115000000
1!
b0000000000000101 %
12
b0000000000000101 6
b100 C
1z
1-"
1="
1M"
1]"
1q"
#120000000
0!
02
0z
0-"
0="
0M"
0]"
0q"
#125000000
1!
b1111111111111101 %
b1111111111111110 &
12
b1111111111111101 6
b1111111111111110 7
b101 C
1z
1-"
1="
1M"
1]"
1q"
#130000000
0!
02
0z
0-"
0="
0M"
0]"
0q"
#135000000
1!
b0000000000000000 %
b1111111111111111 &
12
b0000000000000000 6
b1111111111111111 7
b110 C
1z
1-"
1="
1M"
1]"
1q"
#140000000
0!
02
0z
0-"
0="
0M"
0]"
0q"
#145000000
1!
b1111111111111111 %
b0000000000000000 &
12
b1111111111111111 6
b0000000000000000 7
b111 C
1z
1-"
1="
1M"
1]"
1q"
#150000000
0!
02
0z
0-"
0="
0M"
0]"
0q"
#155000000
1!
b0000000000000000 %
b1111111111111100 &
12
b0000000000000000 6
b1111111111111100 7
b1000 C
1z
1-"
1="
1M"
1]"
1q"
#160000000
0!
02
0z
0-"
0="
0M"
0]"
0q"
#165000000
1!
b1111111111111111 %
b0000000000000011 &
12
b1111111111111111 6
b0000000000000011 7
b1001 C
1z
1-"
1="
1M"
1]"
1q"
#170000000
0!
02
0z
0-"
0="
0M"
0]"
0q"
#175000000
1!
b1111111111111100 %
b1111111111111000 &
12
b1111111111111100 6
b1111111111111000 7
b1010 C
1z
1-"
1="
1M"
1]"
1q"
#180000000
0!
02
0z
0-"
0="
0M"
0]"
0q"
#185000000
1!
b0000000000000011 %
b0000000000000001 &
12
b0000000000000011 6
b0000000000000001 7
b1011 C
1z
1-"
1="
1M"
1]"
1q"
#190000000
0!
02
0z
0-"
0="
0M"
0]"
0q"
#195000000
1!
b1111111111111011 %
b1111111111111101 &
12
b1111111111111011 6
b1111111111111101 7
b1100 C
1z
1-"
1="
1M"
1]"
1q"
#200000000
0!
02
0z
0-"
0="
0M"
0]"
0q"
#205000000
1!
b0000000000000011 %
b1111111111111011 &
12
b0000000000000011 6
b1111111111111011 7
b1101 C
1z
1-"
1="
1M"
1]"
1q"
#210000000
0!
02
0z
0-"
0="
0M"
0]"
0q"
#215000000
1!
b0000000000000000 %
b0000000000000101 &
12
b0000000000000000 6
b0000000000000101 7
b1110 C
1z
1-"
1="
1M"
1]"
1q"
#220000000
0!
02
0z
0-"
0="
0M"
0]"
0q"
#225000000
1!
b1111111111111011 %
b1111111111111011 &
12
b1111111111111011 6
b1111111111111011 7
b1111 C
1z
1-"
1="
1M"
1]"
1q"
#230000000
0!
02
0z
0-"
0="
0M"
0]"
0q"
#235000000
1!
b0000000000000101 %
b1111111111111010 &
12
b0000000000000101 6
b1111111111111010 7
b10000 C
1z
1-"
1="
1M"
1]"
1q"
#240000000
0!
02
0z
0-"
0="
0M"
0]"
0q"
#245000000
1!
b1111111111111101 %
b0000000000000011 &
12
b1111111111111101 6
b0000000000000011 7
b10001 C
1z
1-"
1="
1M"
1]"
1q"
#250000000
0!
02
0z
0-"
0="
0M"
0]"
0q"
#255000000
1!
b1111111111111110 %
b1111111111111000 &
12
b1111111111111110 6
b1111111111111000 7
b10010 C
1z
1-"
1="
1M"
1]"
1q"
#260000000
0!
02
0z
0-"
0="
0M"
0]"
0q"
#265000000
1!
b0000000000000001 %
b0000000000000011 &
12
b0000000000000001 6
b0000000000000011 7
b10011 C
1z
1-"
1="
1M"
1]"
1q"
#270000000
0!
02
0z
0-"
0="
0M"
0]"
0q"
#275000000
1!
b1111111111111001 %
b1111111111111000 &
12
b1111111111111001 6
b1111111111111000 7
b10100 C
1z
1-"
1="
1M"
1]"
1q"
#280000000
0!
02
0z
0-"
0="
0M"
0]"
0q"
#285000000
1!
b0000000000000011 %
b0000000000000011 &
12
b0000000000000011 6
b0000000000000011 7
b10101 C
1z
1-"
1="
1M"
1]"
1q"
#290000000
0!
02
0z
0-"
0="
0M"
0]"
0q"
#295000000
1!
b1111111111111011 %
b1111111111111000 &
12
b1111111111111011 6
b1111111111111000 7
b10110 C
1z
1-"
1="
1M"
1]"
1q"
#300000000
0!
02
0z
0-"
0="
0M"
0]"
0q"
#305000000
1!
b1111111111111101 %
b0000000000000011 &
12
b1111111111111101 6
b0000000000000011 7
b10111 C
1z
1-"
1="
1M"
1]"
1q"
#310000000
0!
02
0z
0-"
0="
0M"
0]"
0q"
#315000000
1!
b1111111111111111 %
b1111111111111000 &
12
b1111111111111111 6
b1111111111111000 7
b11000 C
1z
1-"
1="
1M"
1]"
1q"
#320000000
0!
02
0z
0-"
0="
0M"
0]"
0q"
#325000000
1!
b1111111111111100 %
b0000000000000010 &
12
b1111111111111100 6
b0000000000000010 7
b11001 C
1z
1-"
1="
1M"
1]"
1q"
#330000000
0!
02
0z
0-"
0="
0M"
0]"
0q"
#335000000
1!
b1111111111111011 %
b1111111111111010 &
12
b1111111111111011 6
b1111111111111010 7
b11010 C
1z
1-"
1="
1M"
1]"
1q"
#340000000
0!
02
0z
0-"
0="
0M"
0]"
0q"
#345000000
1!
b0000000000001010 %
b0000000000000001 &
12
b0000000000001010 6
b0000000000000001 7
b11011 C
1z
1-"
1="
1M"
1]"
1q"
#350000000
0!
02
0z
0-"
0="
0M"
0]"
0q"
#355000000
1!
b1111111111110010 %
b1111111111111100 &
12
b1111111111110010 6
b1111111111111100 7
b11100 C
1z
1-"
1="
1M"
1]"
1q"
#360000000
0!
02
0z
0-"
0="
0M"
0]"
0q"
#365000000
1!
b0000000000000111 %
b1111111111111101 &
12
b0000000000000111 6
b1111111111111101 7
b11101 C
1z
1-"
1="
1M"
1]"
1q"
#370000000
0!
02
0z
0-"
0="
0M"
0]"
0q"
#375000000
1!
b1111111111111011 %
b0000000000000101 &
12
b1111111111111011 6
b0000000000000101 7
b11110 C
1z
1-"
1="
1M"
1]"
1q"
#380000000
0!
02
0z
0-"
0="
0M"
0]"
0q"
#385000000
1!
b1111111111111101 %
b1111111111110110 &
12
b1111111111111101 6
b1111111111110110 7
b11111 C
1z
1-"
1="
1M"
1]"
1q"
#390000000
0!
02
0z
0-"
0="
0M"
0]"
0q"
#395000000
1!
b0000000000000111 %
b0000000000000000 &
12
b0000000000000111 6
b0000000000000000 7
b100000 C
1z
1-"
1="
1M"
1]"
1q"
#400000000
0!
02
0z
0-"
0="
0M"
0]"
0q"
#405000000
1!
b1111111111110100 %
b1111111111111100 &
12
b1111111111110100 6
b1111111111111100 7
b100001 C
1z
1-"
1="
1M"
1]"
1q"
#410000000
0!
02
0z
0-"
0="
0M"
0]"
0q"
#415000000
1!
b0000000000001001 %
b0000000000000010 &
12
b0000000000001001 6
b0000000000000010 7
b100010 C
1z
1-"
1="
1M"
1]"
1q"
#420000000
0!
02
0z
0-"
0="
0M"
0]"
0q"
#425000000
1!
b1111111111110101 %
b1111111111111001 &
12
b1111111111110101 6
b1111111111111001 7
b100011 C
1z
1-"
1="
1M"
1]"
1q"
#430000000
0!
02
0z
0-"
0="
0M"
0]"
0q"
#435000000
1!
b0000000000000011 %
b0000000000000010 &
12
b0000000000000011 6
b0000000000000010 7
b100100 C
1z
1-"
1="
1M"
1]"
1q"
#440000000
0!
02
0z
0-"
0="
0M"
0]"
0q"
#445000000
1!
b1111111111111010 %
b1111111111111101 &
12
b1111111111111010 6
b1111111111111101 7
b100101 C
1z
1-"
1="
1M"
1]"
1q"
#450000000
0!
02
0z
0-"
0="
0M"
0]"
0q"
#455000000
1!
b0000000000000000 %
b1111111111111100 &
12
b0000000000000000 6
b1111111111111100 7
b100110 C
1z
1-"
1="
1M"
1]"
1q"
#460000000
0!
02
0z
0-"
0="
0M"
0]"
0q"
#465000000
1!
b0000000000000001 &
12
b0000000000000001 7
b100111 C
1z
1-"
1="
1M"
1]"
1q"
#470000000
0!
02
0z
0-"
0="
0M"
0]"
0q"
#475000000
1!
b1111111111111110 %
b1111111111111010 &
12
b1111111111111110 6
b1111111111111010 7
b101000 C
1z
1-"
1="
1M"
1]"
1q"
#480000000
0!
02
0z
0-"
0="
0M"
0]"
0q"
#485000000
1!
b1111111111111010 %
b0000000000000010 &
12
b1111111111111010 6
b0000000000000010 7
b101001 C
1z
1-"
1="
1M"
1]"
1q"
#490000000
0!
02
0z
0-"
0="
0M"
0]"
0q"
#495000000
1!
b0000000000001000 %
b1111111111111101 &
12
b0000000000001000 6
b1111111111111101 7
b101010 C
1z
1-"
1="
1M"
1]"
1q"
#500000000
0!
02
0z
0-"
0="
0M"
0]"
0q"
#505000000
1!
b1111111111110010 %
12
b1111111111110010 6
b101011 C
1z
1-"
1="
1M"
1]"
1q"
#510000000
0!
02
0z
0-"
0="
0M"
0]"
0q"
#515000000
1!
b0000000000001011 %
b0000000000000101 &
12
b0000000000001011 6
b0000000000000101 7
b101100 C
1z
1-"
1="
1M"
1]"
1q"
#520000000
0!
02
0z
0-"
0="
0M"
0]"
0q"
#525000000
1!
b1111111111110111 %
b1111111111110110 &
12
b1111111111110111 6
b1111111111110110 7
b101101 C
1z
1-"
1="
1M"
1]"
1q"
#530000000
0!
02
0z
0-"
0="
0M"
0]"
0q"
#535000000
1!
b0000000000000001 %
b0000000000000110 &
12
b0000000000000001 6
b0000000000000110 7
b101110 C
1z
1-"
1="
1M"
1]"
1q"
#540000000
0!
02
0z
0-"
0="
0M"
0]"
0q"
#545000000
1!
b1111111111111000 %
b1111111111111010 &
12
b1111111111111000 6
b1111111111111010 7
b101111 C
1z
1-"
1="
1M"
1]"
1q"
#550000000
0!
02
0z
0-"
0="
0M"
0]"
0q"
#555000000
1!
b0000000000000011 %
12
b0000000000000011 6
b110000 C
1z
1-"
1="
1M"
1]"
1q"
#560000000
0!
02
0z
0-"
0="
0M"
0]"
0q"
#565000000
1!
b1111111111111101 %
b0000000000001000 &
12
b1111111111111101 6
b0000000000001000 7
b110001 C
1z
1-"
1="
1M"
1]"
1q"
#570000000
0!
02
0z
0-"
0="
0M"
0]"
0q"
#575000000
1!
b1111111111111010 %
b1111111111110001 &
12
b1111111111111010 6
b1111111111110001 7
b110010 C
1z
1-"
1="
1M"
1]"
1q"
#580000000
0!
02
0z
0-"
0="
0M"
0]"
0q"
#585000000
1!
b0000000000000010 %
b0000000000000100 &
12
b0000000000000010 6
b0000000000000100 7
b110011 C
1z
1-"
1="
1M"
1]"
1q"
#590000000
0!
02
0z
0-"
0="
0M"
0]"
0q"
#595000000
1!
b0000000000010101 %
b0000000000110100 &
12
b0000000000010101 6
b0000000000110100 7
b110100 C
1z
1-"
1="
1M"
1]"
1q"
#600000000
0!
02
0z
0-"
0="
0M"
0]"
0q"
#605000000
1!
b1111111001110111 %
b1111110011011111 &
12
b1111111001110111 6
b1111110011011111 7
b110101 C
1z
1-"
1="
1M"
1]"
1q"
#610000000
0!
02
0z
0-"
0="
0M"
0]"
0q"
#615000000
1!
b1111110111010101 %
b1111101101011011 &
12
b1111110111010101 6
b1111101101011011 7
b110110 C
1z
1-"
1="
1M"
1]"
1q"
#620000000
0!
02
0z
0-"
0="
0M"
0]"
0q"
#625000000
1!
b1111110111000001 %
b1111101111000100 &
12
b1111110111000001 6
b1111101111000100 7
b110111 C
1z
1-"
1="
1M"
1]"
1q"
#630000000
0!
02
0z
0-"
0="
0M"
0]"
0q"
#635000000
1!
b1111110101101110 %
b1111101111000110 &
12
b1111110101101110 6
b1111101111000110 7
b111000 C
1z
1-"
1="
1M"
1]"
1q"
#640000000
0!
02
0z
0-"
0="
0M"
0]"
0q"
#645000000
1!
b1111110100001100 %
b1111101111111100 &
12
b1111110100001100 6
b1111101111111100 7
b111001 C
1z
1-"
1="
1M"
1]"
1q"
#650000000
0!
02
0z
0-"
0="
0M"
0]"
0q"
#655000000
1!
b1111110010011010 %
b1111110001011011 &
12
b1111110010011010 6
b1111110001011011 7
b111010 C
1z
1-"
1="
1M"
1]"
1q"
#660000000
0!
02
0z
0-"
0="
0M"
0]"
0q"
#665000000
1!
b1111110000101011 %
b1111110011001110 &
12
b1111110000101011 6
b1111110011001110 7
b111011 C
1z
1-"
1="
1M"
1]"
1q"
#670000000
0!
02
0z
0-"
0="
0M"
0]"
0q"
#675000000
1!
b1111101110110001 %
b1111110110000010 &
12
b1111101110110001 6
b1111110110000010 7
b111100 C
1z
1-"
1="
1M"
1]"
1q"
#680000000
0!
02
0z
0-"
0="
0M"
0]"
0q"
#685000000
1!
b1111101101100010 %
b1111111001010100 &
12
b1111101101100010 6
b1111111001010100 7
b111101 C
1z
1-"
1="
1M"
1]"
1q"
#690000000
0!
02
0z
0-"
0="
0M"
0]"
0q"
#695000000
1!
b1111101100100010 %
b1111111101100010 &
12
b1111101100100010 6
b1111111101100010 7
b111110 C
1z
1-"
1="
1M"
1]"
1q"
#700000000
0!
02
0z
0-"
0="
0M"
0]"
0q"
#705000000
1!
b1111101100100001 %
b0000000010001010 &
12
b1111101100100001 6
b0000000010001010 7
b111111 C
1z
1-"
1="
1M"
1]"
1q"
#710000000
0!
02
0z
0-"
0="
0M"
0]"
0q"
#715000000
1!
b1111101101011110 %
b0000000110111010 &
12
b1111101101011110 6
b0000000110111010 7
b1000000 C
1z
1-"
1="
1M"
1]"
1q"
#720000000
0!
02
0z
0-"
0="
0M"
0]"
0q"
#725000000
1!
b1111110000001000 %
b0000001011100111 &
12
b1111110000001000 6
b0000001011100111 7
b1000001 C
1z
1-"
1="
1M"
1]"
1q"
#730000000
0!
02
0z
0-"
0="
0M"
0]"
0q"
#735000000
1!
b1111110100110010 %
b0000001111100001 &
12
b1111110100110010 6
b0000001111100001 7
b1000010 C
1z
1-"
1="
1M"
1]"
1q"
#740000000
0!
02
0z
0-"
0="
0M"
0]"
0q"
#745000000
1!
b1111111011001010 %
b0000010001111110 &
12
b1111111011001010 6
b0000010001111110 7
b1000011 C
1z
1-"
1="
1M"
1]"
1q"
#750000000
0!
02
0z
0-"
0="
0M"
0]"
0q"
#755000000
1!
b0000000010100000 %
b0000010010101001 &
12
b0000000010100000 6
b0000010010101001 7
b1000100 C
1z
1-"
1="
1M"
1]"
1q"
#760000000
0!
02
0z
0-"
0="
0M"
0]"
0q"
#765000000
1!
b0000001001100000 %
b0000010000111110 &
12
b0000001001100000 6
b0000010000111110 7
b1000101 C
1z
1-"
1="
1M"
1]"
1q"
#770000000
0!
02
0z
0-"
0="
0M"
0]"
0q"
#775000000
1!
b0000001111101100 %
b0000001100010110 &
12
b0000001111101100 6
b0000001100010110 7
b1000110 C
1z
1-"
1="
1M"
1]"
1q"
#780000000
0!
02
0z
0-"
0="
0M"
0]"
0q"
#785000000
1!
b0000010010110101 %
b0000000100100011 &
12
b0000010010110101 6
b0000000100100011 7
b1000111 C
1z
1-"
1="
1M"
1]"
1q"
#790000000
0!
02
0z
0-"
0="
0M"
0]"
0q"
#795000000
1!
b0000010011010000 %
b1111111011110011 &
12
b0000010011010000 6
b1111111011110011 7
b1001000 C
1z
1-"
1="
1M"
1]"
1q"
#800000000
0!
02
0z
0-"
0="
0M"
0]"
0q"
#805000000
1!
b0000001111001011 %
b1111110011101000 &
12
b0000001111001011 6
b1111110011101000 7
b1001001 C
1z
1-"
1="
1M"
1]"
1q"
#810000000
0!
02
0z
0-"
0="
0M"
0]"
0q"
#815000000
1!
b0000000110101111 %
b1111101110101001 &
12
b0000000110101111 6
b1111101110101001 7
b1001010 C
1z
1-"
1="
1M"
1]"
1q"
#820000000
0!
02
0z
0-"
0="
0M"
0]"
0q"
#825000000
1!
b1111111100000001 %
b1111101101011001 &
12
b1111111100000001 6
b1111101101011001 7
b1001011 C
1z
1-"
1="
1M"
1]"
1q"
#830000000
0!
02
0z
0-"
0="
0M"
0]"
0q"
#835000000
1!
b1111110010011100 %
b1111110001100100 &
12
b1111110010011100 6
b1111110001100100 7
b1001100 C
1z
1-"
1="
1M"
1]"
1q"
#840000000
0!
02
0z
0-"
0="
0M"
0]"
0q"
#845000000
1!
b1111101101000010 %
b1111111011001001 &
12
b1111101101000010 6
b1111111011001001 7
b1001101 C
1z
1-"
1="
1M"
1]"
1q"
#850000000
0!
02
0z
0-"
0="
0M"
0]"
0q"
#855000000
1!
b1111101101100000 %
b0000000110101010 &
12
b1111101101100000 6
b0000000110101010 7
b1001110 C
1z
1-"
1="
1M"
1]"
1q"
#860000000
0!
02
0z
0-"
0="
0M"
0]"
0q"
#865000000
1!
b1111110101000011 %
b0000001111100001 &
12
b1111110101000011 6
b0000001111100001 7
b1001111 C
1z
1-"
1="
1M"
1]"
1q"
#870000000
0!
02
0z
0-"
0="
0M"
0]"
0q"
