docs/radhdl/0.2.0/simulations/tb_radila_core/tb_radila_core.vcd
$date
  Wed Jul  8 16:18:02 2026
$end
$version
  GHDL v0
$end
$timescale
  1 fs
$end
$scope module standard $end
$upscope $end
$scope module textio $end
$upscope $end
$scope module std_logic_1164 $end
$upscope $end
$scope module numeric_std $end
$upscope $end
$scope module env $end
$upscope $end
$scope module vcomponents $end
$upscope $end
$scope module tb_radila_core $end
$var reg 1 ! sample_clk $end
$var reg 1 " axi_clk $end
$var reg 1 # sample_rstn $end
$var reg 1 $ axi_rstn $end
$var reg 32 % sample[31:0] $end
$var reg 8 & event_v[7:0] $end
$var reg 1 ' irq $end
$var reg 6 ( awaddr[5:0] $end
$var reg 3 ) awprot[2:0] $end
$var reg 1 * awvalid $end
$var reg 1 + awready $end
$var reg 32 , wdata[31:0] $end
$var reg 4 - wstrb[3:0] $end
$var reg 1 . wvalid $end
$var reg 1 / wready $end
$var reg 2 0 bresp[1:0] $end
$var reg 1 1 bvalid $end
$var reg 1 2 bready $end
$var reg 6 3 araddr[5:0] $end
$var reg 3 4 arprot[2:0] $end
$var reg 1 5 arvalid $end
$var reg 1 6 arready $end
$var reg 32 7 rdata[31:0] $end
$var reg 2 8 rresp[1:0] $end
$var reg 1 9 rvalid $end
$var reg 1 : rready $end
$scope module dut $end
$var reg 1 ; sample_clk $end
$var reg 1 < sample_rstn $end
$var reg 32 = sample_i[31:0] $end
$var reg 8 > event_i[7:0] $end
$var reg 1 ? irq_o $end
$var reg 1 @ s_axi_aclk $end
$var reg 1 A s_axi_aresetn $end
$var reg 6 B s_axi_awaddr[5:0] $end
$var reg 3 C s_axi_awprot[2:0] $end
$var reg 1 D s_axi_awvalid $end
$var reg 1 E s_axi_awready $end
$var reg 32 F s_axi_wdata[31:0] $end
$var reg 4 G s_axi_wstrb[3:0] $end
$var reg 1 H s_axi_wvalid $end
$var reg 1 I s_axi_wready $end
$var reg 2 J s_axi_bresp[1:0] $end
$var reg 1 K s_axi_bvalid $end
$var reg 1 L s_axi_bready $end
$var reg 6 M s_axi_araddr[5:0] $end
$var reg 3 N s_axi_arprot[2:0] $end
$var reg 1 O s_axi_arvalid $end
$var reg 1 P s_axi_arready $end
$var reg 32 Q s_axi_rdata[31:0] $end
$var reg 2 R s_axi_rresp[1:0] $end
$var reg 1 S s_axi_rvalid $end
$var reg 1 T s_axi_rready $end
$var reg 1 U awready $end
$var reg 1 V wready $end
$var reg 1 W bvalid $end
$var reg 1 X arready $end
$var reg 1 Y rvalid $end
$var reg 32 Z rdata[31:0] $end
$var reg 6 [ awaddr[5:0] $end
$var reg 6 \ araddr[5:0] $end
$var reg 1 ] aw_en $end
$var reg 1 ^ wr_en $end
$var reg 1 _ rd_en $end
$var reg 32 ` control[31:0] $end
$var reg 8 a trig_mask[7:0] $end
$var reg 8 b trig_value[7:0] $end
$var reg 6 c pretrig[5:0] $end
$var reg 6 d posttrig[5:0] $end
$var reg 6 e data_index[5:0] $end
$comment cmd_state is not handled $end
$var reg 26 f cmd_frame[25:0] $end
$var integer 32 g cmd_bit $end
$var reg 1 h cmd_pending $end
$var reg 3 i cmd_req[2:0] $end
$var reg 4 j cmd_data_axi[3:0] $end
$var reg 1 k cmd_toggle_axi $end
$var reg 1 l cmd_ack_axi $end
$var reg 1 m cmd_ack_seen $end
$var reg 4 n cmd_data_sample[3:0] $end
$var reg 1 o cmd_toggle_sample $end
$var reg 1 p cmd_ack_sample $end
$var reg 32 q sample_data[31:0] $end
$var reg 32 r sample_now_s[31:0] $end
$var reg 8 s event_now_s[7:0] $end
$var reg 32 t sample_now_axi[31:0] $end
$var reg 8 u event_now_axi[7:0] $end
$var reg 1 v armed_s $end
$var reg 1 w capturing_s $end
$var reg 1 x done_s $end
$var reg 1 y overflow_s $end
$var reg 7 z count_s[6:0] $end
$var reg 11 { status_s[10:0] $end
$var reg 11 | status_axi[10:0] $end
$var reg 1 } armed $end
$var reg 1 !" capturing $end
$var reg 1 "" done $end
$var reg 1 #" overflow $end
$var reg 7 $" count[6:0] $end
$scope module i_cmd_data_cdc $end
$var reg 1 %" src_clk $end
$var reg 4 &" src_in[3:0] $end
$var reg 1 '" dest_clk $end
$var reg 4 (" dest_out[3:0] $end
$var reg 4 )" sync[3:0] $end
$upscope $end
$scope module i_cmd_toggle_cdc $end
$var reg 1 *" src_clk $end
$var reg 1 +" src_in $end
$var reg 1 ," dest_clk $end
$var reg 1 -" dest_out $end
$var reg 1 ." sync $end
$upscope $end
$scope module i_cmd_ack_cdc $end
$var reg 1 /" src_clk $end
$var reg 1 0" src_in $end
$var reg 1 1" dest_clk $end
$var reg 1 2" dest_out $end
$var reg 1 3" sync $end
$upscope $end
$scope module i_status_cdc $end
$var reg 1 4" src_clk $end
$var reg 11 5" src_in[10:0] $end
$var reg 1 6" dest_clk $end
$var reg 11 7" dest_out[10:0] $end
$var reg 11 8" sync[10:0] $end
$upscope $end
$scope module i_sample_now_cdc $end
$var reg 1 9" src_clk $end
$var reg 32 :" src_in[31:0] $end
$var reg 1 ;" dest_clk $end
$var reg 32 <" dest_out[31:0] $end
$var reg 32 =" sync[31:0] $end
$upscope $end
$scope module i_event_now_cdc $end
$var reg 1 >" src_clk $end
$var reg 8 ?" src_in[7:0] $end
$var reg 1 @" dest_clk $end
$var reg 8 A" dest_out[7:0] $end
$var reg 8 B" sync[7:0] $end
$upscope $end
$scope module u_radila $end
$var reg 1 C" sample_clk $end
$var reg 1 D" sample_rstn $end
$var reg 1 E" axi_clk $end
$var reg 1 F" axi_rstn $end
$var reg 32 G" sample_i[31:0] $end
$var reg 8 H" event_i[7:0] $end
$var reg 4 I" cmd_data_i[3:0] $end
$var reg 1 J" cmd_toggle_i $end
$var reg 1 K" cmd_ack_toggle_o $end
$var reg 6 L" rd_index_i[5:0] $end
$var reg 32 M" rd_data_o[31:0] $end
$var reg 32 N" sample_now_o[31:0] $end
$var reg 8 O" event_now_o[7:0] $end
$var reg 1 P" armed_o $end
$var reg 1 Q" capturing_o $end
$var reg 1 R" done_o $end
$var reg 1 S" overflow_o $end
$var reg 7 T" count_o[6:0] $end
$comment state is not handled $end
$var reg 6 U" wr_ptr[5:0] $end
$var reg 7 V" sample_cnt[6:0] $end
$var reg 7 W" post_cnt[6:0] $end
$var reg 7 X" captured[6:0] $end
$var reg 1 Y" overflow $end
$var reg 1 Z" ram_we[0:0] $end
$var reg 6 [" wr_addr[5:0] $end
$var reg 6 \" rd_addr[5:0] $end
$var reg 32 ]" unused_douta[31:0] $end
$var reg 1 ^" trigger_match $end
$var reg 1 _" cmd_toggle_d $end
$var reg 26 `" cmd_shift[25:0] $end
$var integer 32 a" cmd_count $end
$var reg 1 b" cmd_ack $end
$var reg 1 c" arm_pulse $end
$var reg 1 d" clear_pulse $end
$var reg 1 e" sw_pulse $end
$var reg 1 f" auto_rearm $end
$var reg 8 g" trig_mask[7:0] $end
$var reg 8 h" trig_value[7:0] $end
$var reg 6 i" posttrig[5:0] $end
$comment generic_ram is not handled $end
$scope module gen_xilinx_ram $end
$var reg 1 j" ANONYMOUS_0 $end
$var reg 1 k" ANONYMOUS_1 $end
$scope module i_capture_ram $end
$var reg 1 l" sleep $end
$var reg 1 m" clka $end
$var reg 1 n" rsta $end
$var reg 1 o" ena $end
$var reg 1 p" regcea $end
$var reg 1 q" wea[0:0] $end
$var reg 6 r" addra[5:0] $end
$var reg 32 s" dina[31:0] $end
$var reg 1 t" injectsbiterra $end
$var reg 1 u" injectdbiterra $end
$var reg 32 v" douta[31:0] $end
$var reg 1 w" sbiterra $end
$var reg 1 x" dbiterra $end
$var reg 1 y" clkb $end
$var reg 1 z" rstb $end
$var reg 1 {" enb $end
$var reg 1 |" regceb $end
$var reg 1 }" web[0:0] $end
$var reg 6 !# addrb[5:0] $end
$var reg 32 "# dinb[31:0] $end
$var reg 1 ## injectsbiterrb $end
$var reg 1 $# injectdbiterrb $end
$var reg 32 %# doutb[31:0] $end
$var reg 1 &# sbiterrb $end
$var reg 1 '# dbiterrb $end
$comment mem is not handled $end
$upscope $end
$upscope $end
$upscope $end
$scope module gen_axi_lite $end
$upscope $end
$upscope $end
$upscope $end
$enddefinitions $end
#0
0!
0"
0#
0$
b00000000000000000000000000000000 %
b00000000 &
0'
b000000 (
b000 )
0*
0+
b00000000000000000000000000000000 ,
b1111 -
0.
0/
b00 0
01
02
b000000 3
b000 4
05
06
b00000000000000000000000000000000 7
b00 8
09
0:
0;
0<
b00000000000000000000000000000000 =
b00000000 >
0?
0@
0A
b000000 B
b000 C
0D
0E
b00000000000000000000000000000000 F
b1111 G
0H
0I
b00 J
0K
0L
b000000 M
b000 N
0O
0P
b00000000000000000000000000000000 Q
b00 R
0S
0T
0U
0V
0W
0X
0Y
b00000000000000000000000000000000 Z
b000000 [
b000000 \
1]
0^
0_
b00000000000000000000000000000000 `
b00000000 a
b00000000 b
b000000 c
b111111 d
b000000 e
b00000000000000000000000000 f
b0 g
0h
b000 i
b0000 j
0k
0l
0m
b0000 n
0o
0p
bUUUUUUUUUUUUUUUUUUUUUUUUUUUUUUUU q
bUUUUUUUUUUUUUUUUUUUUUUUUUUUUUUUU r
bUUUUUUUU s
b00000000000000000000000000000000 t
b00000000 u
0v
0w
0x
0y
b0000000 z
b00000000000 {
b00000000000 |
0}
0!"
0""
0#"
b0000000 $"
0%"
b0000 &"
0'"
b0000 ("
b0000 )"
0*"
0+"
0,"
0-"
0."
0/"
00"
01"
02"
03"
04"
b00000000000 5"
06"
b00000000000 7"
b00000000000 8"
09"
bUUUUUUUUUUUUUUUUUUUUUUUUUUUUUUUU :"
0;"
b00000000000000000000000000000000 <"
b00000000000000000000000000000000 ="
0>"
bUUUUUUUU ?"
0@"
b00000000 A"
b00000000 B"
0C"
0D"
0E"
0F"
b00000000000000000000000000000000 G"
b00000000 H"
b0000 I"
0J"
0K"
b000000 L"
bUUUUUUUUUUUUUUUUUUUUUUUUUUUUUUUU M"
bUUUUUUUUUUUUUUUUUUUUUUUUUUUUUUUU N"
bUUUUUUUU O"
0P"
0Q"
0R"
0S"
b0000000 T"
b000000 U"
b0000000 V"
b0000000 W"
b0000000 X"
0Y"
b0 Z"
b000000 ["
b000000 \"
bUUUUUUUUUUUUUUUUUUUUUUUUUUUUUUUU ]"
1^"
0_"
b00000000000000000000000000 `"
b0 a"
0b"
0c"
0d"
0e"
0f"
b00000000 g"
b00000000 h"
b111111 i"
1j"
1k"
0l"
0m"
1n"
1o"
1p"
b0 q"
b000000 r"
b00000000000000000000000000000000 s"
0t"
0u"
bUUUUUUUUUUUUUUUUUUUUUUUUUUUUUUUU v"
0w"
0x"
0y"
1z"
1{"
1|"
b0 }"
b000000 !#
b00000000000000000000000000000000 "#
0##
0$#
bUUUUUUUUUUUUUUUUUUUUUUUUUUUUUUUU %#
0&#
0'#
#3500000
1!
1;
b00000000000000000000000000000000 r
b00000000 s
1'"
1,"
1/"
14"
19"
b00000000000000000000000000000000 :"
1>"
b00000000 ?"
1C"
b00000000000000000000000000000000 N"
b00000000 O"
b00000000000000000000000000000000 ]"
1m"
b00000000000000000000000000000000 v"
#5000000
1"
1@
b00000000000000000000000000000000 q
1%"
1*"
11"
16"
1;"
1@"
1E"
b00000000000000000000000000000000 M"
1y"
b00000000000000000000000000000000 %#
#7000000
0!
0;
0'"
0,"
0/"
04"
09"
0>"
0C"
0m"
#10000000
0"
0@
0%"
0*"
01"
06"
0;"
0@"
0E"
0y"
#10500000
1!
1;
1'"
1,"
1/"
14"
19"
1>"
1C"
1m"
#14000000
0!
0;
0'"
0,"
0/"
04"
09"
0>"
0C"
0m"
#15000000
1"
1@
1%"
1*"
11"
16"
1;"
1@"
1E"
1y"
#17500000
1!
1;
1'"
1,"
1/"
14"
19"
1>"
1C"
1m"
#20000000
0"
0@
0%"
0*"
01"
06"
0;"
0@"
0E"
0y"
#21000000
0!
0;
0'"
0,"
0/"
04"
09"
0>"
0C"
0m"
#24500000
1!
1;
1'"
1,"
1/"
14"
19"
1>"
1C"
1m"
#25000000
1"
1@
1%"
1*"
11"
16"
1;"
1@"
1E"
1y"
#28000000
0!
0;
0'"
0,"
0/"
04"
09"
0>"
0C"
0m"
#30000000
0"
0@
0%"
0*"
01"
06"
0;"
0@"
0E"
0y"
#31500000
1!
1;
1'"
1,"
1/"
14"
19"
1>"
1C"
1m"
#35000000
0!
1"
0;
1@
1%"
0'"
1*"
0,"
0/"
11"
04"
16"
09"
1;"
0>"
1@"
0C"
1E"
0m"
1y"
#38500000
1!
1;
1'"
1,"
1/"
14"
19"
1>"
1C"
1m"
#40000000
0"
0@
0%"
0*"
01"
06"
0;"
0@"
0E"
0y"
#42000000
0!
0;
0'"
0,"
0/"
04"
09"
0>"
0C"
0m"
#45000000
1"
1@
1%"
1*"
11"
16"
1;"
1@"
1E"
1y"
#45500000
1!
1;
1'"
1,"
1/"
14"
19"
1>"
1C"
1m"
#49000000
0!
0;
0'"
0,"
0/"
04"
09"
0>"
0C"
0m"
#50000000
0"
0@
0%"
0*"
01"
06"
0;"
0@"
0E"
0y"
#52500000
1!
1;
1'"
1,"
1/"
14"
19"
1>"
1C"
1m"
#55000000
1"
1@
1%"
1*"
11"
16"
1;"
1@"
1E"
1y"
#56000000
0!
0;
0'"
0,"
0/"
04"
09"
0>"
0C"
0m"
#59500000
1!
1;
1'"
1,"
1/"
14"
19"
1>"
1C"
1m"
#60000000
0"
0@
0%"
0*"
01"
06"
0;"
0@"
0E"
0y"
#63000000
0!
0;
0'"
0,"
0/"
04"
09"
0>"
0C"
0m"
#65000000
1"
1@
1%"
1*"
11"
16"
1;"
1@"
1E"
1y"
#66500000
1!
1;
1'"
1,"
1/"
14"
19"
1>"
1C"
1m"
#70000000
0!
0"
0;
0@
0%"
0'"
0*"
0,"
0/"
01"
04"
06"
09"
0;"
0>"
0@"
0C"
0E"
0m"
0y"
#73500000
1!
1;
1'"
1,"
1/"
14"
19"
1>"
1C"
1m"
#75000000
1"
1@
1%"
1*"
11"
16"
1;"
1@"
1E"
1y"
#77000000
0!
0;
0'"
0,"
0/"
04"
09"
0>"
0C"
0m"
#80000000
0"
0@
0%"
0*"
01"
06"
0;"
0@"
0E"
0y"
#80500000
1!
1;
1'"
1,"
1/"
14"
19"
1>"
1C"
1m"
#84000000
0!
0;
0'"
0,"
0/"
04"
09"
0>"
0C"
0m"
#85000000
1"
1@
1%"
1*"
11"
16"
1;"
1@"
1E"
1y"
#87500000
1!
1;
1'"
1,"
1/"
14"
19"
1>"
1C"
1m"
#90000000
0"
0@
0%"
0*"
01"
06"
0;"
0@"
0E"
0y"
#91000000
0!
0;
0'"
0,"
0/"
04"
09"
0>"
0C"
0m"
#94500000
1!
1;
1'"
1,"
1/"
14"
19"
1>"
1C"
1m"
#95000000
1"
1@
1%"
1*"
11"
16"
1;"
1@"
1E"
1y"
#98000000
0!
0;
0'"
0,"
0/"
04"
09"
0>"
0C"
0m"
#100000000
0"
1#
1$
1<
0@
1A
0%"
0*"
01"
06"
0;"
0@"
1D"
0E"
1F"
0j"
0k"
0n"
0y"
0z"
#101500000
1!
1;
1'"
1,"
1/"
14"
19"
1>"
1C"
1m"
#105000000
0!
1"
0;
1@
1%"
0'"
1*"
0,"
0/"
11"
04"
16"
09"
1;"
0>"
1@"
0C"
1E"
0m"
1y"
#108500000
1!
b00000000000000000000000000000001 %
1;
b00000000000000000000000000000001 =
1'"
1,"
1/"
14"
19"
1>"
1C"
b00000000000000000000000000000001 G"
1m"
b00000000000000000000000000000001 s"
#110000000
0"
0@
0%"
0*"
01"
06"
0;"
0@"
0E"
0y"
#112000000
0!
0;
0'"
0,"
0/"
04"
09"
0>"
0C"
0m"
#115000000
1"
1@
1%"
1*"
11"
16"
1;"
1@"
1E"
1y"
#115500000
1!
b00000000000000000000000000000010 %
1;
b00000000000000000000000000000010 =
b00000000000000000000000000000001 r
1'"
1,"
1/"
14"
19"
b00000000000000000000000000000001 :"
1>"
1C"
b00000000000000000000000000000010 G"
b00000000000000000000000000000001 N"
1m"
b00000000000000000000000000000010 s"
#119000000
0!
0;
0'"
0,"
0/"
04"
09"
0>"
0C"
0m"
#120000000
0"
0@
0%"
0*"
01"
06"
0;"
0@"
0E"
0y"
#122500000
1!
b00000000000000000000000000000011 %
1;
b00000000000000000000000000000011 =
b00000000000000000000000000000010 r
1'"
1,"
1/"
14"
19"
b00000000000000000000000000000010 :"
1>"
1C"
b00000000000000000000000000000011 G"
b00000000000000000000000000000010 N"
1m"
b00000000000000000000000000000011 s"
#125000000
1"
1@
b00000000000000000000000000000010 t
1%"
1*"
11"
16"
1;"
b00000000000000000000000000000010 <"
b00000000000000000000000000000010 ="
1@"
1E"
1y"
#126000000
0!
0;
0'"
0,"
0/"
04"
09"
0>"
0C"
0m"
#129500000
1!
b00000000000000000000000000000100 %
1;
b00000000000000000000000000000100 =
b00000000000000000000000000000011 r
1'"
1,"
1/"
14"
19"
b00000000000000000000000000000011 :"
1>"
1C"
b00000000000000000000000000000100 G"
b00000000000000000000000000000011 N"
1m"
b00000000000000000000000000000100 s"
#130000000
0"
0@
0%"
0*"
01"
06"
0;"
0@"
0E"
0y"
#133000000
0!
0;
0'"
0,"
0/"
04"
09"
0>"
0C"
0m"
#135000000
1"
1@
b00000000000000000000000000000011 t
1%"
1*"
11"
16"
1;"
b00000000000000000000000000000011 <"
b00000000000000000000000000000011 ="
1@"
1E"
1y"
#136500000
1!
b00000000000000000000000000000101 %
1;
b00000000000000000000000000000101 =
b00000000000000000000000000000100 r
1'"
1,"
1/"
14"
19"
b00000000000000000000000000000100 :"
1>"
1C"
b00000000000000000000000000000101 G"
b00000000000000000000000000000100 N"
1m"
b00000000000000000000000000000101 s"
#140000000
0!
0"
0;
0@
0%"
0'"
0*"
0,"
0/"
01"
04"
06"
09"
0;"
0>"
0@"
0C"
0E"
0m"
0y"
#143500000
1!
b00000000000000000000000000000110 %
1;
b00000000000000000000000000000110 =
b00000000000000000000000000000101 r
1'"
1,"
1/"
14"
19"
b00000000000000000000000000000101 :"
1>"
1C"
b00000000000000000000000000000110 G"
b00000000000000000000000000000101 N"
1m"
b00000000000000000000000000000110 s"
#145000000
1"
1@
b00000000000000000000000000000101 t
1%"
1*"
11"
16"
1;"
b00000000000000000000000000000101 <"
b00000000000000000000000000000101 ="
1@"
1E"
1y"
#147000000
0!
0;
0'"
0,"
0/"
04"
09"
0>"
0C"
0m"
#150000000
0"
0@
0%"
0*"
01"
06"
0;"
0@"
0E"
0y"
#150500000
1!
b00000000000000000000000000000111 %
1;
b00000000000000000000000000000111 =
b00000000000000000000000000000110 r
1'"
1,"
1/"
14"
19"
b00000000000000000000000000000110 :"
1>"
1C"
b00000000000000000000000000000111 G"
b00000000000000000000000000000110 N"
1m"
b00000000000000000000000000000111 s"
#154000000
0!
0;
0'"
0,"
0/"
04"
09"
0>"
0C"
0m"
#155000000
1"
1@
b00000000000000000000000000000110 t
1%"
1*"
11"
16"
1;"
b00000000000000000000000000000110 <"
b00000000000000000000000000000110 ="
1@"
1E"
1y"
#157500000
1!
b00000000000000000000000000001000 %
1;
b00000000000000000000000000001000 =
b00000000000000000000000000000111 r
1'"
1,"
1/"
14"
19"
b00000000000000000000000000000111 :"
1>"
1C"
b00000000000000000000000000001000 G"
b00000000000000000000000000000111 N"
1m"
b00000000000000000000000000001000 s"
#160000000
0"
0@
0%"
0*"
01"
06"
0;"
0@"
0E"
0y"
#161000000
0!
0;
0'"
0,"
0/"
04"
09"
0>"
0C"
0m"
#164500000
1!
b00000000000000000000000000001001 %
1;
b00000000000000000000000000001001 =
b00000000000000000000000000001000 r
1'"
1,"
1/"
14"
19"
b00000000000000000000000000001000 :"
1>"
1C"
b00000000000000000000000000001001 G"
b00000000000000000000000000001000 N"
1m"
b00000000000000000000000000001001 s"
#165000000
1"
1@
b00000000000000000000000000001000 t
1%"
1*"
11"
16"
1;"
b00000000000000000000000000001000 <"
b00000000000000000000000000001000 ="
1@"
1E"
1y"
#168000000
0!
0;
0'"
0,"
0/"
04"
09"
0>"
0C"
0m"
#170000000
0"
0@
0%"
0*"
01"
06"
0;"
0@"
0E"
0y"
#171500000
1!
b00000000000000000000000000001010 %
1;
b00000000000000000000000000001010 =
b00000000000000000000000000001001 r
1'"
1,"
1/"
14"
19"
b00000000000000000000000000001001 :"
1>"
1C"
b00000000000000000000000000001010 G"
b00000000000000000000000000001001 N"
1m"
b00000000000000000000000000001010 s"
#175000000
0!
1"
0;
1@
b00000000000000000000000000001001 t
1%"
0'"
1*"
0,"
0/"
11"
04"
16"
09"
1;"
b00000000000000000000000000001001 <"
b00000000000000000000000000001001 ="
0>"
1@"
0C"
1E"
0m"
1y"
#178500000
1!
b00000000000000000000000000001011 %
1;
b00000000000000000000000000001011 =
b00000000000000000000000000001010 r
1'"
1,"
1/"
14"
19"
b00000000000000000000000000001010 :"
1>"
1C"
b00000000000000000000000000001011 G"
b00000000000000000000000000001010 N"
1m"
b00000000000000000000000000001011 s"
#180000000
0"
0@
0%"
0*"
01"
06"
0;"
0@"
0E"
0y"
#182000000
0!
0;
0'"
0,"
0/"
04"
09"
0>"
0C"
0m"
#185000000
1"
1@
b00000000000000000000000000001010 t
1%"
1*"
11"
16"
1;"
b00000000000000000000000000001010 <"
b00000000000000000000000000001010 ="
1@"
1E"
1y"
#185500000
1!
b00000000000000000000000000001100 %
1;
b00000000000000000000000000001100 =
b00000000000000000000000000001011 r
1'"
1,"
1/"
14"
19"
b00000000000000000000000000001011 :"
1>"
1C"
b00000000000000000000000000001100 G"
b00000000000000000000000000001011 N"
1m"
b00000000000000000000000000001100 s"
#189000000
0!
0;
0'"
0,"
0/"
04"
09"
0>"
0C"
0m"
#190000000
0"
0@
0%"
0*"
01"
06"
0;"
0@"
0E"
0y"
#192500000
1!
b00000000000000000000000000001101 %
1;
b00000000000000000000000000001101 =
b00000000000000000000000000001100 r
1'"
1,"
1/"
14"
19"
b00000000000000000000000000001100 :"
1>"
1C"
b00000000000000000000000000001101 G"
b00000000000000000000000000001100 N"
1m"
b00000000000000000000000000001101 s"
#195000000
1"
1@
b00000000000000000000000000001100 t
1%"
1*"
11"
16"
1;"
b00000000000000000000000000001100 <"
b00000000000000000000000000001100 ="
1@"
1E"
1y"
#196000000
0!
0;
0'"
0,"
0/"
04"
09"
0>"
0C"
0m"
#199500000
1!
b00000000000000000000000000001110 %
1;
b00000000000000000000000000001110 =
b00000000000000000000000000001101 r
1'"
1,"
1/"
14"
19"
b00000000000000000000000000001101 :"
1>"
1C"
b00000000000000000000000000001110 G"
b00000000000000000000000000001101 N"
1m"
b00000000000000000000000000001110 s"
#200000000
0"
0@
0%"
0*"
01"
06"
0;"
0@"
0E"
0y"
#203000000
0!
0;
0'"
0,"
0/"
04"
09"
0>"
0C"
0m"
#205000000
1"
15
1:
1@
1O
1T
b00000000000000000000000000001101 t
1%"
1*"
11"
16"
1;"
b00000000000000000000000000001101 <"
b00000000000000000000000000001101 ="
1@"
1E"
1y"
#206500000
1!
b00000000000000000000000000001111 %
1;
b00000000000000000000000000001111 =
b00000000000000000000000000001110 r
1'"
1,"
1/"
14"
19"
b00000000000000000000000000001110 :"
1>"
1C"
b00000000000000000000000000001111 G"
b00000000000000000000000000001110 N"
1m"
b00000000000000000000000000001111 s"
#210000000
0!
0"
0;
0@
0%"
0'"
0*"
0,"
0/"
01"
04"
06"
09"
0;"
0>"
0@"
0C"
0E"
0m"
0y"
#213500000
1!
b00000000000000000000000000010000 %
1;
b00000000000000000000000000010000 =
b00000000000000000000000000001111 r
1'"
1,"
1/"
14"
19"
b00000000000000000000000000001111 :"
1>"
1C"
b00000000000000000000000000010000 G"
b00000000000000000000000000001111 N"
1m"
b00000000000000000000000000010000 s"
#215000000
1"
16
1@
1P
1X
1_
b00000000000000000000000000001111 t
1%"
1*"
11"
16"
1;"
b00000000000000000000000000001111 <"
b00000000000000000000000000001111 ="
1@"
1E"
1y"
#217000000
0!
0;
0'"
0,"
0/"
04"
09"
0>"
0C"
0m"
#220000000
0"
0@
0%"
0*"
01"
06"
0;"
0@"
0E"
0y"
#220500000
1!
b00000000000000000000000000010001 %
1;
b00000000000000000000000000010001 =
b00000000000000000000000000010000 r
1'"
1,"
1/"
14"
19"
b00000000000000000000000000010000 :"
1>"
1C"
b00000000000000000000000000010001 G"
b00000000000000000000000000010000 N"
1m"
b00000000000000000000000000010001 s"
#224000000
0!
0;
0'"
0,"
0/"
04"
09"
0>"
0C"
0m"
#225000000
1"
05
06
b01010010010000010100010001001001 7
19
1@
0O
0P
b01010010010000010100010001001001 Q
1S
0X
1Y
b01010010010000010100010001001001 Z
0_
b00000000000000000000000000010000 t
1%"
1*"
11"
16"
1;"
b00000000000000000000000000010000 <"
b00000000000000000000000000010000 ="
1@"
1E"
1y"
#227500000
1!
b00000000000000000000000000010010 %
1;
b00000000000000000000000000010010 =
b00000000000000000000000000010001 r
1'"
1,"
1/"
14"
19"
b00000000000000000000000000010001 :"
1>"
1C"
b00000000000000000000000000010010 G"
b00000000000000000000000000010001 N"
1m"
b00000000000000000000000000010010 s"
#230000000
0"
0@
0%"
0*"
01"
06"
0;"
0@"
0E"
0y"
#231000000
0!
0;
0'"
0,"
0/"
04"
09"
0>"
0C"
0m"
#234500000
1!
b00000000000000000000000000010011 %
1;
b00000000000000000000000000010011 =
b00000000000000000000000000010010 r
1'"
1,"
1/"
14"
19"
b00000000000000000000000000010010 :"
1>"
1C"
b00000000000000000000000000010011 G"
b00000000000000000000000000010010 N"
1m"
b00000000000000000000000000010011 s"
#235000000
1"
09
0:
1@
0S
0T
0Y
b00000000000000000000000000010010 t
1%"
1*"
11"
16"
1;"
b00000000000000000000000000010010 <"
b00000000000000000000000000010010 ="
1@"
1E"
1y"
#238000000
0!
0;
0'"
0,"
0/"
04"
09"
0>"
0C"
0m"
#240000000
0"
0@
0%"
0*"
01"
06"
0;"
0@"
0E"
0y"
#241500000
1!
b00000000000000000000000000010100 %
1;
b00000000000000000000000000010100 =
b00000000000000000000000000010011 r
1'"
1,"
1/"
14"
19"
b00000000000000000000000000010011 :"
1>"
1C"
b00000000000000000000000000010100 G"
b00000000000000000000000000010011 N"
1m"
b00000000000000000000000000010100 s"
#245000000
0!
1"
b010000 (
1*
b00000000000000000000000000000001 ,
1.
12
0;
1@
b010000 B
1D
b00000000000000000000000000000001 F
1H
1L
b00000000000000000000000000010011 t
1%"
0'"
1*"
0,"
0/"
11"
04"
16"
09"
1;"
b00000000000000000000000000010011 <"
b00000000000000000000000000010011 ="
0>"
1@"
0C"
1E"
0m"
1y"
#248500000
1!
b00000000000000000000000000010101 %
1;
b00000000000000000000000000010101 =
b00000000000000000000000000010100 r
1'"
1,"
1/"
14"
19"
b00000000000000000000000000010100 :"
1>"
1C"
b00000000000000000000000000010101 G"
b00000000000000000000000000010100 N"
1m"
b00000000000000000000000000010101 s"
#250000000
0"
0@
0%"
0*"
01"
06"
0;"
0@"
0E"
0y"
#252000000
0!
0;
0'"
0,"
0/"
04"
09"
0>"
0C"
0m"
#255000000
1"
1+
1/
1@
1E
1I
1U
1V
b010000 [
0]
1^
b00000000000000000000000000010100 t
1%"
1*"
11"
16"
1;"
b00000000000000000000000000010100 <"
b00000000000000000000000000010100 ="
1@"
1E"
1y"
#255500000
1!
b00000000000000000000000000010110 %
1;
b00000000000000000000000000010110 =
b00000000000000000000000000010101 r
1'"
1,"
1/"
14"
19"
b00000000000000000000000000010101 :"
1>"
1C"
b00000000000000000000000000010110 G"
b00000000000000000000000000010101 N"
1m"
b00000000000000000000000000010110 s"
#259000000
0!
0;
0'"
0,"
0/"
04"
09"
0>"
0C"
0m"
#260000000
0"
0@
0%"
0*"
01"
06"
0;"
0@"
0E"
0y"
#262500000
1!
b00000000000000000000000000010111 %
1;
b00000000000000000000000000010111 =
b00000000000000000000000000010110 r
1'"
1,"
1/"
14"
19"
b00000000000000000000000000010110 :"
1>"
1C"
b00000000000000000000000000010111 G"
b00000000000000000000000000010110 N"
1m"
b00000000000000000000000000010111 s"
#265000000
1"
0*
0+
0.
0/
11
1@
0D
0E
0H
0I
1K
0U
0V
1W
0^
b00000001 a
1h
b00000000000000000000000000010110 t
1%"
1*"
11"
16"
1;"
b00000000000000000000000000010110 <"
b00000000000000000000000000010110 ="
1@"
1E"
1y"
#266000000
0!
0;
0'"
0,"
0/"
04"
09"
0>"
0C"
0m"
#269500000
1!
b00000000000000000000000000011000 %
1;
b00000000000000000000000000011000 =
b00000000000000000000000000010111 r
1'"
1,"
1/"
14"
19"
b00000000000000000000000000010111 :"
1>"
1C"
b00000000000000000000000000011000 G"
b00000000000000000000000000010111 N"
1m"
b00000000000000000000000000011000 s"
#270000000
0"
0@
0%"
0*"
01"
06"
0;"
0@"
0E"
0y"
#273000000
0!
0;
0'"
0,"
0/"
04"
09"
0>"
0C"
0m"
#275000000
1"
01
02
1@
0K
0L
0W
1]
b11111100000000000000010000 f
0h
b00000000000000000000000000010111 t
1%"
1*"
11"
16"
1;"
b00000000000000000000000000010111 <"
b00000000000000000000000000010111 ="
1@"
1E"
1y"
#276500000
1!
b00000000000000000000000000011001 %
1;
b00000000000000000000000000011001 =
b00000000000000000000000000011000 r
1'"
1,"
1/"
14"
19"
b00000000000000000000000000011000 :"
1>"
1C"
b00000000000000000000000000011001 G"
b00000000000000000000000000011000 N"
1m"
b00000000000000000000000000011001 s"
#280000000
0!
0"
0;
0@
0%"
0'"
0*"
0,"
0/"
01"
04"
06"
09"
0;"
0>"
0@"
0C"
0E"
0m"
0y"
