docs/radhdl/0.2.1/simulations/tb_radila_core/tb_radila_core.vcd
$date
  Wed Jul  8 17:45:13 2026
$end
$version
  GHDL v0
$end
$timescale
  1 fs
$end
$scope module standard $end
$upscope $end
$scope module textio $end
$upscope $end
$scope module std_logic_1164 $end
$upscope $end
$scope module numeric_std $end
$upscope $end
$scope module env $end
$upscope $end
$scope module vcomponents $end
$upscope $end
$scope module tb_radila_core $end
$var reg 1 ! sample_clk $end
$var reg 1 " reg_clk $end
$var reg 1 # sample_rstn $end
$var reg 1 $ reg_rstn $end
$var reg 32 % sample[31:0] $end
$var reg 8 & event_v[7:0] $end
$var reg 1 ' irq $end
$var reg 16 ( reg_wr_addr[15:0] $end
$var reg 16 ) reg_rd_addr[15:0] $end
$var reg 1 * reg_wr_en $end
$var reg 1 + reg_rd_en $end
$var reg 32 , reg_data_in[31:0] $end
$var reg 32 - reg_data_out[31:0] $end
$var reg 1 . reg_wr_rdy $end
$var reg 1 / reg_rd_rdy $end
$var reg 1 0 reg_wr_valid $end
$var reg 1 1 reg_rd_valid $end
$var reg 1 2 reg_error $end
$scope module dut $end
$var reg 1 3 sample_clk $end
$var reg 1 4 sample_rstn $end
$var reg 32 5 sample_i[31:0] $end
$var reg 8 6 event_i[7:0] $end
$var reg 1 7 irq_o $end
$var reg 1 8 reg_clk $end
$var reg 1 9 reg_rstn $end
$var reg 16 : reg_wr_addr[15:0] $end
$var reg 16 ; reg_rd_addr[15:0] $end
$var reg 1 < reg_wr_en $end
$var reg 1 = reg_rd_en $end
$var reg 32 > reg_data_in[31:0] $end
$var reg 32 ? reg_data_out[31:0] $end
$var reg 1 @ reg_wr_rdy $end
$var reg 1 A reg_rd_rdy $end
$var reg 1 B reg_wr_valid $end
$var reg 1 C reg_rd_valid $end
$var reg 1 D reg_error $end
$var reg 32 E control[31:0] $end
$var reg 8 F trig_mask[7:0] $end
$var reg 8 G trig_value[7:0] $end
$var reg 6 H pretrig[5:0] $end
$var reg 6 I posttrig[5:0] $end
$var reg 6 J data_index[5:0] $end
$comment cmd_state is not handled $end
$var reg 26 K cmd_frame[25:0] $end
$var integer 32 L cmd_bit $end
$var reg 1 M cmd_pending $end
$var reg 3 N cmd_req[2:0] $end
$var reg 4 O cmd_data_reg[3:0] $end
$var reg 1 P cmd_toggle_reg $end
$var reg 1 Q cmd_ack_reg $end
$var reg 1 R cmd_ack_seen $end
$var reg 4 S cmd_data_sample[3:0] $end
$var reg 1 T cmd_toggle_sample $end
$var reg 1 U cmd_ack_sample $end
$var reg 4 V cmd_data_meta1[3:0] $end
$var reg 4 W cmd_data_meta2[3:0] $end
$var reg 1 X cmd_toggle_meta1 $end
$var reg 1 Y cmd_toggle_meta2 $end
$var reg 1 Z cmd_ack_meta1 $end
$var reg 1 [ cmd_ack_meta2 $end
$var reg 32 \ sample_data[31:0] $end
$var reg 32 ] sample_now_s[31:0] $end
$var reg 8 ^ event_now_s[7:0] $end
$var reg 32 _ sample_now_reg[31:0] $end
$var reg 8 ` event_now_reg[7:0] $end
$var reg 1 a armed_s $end
$var reg 1 b capturing_s $end
$var reg 1 c done_s $end
$var reg 1 d overflow_s $end
$var reg 7 e count_s[6:0] $end
$var reg 11 f status_s[10:0] $end
$var reg 11 g status_reg[10:0] $end
$var reg 11 h status_meta1[10:0] $end
$var reg 11 i status_meta2[10:0] $end
$var reg 32 j sample_now_meta1[31:0] $end
$var reg 32 k sample_now_meta2[31:0] $end
$var reg 8 l event_now_meta1[7:0] $end
$var reg 8 m event_now_meta2[7:0] $end
$var reg 1 n armed $end
$var reg 1 o capturing $end
$var reg 1 p done $end
$var reg 1 q overflow $end
$var reg 7 r count[6:0] $end
$var reg 32 s rd_data_r[31:0] $end
$var reg 1 t wr_valid_r $end
$var reg 1 u rd_valid_r $end
$var reg 1 v error_r $end
$scope module u_radila $end
$var reg 1 w sample_clk $end
$var reg 1 x sample_rstn $end
$var reg 1 y axi_clk $end
$var reg 1 z axi_rstn $end
$var reg 32 { sample_i[31:0] $end
$var reg 8 | event_i[7:0] $end
$var reg 4 } cmd_data_i[3:0] $end
$var reg 1 !" cmd_toggle_i $end
$var reg 1 "" cmd_ack_toggle_o $end
$var reg 6 #" rd_index_i[5:0] $end
$var reg 32 $" rd_data_o[31:0] $end
$var reg 32 %" sample_now_o[31:0] $end
$var reg 8 &" event_now_o[7:0] $end
$var reg 1 '" armed_o $end
$var reg 1 (" capturing_o $end
$var reg 1 )" done_o $end
$var reg 1 *" overflow_o $end
$var reg 7 +" count_o[6:0] $end
$comment state is not handled $end
$var reg 6 ," wr_ptr[5:0] $end
$var reg 7 -" sample_cnt[6:0] $end
$var reg 7 ." post_cnt[6:0] $end
$var reg 7 /" captured[6:0] $end
$var reg 1 0" overflow $end
$var reg 1 1" ram_we[0:0] $end
$var reg 1 2" ram_web_zero[0:0] $end
$var reg 6 3" wr_addr[5:0] $end
$var reg 6 4" rd_addr[5:0] $end
$var reg 32 5" ram_dinb_zero[31:0] $end
$var reg 32 6" unused_douta[31:0] $end
$var reg 1 7" trigger_match $end
$var reg 1 8" cmd_toggle_d $end
$var reg 26 9" cmd_shift[25:0] $end
$var integer 32 :" cmd_count $end
$var reg 1 ;" cmd_ack $end
$var reg 1 <" arm_pulse $end
$var reg 1 =" clear_pulse $end
$var reg 1 >" sw_pulse $end
$var reg 1 ?" auto_rearm $end
$var reg 8 @" trig_mask[7:0] $end
$var reg 8 A" trig_value[7:0] $end
$var reg 6 B" posttrig[5:0] $end
$comment generic_ram is not handled $end
$scope module gen_generic_ram $end
$upscope $end
$upscope $end
$upscope $end
$upscope $end
$enddefinitions $end
#0
0!
0"
0#
0$
b00000000000000000000000000000000 %
b00000000 &
0'
b0000000000000000 (
b0000000000000000 )
0*
0+
b00000000000000000000000000000000 ,
b00000000000000000000000000000000 -
1.
1/
00
01
02
03
04
b00000000000000000000000000000000 5
b00000000 6
07
08
09
b0000000000000000 :
b0000000000000000 ;
0<
0=
b00000000000000000000000000000000 >
b00000000000000000000000000000000 ?
1@
1A
0B
0C
0D
b00000000000000000000000000000000 E
b00000000 F
b00000000 G
b000000 H
b111111 I
b000000 J
b00000000000000000000000000 K
b0 L
0M
b000 N
b0000 O
0P
UQ
0R
bUUUU S
UT
0U
b0000 V
b0000 W
0X
0Y
0Z
0[
bUUUUUUUUUUUUUUUUUUUUUUUUUUUUUUUU \
bUUUUUUUUUUUUUUUUUUUUUUUUUUUUUUUU ]
bUUUUUUUU ^
bUUUUUUUUUUUUUUUUUUUUUUUUUUUUUUUU _
bUUUUUUUU `
0a
0b
0c
0d
b0000000 e
b00000000000 f
bUUUUUUUUUUU g
b00000000000 h
b00000000000 i
b00000000000000000000000000000000 j
b00000000000000000000000000000000 k
b00000000 l
b00000000 m
Un
Uo
Up
Uq
bUUUUUUU r
b00000000000000000000000000000000 s
0t
0u
0v
0w
0x
0y
0z
b00000000000000000000000000000000 {
b00000000 |
bUUUU }
U!"
0""
b000000 #"
bUUUUUUUUUUUUUUUUUUUUUUUUUUUUUUUU $"
bUUUUUUUUUUUUUUUUUUUUUUUUUUUUUUUU %"
bUUUUUUUU &"
0'"
0("
0)"
0*"
b0000000 +"
b000000 ,"
b0000000 -"
b0000000 ."
b0000000 /"
00"
b0 1"
b0 2"
b000000 3"
b000000 4"
b00000000000000000000000000000000 5"
b00000000000000000000000000000000 6"
17"
08"
b00000000000000000000000000 9"
b0 :"
0;"
0<"
0="
0>"
0?"
b00000000 @"
b00000000 A"
b111111 B"
#3500000
1!
13
b0000 S
0T
1U
b00000000000000000000000000000000 ]
b00000000 ^
1w
b0000 }
0!"
1""
b00000000000000000000000000000000 %"
b00000000 &"
U8"
1;"
#5000000
1"
18
0Q
UR
1Z
b00000000000000000000000000000000 \
b00000000000000000000000000000000 _
b00000000 `
b00000000000 g
0n
0o
0p
0q
b0000000 r
1y
b00000000000000000000000000000000 $"
#7000000
0!
03
0w
#10000000
0"
08
0y
#10500000
1!
13
0U
1w
0""
08"
0;"
#14000000
0!
03
0w
#15000000
1"
18
0R
0Z
1[
1y
#17500000
1!
13
1w
#20000000
0"
08
0y
#21000000
0!
03
0w
#24500000
1!
13
1w
#25000000
1"
18
1Q
0[
1y
#28000000
0!
03
0w
#30000000
0"
08
0y
#31500000
1!
13
1w
#35000000
0!
1"
03
18
0Q
1R
0w
1y
#38500000
1!
13
1w
#40000000
0"
08
0y
#42000000
0!
03
0w
#45000000
1"
18
0R
1y
#45500000
1!
13
1w
#49000000
0!
03
0w
#50000000
0"
08
0y
#52500000
1!
13
1w
#55000000
1"
18
1y
#56000000
0!
03
0w
#59500000
1!
13
1w
#60000000
0"
08
0y
#63000000
0!
03
0w
#65000000
1"
18
1y
#66500000
1!
13
1w
#70000000
0!
0"
03
08
0w
0y
#73500000
1!
13
1w
#75000000
1"
18
1y
#77000000
0!
03
0w
#80000000
0"
08
0y
#80500000
1!
13
1w
#84000000
0!
03
0w
#85000000
1"
18
1y
#87500000
1!
13
1w
#90000000
0"
08
0y
#91000000
0!
03
0w
#94500000
1!
13
1w
#95000000
1"
18
1y
#98000000
0!
03
0w
#100000000
0"
1#
1$
14
08
19
1x
0y
1z
#101500000
1!
13
1w
#105000000
0!
1"
03
18
0w
1y
#108500000
1!
b00000000000000000000000000000001 %
13
b00000000000000000000000000000001 5
1w
b00000000000000000000000000000001 {
#110000000
0"
08
0y
#112000000
0!
03
0w
#115000000
1"
18
1y
#115500000
1!
b00000000000000000000000000000010 %
13
b00000000000000000000000000000010 5
b00000000000000000000000000000001 ]
1w
b00000000000000000000000000000010 {
b00000000000000000000000000000001 %"
#119000000
0!
03
0w
#120000000
0"
08
0y
#122500000
1!
b00000000000000000000000000000011 %
13
b00000000000000000000000000000011 5
b00000000000000000000000000000010 ]
1w
b00000000000000000000000000000011 {
b00000000000000000000000000000010 %"
#125000000
1"
18
b00000000000000000000000000000010 j
1y
#126000000
0!
03
0w
#129500000
1!
b00000000000000000000000000000100 %
13
b00000000000000000000000000000100 5
b00000000000000000000000000000011 ]
1w
b00000000000000000000000000000100 {
b00000000000000000000000000000011 %"
#130000000
0"
08
0y
#133000000
0!
03
0w
#135000000
1"
18
b00000000000000000000000000000011 j
b00000000000000000000000000000010 k
1y
#136500000
1!
b00000000000000000000000000000101 %
13
b00000000000000000000000000000101 5
b00000000000000000000000000000100 ]
1w
b00000000000000000000000000000101 {
b00000000000000000000000000000100 %"
#140000000
0!
0"
03
08
0w
0y
#143500000
1!
b00000000000000000000000000000110 %
13
b00000000000000000000000000000110 5
b00000000000000000000000000000101 ]
1w
b00000000000000000000000000000110 {
b00000000000000000000000000000101 %"
#145000000
1"
18
b00000000000000000000000000000010 _
b00000000000000000000000000000101 j
b00000000000000000000000000000011 k
1y
#147000000
0!
03
0w
#150000000
0"
08
0y
#150500000
1!
b00000000000000000000000000000111 %
13
b00000000000000000000000000000111 5
b00000000000000000000000000000110 ]
1w
b00000000000000000000000000000111 {
b00000000000000000000000000000110 %"
#154000000
0!
03
0w
#155000000
1"
18
b00000000000000000000000000000011 _
b00000000000000000000000000000110 j
b00000000000000000000000000000101 k
1y
#157500000
1!
b00000000000000000000000000001000 %
13
b00000000000000000000000000001000 5
b00000000000000000000000000000111 ]
1w
b00000000000000000000000000001000 {
b00000000000000000000000000000111 %"
#160000000
0"
08
0y
#161000000
0!
03
0w
#164500000
1!
b00000000000000000000000000001001 %
13
b00000000000000000000000000001001 5
b00000000000000000000000000001000 ]
1w
b00000000000000000000000000001001 {
b00000000000000000000000000001000 %"
#165000000
1"
18
b00000000000000000000000000000101 _
b00000000000000000000000000001000 j
b00000000000000000000000000000110 k
1y
#168000000
0!
03
0w
#170000000
0"
08
0y
#171500000
1!
b00000000000000000000000000001010 %
13
b00000000000000000000000000001010 5
b00000000000000000000000000001001 ]
1w
b00000000000000000000000000001010 {
b00000000000000000000000000001001 %"
#175000000
0!
1"
03
18
b00000000000000000000000000000110 _
b00000000000000000000000000001001 j
b00000000000000000000000000001000 k
0w
1y
#178500000
1!
b00000000000000000000000000001011 %
13
b00000000000000000000000000001011 5
b00000000000000000000000000001010 ]
1w
b00000000000000000000000000001011 {
b00000000000000000000000000001010 %"
#180000000
0"
08
0y
#182000000
0!
03
0w
#185000000
1"
18
b00000000000000000000000000001000 _
b00000000000000000000000000001010 j
b00000000000000000000000000001001 k
1y
#185500000
1!
b00000000000000000000000000001100 %
13
b00000000000000000000000000001100 5
b00000000000000000000000000001011 ]
1w
b00000000000000000000000000001100 {
b00000000000000000000000000001011 %"
#189000000
0!
03
0w
#190000000
0"
08
0y
#192500000
1!
b00000000000000000000000000001101 %
13
b00000000000000000000000000001101 5
b00000000000000000000000000001100 ]
1w
b00000000000000000000000000001101 {
b00000000000000000000000000001100 %"
#195000000
1"
18
b00000000000000000000000000001001 _
b00000000000000000000000000001100 j
b00000000000000000000000000001010 k
1y
#196000000
0!
03
0w
#199500000
1!
b00000000000000000000000000001110 %
13
b00000000000000000000000000001110 5
b00000000000000000000000000001101 ]
1w
b00000000000000000000000000001110 {
b00000000000000000000000000001101 %"
#200000000
0"
08
0y
#203000000
0!
03
0w
#205000000
1"
1+
18
1=
b00000000000000000000000000001010 _
b00000000000000000000000000001101 j
b00000000000000000000000000001100 k
1y
#206500000
1!
b00000000000000000000000000001111 %
13
b00000000000000000000000000001111 5
b00000000000000000000000000001110 ]
1w
b00000000000000000000000000001111 {
b00000000000000000000000000001110 %"
#210000000
0!
0"
03
08
0w
0y
#213500000
1!
b00000000000000000000000000010000 %
13
b00000000000000000000000000010000 5
b00000000000000000000000000001111 ]
1w
b00000000000000000000000000010000 {
b00000000000000000000000000001111 %"
#215000000
1"
0+
b01010010010000010100010001001001 -
11
18
0=
b01010010010000010100010001001001 ?
1C
b00000000000000000000000000001100 _
b00000000000000000000000000001111 j
b00000000000000000000000000001101 k
b01010010010000010100010001001001 s
1u
1y
#217000000
0!
03
0w
#220000000
0"
08
0y
#220500000
1!
b00000000000000000000000000010001 %
13
b00000000000000000000000000010001 5
b00000000000000000000000000010000 ]
1w
b00000000000000000000000000010001 {
b00000000000000000000000000010000 %"
#224000000
0!
03
0w
#225000000
1"
01
18
0C
b00000000000000000000000000001101 _
b00000000000000000000000000010000 j
b00000000000000000000000000001111 k
0u
1y
#227500000
1!
b00000000000000000000000000010010 %
13
b00000000000000000000000000010010 5
b00000000000000000000000000010001 ]
1w
b00000000000000000000000000010010 {
b00000000000000000000000000010001 %"
#230000000
0"
08
0y
#231000000
0!
03
0w
#234500000
1!
b00000000000000000000000000010011 %
13
b00000000000000000000000000010011 5
b00000000000000000000000000010010 ]
1w
b00000000000000000000000000010011 {
b00000000000000000000000000010010 %"
#235000000
1"
b0000000000010000 (
1*
b00000000000000000000000000000001 ,
18
b0000000000010000 :
1<
b00000000000000000000000000000001 >
b00000000000000000000000000001111 _
b00000000000000000000000000010010 j
b00000000000000000000000000010000 k
1y
#238000000
0!
03
0w
#240000000
0"
08
0y
#241500000
1!
b00000000000000000000000000010100 %
13
b00000000000000000000000000010100 5
b00000000000000000000000000010011 ]
1w
b00000000000000000000000000010100 {
b00000000000000000000000000010011 %"
#245000000
0!
1"
0*
10
03
18
0<
1B
b00000001 F
1M
b00000000000000000000000000010000 _
b00000000000000000000000000010011 j
b00000000000000000000000000010010 k
1t
0w
1y
#248500000
1!
b00000000000000000000000000010101 %
13
b00000000000000000000000000010101 5
b00000000000000000000000000010100 ]
1w
b00000000000000000000000000010101 {
b00000000000000000000000000010100 %"
#250000000
0"
08
0y
#252000000
0!
03
0w
#255000000
1"
00
18
0B
b11111100000000000000010000 K
0M
b00000000000000000000000000010010 _
b00000000000000000000000000010100 j
b00000000000000000000000000010011 k
0t
1y
#255500000
1!
b00000000000000000000000000010110 %
13
b00000000000000000000000000010110 5
b00000000000000000000000000010101 ]
1w
b00000000000000000000000000010110 {
b00000000000000000000000000010101 %"
#259000000
0!
03
0w
#260000000
0"
08
0y
#262500000
1!
b00000000000000000000000000010111 %
13
b00000000000000000000000000010111 5
b00000000000000000000000000010110 ]
1w
b00000000000000000000000000010111 {
b00000000000000000000000000010110 %"
#265000000
1"
18
b00000000000000000000000000010011 _
b00000000000000000000000000010110 j
b00000000000000000000000000010100 k
1y
#266000000
0!
03
0w
#269500000
1!
b00000000000000000000000000011000 %
13
b00000000000000000000000000011000 5
b00000000000000000000000000010111 ]
1w
b00000000000000000000000000011000 {
b00000000000000000000000000010111 %"
#270000000
0"
08
0y
#273000000
0!
03
0w
#275000000
1"
18
1P
b00000000000000000000000000010100 _
b00000000000000000000000000010111 j
b00000000000000000000000000010110 k
1y
#276500000
1!
b00000000000000000000000000011001 %
13
b00000000000000000000000000011001 5
1X
b00000000000000000000000000011000 ]
1w
b00000000000000000000000000011001 {
b00000000000000000000000000011000 %"
#280000000
0!
0"
03
08
0w
0y
#283500000
1!
b00000000000000000000000000011010 %
13
b00000000000000000000000000011010 5
1Y
b00000000000000000000000000011001 ]
1w
b00000000000000000000000000011010 {
b00000000000000000000000000011001 %"
#285000000
1"
18
b00000000000000000000000000010110 _
b00000000000000000000000000011001 j
b00000000000000000000000000010111 k
1y
#287000000
0!
03
0w
#290000000
0"
08
0y
#290500000
1!
b00000000000000000000000000011011 %
13
b00000000000000000000000000011011 5
1T
b00000000000000000000000000011010 ]
1w
b00000000000000000000000000011011 {
1!"
b00000000000000000000000000011010 %"
#294000000
0!
03
0w
#295000000
1"
18
b00000000000000000000000000010111 _
b00000000000000000000000000011010 j
b00000000000000000000000000011001 k
1y
#297500000
1!
b00000000000000000000000000011100 %
13
b00000000000000000000000000011100 5
1U
b00000000000000000000000000011011 ]
1w
b00000000000000000000000000011100 {
1""
b00000000000000000000000000011011 %"
18"
b100 :"
1;"
#300000000
0"
08
0y
#301000000
0!
03
0w
#304500000
1!
b00000000000000000000000000011101 %
13
b00000000000000000000000000011101 5
b00000000000000000000000000011100 ]
1w
b00000000000000000000000000011101 {
b00000000000000000000000000011100 %"
#305000000
1"
18
1Z
b00000000000000000000000000011001 _
b00000000000000000000000000011100 j
b00000000000000000000000000011010 k
1y
#308000000
0!
03
0w
#310000000
0"
08
0y
#311500000
1!
b00000000000000000000000000011110 %
13
b00000000000000000000000000011110 5
b00000000000000000000000000011101 ]
1w
b00000000000000000000000000011110 {
b00000000000000000000000000011101 %"
#315000000
0!
1"
03
18
1[
b00000000000000000000000000011010 _
b00000000000000000000000000011101 j
b00000000000000000000000000011100 k
0w
1y
#318500000
1!
b00000000000000000000000000011111 %
13
b00000000000000000000000000011111 5
b00000000000000000000000000011110 ]
1w
b00000000000000000000000000011111 {
b00000000000000000000000000011110 %"
#320000000
0"
08
0y
#322000000
0!
03
0w
#325000000
1"
18
1Q
b00000000000000000000000000011100 _
b00000000000000000000000000011110 j
b00000000000000000000000000011101 k
1y
#325500000
1!
b00000000000000000000000000100000 %
13
b00000000000000000000000000100000 5
b00000000000000000000000000011111 ]
1w
b00000000000000000000000000100000 {
b00000000000000000000000000011111 %"
#329000000
0!
03
0w
#330000000
0"
08
0y
#332500000
1!
b00000000000000000000000000100001 %
13
b00000000000000000000000000100001 5
b00000000000000000000000000100000 ]
1w
b00000000000000000000000000100001 {
b00000000000000000000000000100000 %"
#335000000
1"
18
b100 L
1R
b00000000000000000000000000011101 _
b00000000000000000000000000100000 j
b00000000000000000000000000011110 k
1y
#336000000
0!
03
0w
#339500000
1!
b00000000000000000000000000100010 %
13
b00000000000000000000000000100010 5
b00000000000000000000000000100001 ]
1w
b00000000000000000000000000100010 {
b00000000000000000000000000100001 %"
#340000000
0"
08
0y
#343000000
0!
03
0w
#345000000
1"
18
b0001 O
b00000000000000000000000000011110 _
b00000000000000000000000000100001 j
b00000000000000000000000000100000 k
1y
#346500000
1!
b00000000000000000000000000100011 %
13
b00000000000000000000000000100011 5
b0001 V
b00000000000000000000000000100010 ]
1w
b00000000000000000000000000100011 {
b00000000000000000000000000100010 %"
#350000000
0!
0"
03
08
0w
0y
#353500000
1!
b00000000000000000000000000100100 %
13
b00000000000000000000000000100100 5
b0001 W
b00000000000000000000000000100011 ]
1w
b00000000000000000000000000100100 {
b00000000000000000000000000100011 %"
#355000000
1"
18
0P
b00000000000000000000000000100000 _
b00000000000000000000000000100011 j
b00000000000000000000000000100001 k
1y
#357000000
0!
03
0w
#360000000
0"
08
0y
#360500000
1!
b00000000000000000000000000100101 %
13
b00000000000000000000000000100101 5
b0001 S
0X
b00000000000000000000000000100100 ]
1w
b00000000000000000000000000100101 {
b0001 }
b00000000000000000000000000100100 %"
#364000000
0!
03
0w
#365000000
1"
18
b00000000000000000000000000100001 _
b00000000000000000000000000100100 j
b00000000000000000000000000100011 k
1y
#367500000
1!
b00000000000000000000000000100110 %
13
b00000000000000000000000000100110 5
0Y
b00000000000000000000000000100101 ]
1w
b00000000000000000000000000100110 {
b00000000000000000000000000100101 %"
#370000000
0"
08
0y
#371000000
0!
03
0w
#374500000
1!
b00000000000000000000000000100111 %
13
b00000000000000000000000000100111 5
0T
b00000000000000000000000000100110 ]
1w
b00000000000000000000000000100111 {
0!"
b00000000000000000000000000100110 %"
#375000000
1"
18
b00000000000000000000000000100011 _
b00000000000000000000000000100110 j
b00000000000000000000000000100100 k
1y
#378000000
0!
03
0w
#380000000
0"
08
0y
#381500000
1!
b00000000000000000000000000101000 %
13
b00000000000000000000000000101000 5
0U
b00000000000000000000000000100111 ]
1w
b00000000000000000000000000101000 {
0""
b00000000000000000000000000100111 %"
08"
b00000000000000000000010000 9"
b1000 :"
0;"
#385000000
0!
1"
03
18
0Z
b00000000000000000000000000100100 _
b00000000000000000000000000100111 j
b00000000000000000000000000100110 k
0w
1y
#388500000
1!
b00000000000000000000000000101001 %
13
b00000000000000000000000000101001 5
b00000000000000000000000000101000 ]
1w
b00000000000000000000000000101001 {
b00000000000000000000000000101000 %"
#390000000
0"
08
0y
#392000000
0!
03
0w
#395000000
1"
18
0[
b00000000000000000000000000100110 _
b00000000000000000000000000101000 j
b00000000000000000000000000100111 k
1y
#395500000
1!
b00000000000000000000000000101010 %
13
b00000000000000000000000000101010 5
b00000000000000000000000000101001 ]
1w
b00000000000000000000000000101010 {
b00000000000000000000000000101001 %"
#399000000
0!
03
0w
#400000000
0"
08
0y
#402500000
1!
b00000000000000000000000000101011 %
13
b00000000000000000000000000101011 5
b00000000000000000000000000101010 ]
1w
b00000000000000000000000000101011 {
b00000000000000000000000000101010 %"
#405000000
1"
18
0Q
b00000000000000000000000000100111 _
b00000000000000000000000000101010 j
b00000000000000000000000000101000 k
1y
#406000000
0!
03
0w
#409500000
1!
b00000000000000000000000000101100 %
13
b00000000000000000000000000101100 5
b00000000000000000000000000101011 ]
1w
b00000000000000000000000000101100 {
b00000000000000000000000000101011 %"
#410000000
0"
08
0y
#413000000
0!
03
0w
#415000000
1"
18
b1000 L
0R
b00000000000000000000000000101000 _
b00000000000000000000000000101011 j
b00000000000000000000000000101010 k
1y
#416500000
1!
b00000000000000000000000000101101 %
13
b00000000000000000000000000101101 5
b00000000000000000000000000101100 ]
1w
b00000000000000000000000000101101 {
b00000000000000000000000000101100 %"
#420000000
0!
0"
03
08
0w
0y
#423500000
1!
b00000000000000000000000000101110 %
13
b00000000000000000000000000101110 5
b00000000000000000000000000101101 ]
1w
b00000000000000000000000000101110 {
b00000000000000000000000000101101 %"
#425000000
1"
18
b0000 O
b00000000000000000000000000101010 _
b00000000000000000000000000101101 j
b00000000000000000000000000101011 k
1y
#427000000
0!
03
0w
#430000000
0"
08
0y
#430500000
1!
b00000000000000000000000000101111 %
13
b00000000000000000000000000101111 5
b0000 V
b00000000000000000000000000101110 ]
1w
b00000000000000000000000000101111 {
b00000000000000000000000000101110 %"
#434000000
0!
03
0w
#435000000
1"
18
1P
b00000000000000000000000000101011 _
b00000000000000000000000000101110 j
b00000000000000000000000000101101 k
1y
#437500000
1!
b00000000000000000000000000110000 %
13
b00000000000000000000000000110000 5
b0000 W
1X
b00000000000000000000000000101111 ]
1w
b00000000000000000000000000110000 {
b00000000000000000000000000101111 %"
#440000000
0"
08
0y
#441000000
0!
03
0w
#444500000
1!
b00000000000000000000000000110001 %
13
b00000000000000000000000000110001 5
b0000 S
1Y
b00000000000000000000000000110000 ]
1w
b00000000000000000000000000110001 {
b0000 }
b00000000000000000000000000110000 %"
#445000000
1"
18
b00000000000000000000000000101101 _
b00000000000000000000000000110000 j
b00000000000000000000000000101110 k
1y
#448000000
0!
03
0w
#450000000
0"
08
0y
#451500000
1!
b00000000000000000000000000110010 %
13
b00000000000000000000000000110010 5
1T
b00000000000000000000000000110001 ]
1w
b00000000000000000000000000110010 {
1!"
b00000000000000000000000000110001 %"
#455000000
0!
1"
03
18
b00000000000000000000000000101110 _
b00000000000000000000000000110001 j
b00000000000000000000000000110000 k
0w
1y
#458500000
1!
b00000000000000000000000000110011 %
13
b00000000000000000000000000110011 5
1U
b00000000000000000000000000110010 ]
1w
b00000000000000000000000000110011 {
1""
b00000000000000000000000000110010 %"
18"
b1100 :"
1;"
#460000000
0"
08
0y
#462000000
0!
03
0w
#465000000
1"
18
1Z
b00000000000000000000000000110000 _
b00000000000000000000000000110010 j
b00000000000000000000000000110001 k
1y
#465500000
1!
b00000000000000000000000000110100 %
13
b00000000000000000000000000110100 5
b00000000000000000000000000110011 ]
1w
b00000000000000000000000000110100 {
b00000000000000000000000000110011 %"
#469000000
0!
03
0w
#470000000
0"
08
0y
#472500000
1!
b00000000000000000000000000110101 %
13
b00000000000000000000000000110101 5
b00000000000000000000000000110100 ]
1w
b00000000000000000000000000110101 {
b00000000000000000000000000110100 %"
#475000000
1"
18
1[
b00000000000000000000000000110001 _
b00000000000000000000000000110100 j
b00000000000000000000000000110010 k
1y
#476000000
0!
03
0w
#479500000
1!
b00000000000000000000000000110110 %
13
b00000000000000000000000000110110 5
b00000000000000000000000000110101 ]
1w
b00000000000000000000000000110110 {
b00000000000000000000000000110101 %"
#480000000
0"
08
0y
#483000000
0!
03
0w
#485000000
1"
18
1Q
b00000000000000000000000000110010 _
b00000000000000000000000000110101 j
b00000000000000000000000000110100 k
1y
#486500000
1!
b00000000000000000000000000110111 %
13
b00000000000000000000000000110111 5
b00000000000000000000000000110110 ]
1w
b00000000000000000000000000110111 {
b00000000000000000000000000110110 %"
#490000000
0!
0"
03
08
0w
0y
#493500000
1!
b00000000000000000000000000111000 %
13
b00000000000000000000000000111000 5
b00000000000000000000000000110111 ]
1w
b00000000000000000000000000111000 {
b00000000000000000000000000110111 %"
#495000000
1"
18
b1100 L
1R
b00000000000000000000000000110100 _
b00000000000000000000000000110111 j
b00000000000000000000000000110101 k
1y
#497000000
0!
03
0w
#500000000
0"
08
0y
#500500000
1!
b00000000000000000000000000111001 %
13
b00000000000000000000000000111001 5
b00000000000000000000000000111000 ]
1w
b00000000000000000000000000111001 {
b00000000000000000000000000111000 %"
#504000000
0!
03
0w
#505000000
1"
18
b00000000000000000000000000110101 _
b00000000000000000000000000111000 j
b00000000000000000000000000110111 k
1y
#507500000
1!
b00000000000000000000000000111010 %
13
b00000000000000000000000000111010 5
b00000000000000000000000000111001 ]
1w
b00000000000000000000000000111010 {
b00000000000000000000000000111001 %"
#510000000
0"
08
0y
#511000000
0!
03
0w
#514500000
1!
b00000000000000000000000000111011 %
13
b00000000000000000000000000111011 5
b00000000000000000000000000111010 ]
1w
b00000000000000000000000000111011 {
b00000000000000000000000000111010 %"
#515000000
1"
b0000000000010100 (
1*
18
b0000000000010100 :
1<
0P
b00000000000000000000000000110111 _
b00000000000000000000000000111010 j
b00000000000000000000000000111000 k
1y
#518000000
0!
03
0w
#520000000
0"
08
0y
#521500000
1!
b00000000000000000000000000111100 %
13
b00000000000000000000000000111100 5
0X
b00000000000000000000000000111011 ]
1w
b00000000000000000000000000111100 {
b00000000000000000000000000111011 %"
#525000000
0!
1"
0*
10
03
18
0<
1B
b00000001 G
1M
b00000000000000000000000000111000 _
b00000000000000000000000000111011 j
b00000000000000000000000000111010 k
1t
0w
1y
#528500000
1!
b00000000000000000000000000111101 %
13
b00000000000000000000000000111101 5
0Y
b00000000000000000000000000111100 ]
1w
b00000000000000000000000000111101 {
b00000000000000000000000000111100 %"
#530000000
0"
08
0y
#532000000
0!
03
0w
#535000000
1"
00
18
0B
b00000000000000000000000000111010 _
b00000000000000000000000000111100 j
b00000000000000000000000000111011 k
0t
1y
#535500000
1!
b00000000000000000000000000111110 %
13
b00000000000000000000000000111110 5
0T
b00000000000000000000000000111101 ]
1w
b00000000000000000000000000111110 {
0!"
b00000000000000000000000000111101 %"
#539000000
0!
03
0w
#540000000
0"
08
0y
#542500000
1!
b00000000000000000000000000111111 %
13
b00000000000000000000000000111111 5
0U
b00000000000000000000000000111110 ]
1w
b00000000000000000000000000111111 {
0""
b00000000000000000000000000111110 %"
08"
b10000 :"
0;"
#545000000
1"
18
0Z
b00000000000000000000000000111011 _
b00000000000000000000000000111110 j
b00000000000000000000000000111100 k
1y
#546000000
0!
03
0w
#549500000
1!
b00000000000000000000000001000000 %
13
b00000000000000000000000001000000 5
b00000000000000000000000000111111 ]
1w
b00000000000000000000000001000000 {
b00000000000000000000000000111111 %"
#550000000
0"
08
0y
#553000000
0!
03
0w
#555000000
1"
18
0[
b00000000000000000000000000111100 _
b00000000000000000000000000111111 j
b00000000000000000000000000111110 k
1y
#556500000
1!
b00000000000000000000000001000001 %
13
b00000000000000000000000001000001 5
b00000000000000000000000001000000 ]
1w
b00000000000000000000000001000001 {
b00000000000000000000000001000000 %"
#560000000
0!
0"
03
08
0w
0y
#563500000
1!
b00000000000000000000000001000010 %
13
b00000000000000000000000001000010 5
b00000000000000000000000001000001 ]
1w
b00000000000000000000000001000010 {
b00000000000000000000000001000001 %"
