docs/radhdl/0.2.1/simulations/tb_radif_i2s_axis/tb_radif_i2s_axis.vcd
$date
  Wed Jul  8 18:26:29 2026
$end
$version
  GHDL v0
$end
$timescale
  1 fs
$end
$scope module standard $end
$upscope $end
$scope module textio $end
$upscope $end
$scope module std_logic_1164 $end
$upscope $end
$scope module numeric_std $end
$upscope $end
$scope module env $end
$upscope $end
$scope module tb_radif_i2s_axis $end
$var reg 1 ! clk $end
$var reg 1 " rstn $end
$var reg 16 # reg_wr_addr[15:0] $end
$var reg 16 $ reg_rd_addr[15:0] $end
$var reg 1 % reg_wr_en $end
$var reg 1 & reg_rd_en $end
$var reg 32 ' reg_data_in[31:0] $end
$var reg 32 ( reg_data_out[31:0] $end
$var reg 1 ) reg_wr_rdy $end
$var reg 1 * reg_rd_rdy $end
$var reg 1 + reg_wr_valid $end
$var reg 1 , reg_rd_valid $end
$var reg 1 - reg_error $end
$var reg 1 . mclk $end
$var reg 1 / mclk_oe $end
$var reg 1 0 bclk $end
$var reg 1 1 bclk_oe $end
$var reg 1 2 lrck $end
$var reg 1 3 lrck_oe $end
$var reg 1 4 sdata_o $end
$var reg 1 5 sdata_i $end
$var reg 1 6 sdata_oe $end
$var reg 16 7 m_axis_tdata[15:0] $end
$var reg 1 8 m_axis_tvalid $end
$var reg 1 9 m_axis_tready $end
$var reg 1 : m_axis_tlast $end
$var reg 16 ; s_axis_tdata[15:0] $end
$var reg 1 < s_axis_tvalid $end
$var reg 1 = s_axis_tready $end
$var reg 1 > s_axis_tlast $end
$scope module dut $end
$var reg 1 ? clk $end
$var reg 1 @ rstn $end
$var reg 16 A reg_wr_addr[15:0] $end
$var reg 16 B reg_rd_addr[15:0] $end
$var reg 1 C reg_wr_en $end
$var reg 1 D reg_rd_en $end
$var reg 32 E reg_data_in[31:0] $end
$var reg 32 F reg_data_out[31:0] $end
$var reg 1 G reg_wr_rdy $end
$var reg 1 H reg_rd_rdy $end
$var reg 1 I reg_wr_valid $end
$var reg 1 J reg_rd_valid $end
$var reg 1 K reg_error $end
$var reg 1 L i2s_mclk_i $end
$var reg 1 M i2s_mclk_o $end
$var reg 1 N i2s_mclk_oe $end
$var reg 1 O i2s_bclk_i $end
$var reg 1 P i2s_bclk_o $end
$var reg 1 Q i2s_bclk_oe $end
$var reg 1 R i2s_lrck_i $end
$var reg 1 S i2s_lrck_o $end
$var reg 1 T i2s_lrck_oe $end
$var reg 1 U i2s_sdata_i $end
$var reg 1 V i2s_sdata_o $end
$var reg 1 W i2s_sdata_oe $end
$var reg 16 X m_axis_tdata[15:0] $end
$var reg 1 Y m_axis_tvalid $end
$var reg 1 Z m_axis_tready $end
$var reg 1 [ m_axis_tlast $end
$var reg 16 \ s_axis_tdata[15:0] $end
$var reg 1 ] s_axis_tvalid $end
$var reg 1 ^ s_axis_tready $end
$var reg 1 _ s_axis_tlast $end
$var reg 32 ` control_r[31:0] $end
$var reg 32 a status_r[31:0] $end
$var reg 16 b mclk_div_r[15:0] $end
$var reg 16 c bclk_div_r[15:0] $end
$var reg 16 d lrck_bits_r[15:0] $end
$var reg 32 e rx_count_r[31:0] $end
$var reg 32 f tx_count_r[31:0] $end
$var reg 32 g rd_data_r[31:0] $end
$var reg 1 h wr_valid_r $end
$var reg 1 i rd_valid_r $end
$var reg 1 j error_r $end
$var reg 16 k mclk_count[15:0] $end
$var reg 16 l bclk_count[15:0] $end
$var reg 16 m lrck_count[15:0] $end
$var reg 1 n mclk_r $end
$var reg 1 o bclk_r $end
$var reg 1 p lrck_r $end
$var reg 1 q bclk_meta $end
$var reg 1 r bclk_sync $end
$var reg 1 s bclk_prev $end
$var reg 1 t lrck_meta $end
$var reg 1 u lrck_sync $end
$var reg 1 v lrck_prev $end
$var reg 1 w bclk_rise $end
$var reg 1 x lrck_change $end
$var reg 8 y rx_left[7:0] $end
$var reg 8 z rx_right[7:0] $end
$var reg 8 { rx_shift[7:0] $end
$var integer 32 | rx_bit_count $end
$var reg 16 } rx_axis_data[15:0] $end
$var reg 1 !" rx_axis_valid $end
$var reg 1 "" tx_axis_ready $end
$var reg 1 #" tx_loaded $end
$var reg 8 $" tx_left[7:0] $end
$var reg 8 %" tx_right[7:0] $end
$var reg 8 &" tx_shift[7:0] $end
$var integer 32 '" tx_bit_count $end
$var reg 1 (" sdata_o_r $end
$upscope $end
$upscope $end
$enddefinitions $end
#0
0!
0"
b0000000000000000 #
b0000000000000000 $
0%
0&
b00000000000000000000000000000000 '
b00000000000000000000000000000000 (
1)
1*
0+
0,
0-
0.
1/
00
11
02
13
04
05
06
b0000000000000000 7
08
09
0:
b1010010101011010 ;
0<
0=
1>
0?
0@
b0000000000000000 A
b0000000000000000 B
0C
0D
b00000000000000000000000000000000 E
b00000000000000000000000000000000 F
1G
1H
0I
0J
0K
0L
0M
1N
0O
0P
1Q
0R
0S
1T
0U
0V
0W
b0000000000000000 X
0Y
0Z
0[
b1010010101011010 \
0]
0^
1_
b00000000000000000000000000000000 `
b00000000000000000000000000000000 a
b0000000000000001 b
b0000000000000001 c
b0000000000010000 d
b00000000000000000000000000000000 e
b00000000000000000000000000000000 f
b00000000000000000000000000000000 g
0h
0i
0j
b0000000000000000 k
b0000000000000000 l
b0000000000000000 m
0n
0o
0p
0q
0r
0s
0t
0u
0v
0w
0x
b00000000 y
b00000000 z
b00000000 {
b0 |
b0000000000000000 }
0!"
0""
0#"
b00000000 $"
b00000000 %"
b00000000 &"
b0 '"
0("
#5000000
1!
1?
#10000000
0!
0?
#15000000
1!
1?
#20000000
0!
0?
#25000000
1!
1?
#30000000
0!
0?
#35000000
1!
1?
#40000000
0!
1"
0?
1@
#45000000
1!
b0000000000001000 #
1%
b00000000000000000000000000000001 '
1.
10
15
1?
b0000000000001000 A
1C
b00000000000000000000000000000001 E
1M
1O
1P
1U
b0000000000000001 k
b0000000000000001 l
b0000000000000001 m
1n
1o
1w
#50000000
0!
0?
#55000000
1!
0%
1+
1?
0C
1I
1h
b0000000000000000 k
b0000000000000000 l
1q
0w
#60000000
0!
0?
#65000000
1!
b0000000000001100 #
1%
0+
0.
00
1?
b0000000000001100 A
1C
0I
0M
0O
0P
0h
b0000000000000001 k
b0000000000000001 l
0n
0o
1r
#70000000
0!
0?
#75000000
1!
0%
1+
1?
0C
1I
1h
b0000000000000000 k
b0000000000000000 l
0q
1s
#80000000
0!
0?
#85000000
1!
b0000000000010000 #
1%
b00000000000000000000000000010000 '
0+
1.
10
05
1?
b0000000000010000 A
1C
b00000000000000000000000000010000 E
0I
1M
1O
1P
0U
0h
b0000000000000001 k
b0000000000000001 l
b0000000000000010 m
1n
1o
0r
1w
#90000000
0!
0?
#95000000
1!
0%
1+
1?
0C
1I
1h
b0000000000000000 k
b0000000000000000 l
1q
0s
0w
#100000000
0!
0?
#105000000
1!
b0000000000000000 #
1%
b00000000000000000000000000000011 '
0+
0.
00
1?
b0000000000000000 A
1C
b00000000000000000000000000000011 E
0I
0M
0O
0P
0h
b0000000000000001 k
b0000000000000001 l
0n
0o
1r
#110000000
0!
0?
#115000000
1!
0%
1+
16
1?
0C
1I
1W
b00000000000000000000000000000011 `
1h
b0000000000000000 k
b0000000000000000 l
0q
1s
#120000000
0!
0?
#125000000
1!
0+
1.
10
15
1<
1=
1?
0I
1M
1O
1P
1U
1]
1^
0h
b0000000000000001 k
b0000000000000001 l
b0000000000000011 m
1n
1o
0r
1w
b1 |
1""
#130000000
0!
0?
#135000000
1!
0=
1?
0^
b0000000000000000 k
b0000000000000000 l
1q
0s
0w
0""
1#"
b10100101 $"
b01011010 %"
#140000000
0!
0?
#145000000
1!
0.
00
0<
1?
0M
0O
0P
0]
b0000000000000001 k
b0000000000000001 l
0n
0o
1r
#150000000
0!
0?
#155000000
1!
1?
b0000000000000000 k
b0000000000000000 l
0q
1s
#160000000
0!
0?
#165000000
1!
1.
10
05
1?
1M
1O
1P
0U
b0000000000000001 k
b0000000000000001 l
b0000000000000100 m
1n
1o
0r
1w
b00000001 {
b10 |
b1 '"
#170000000
0!
0?
#175000000
1!
1?
b0000000000000000 k
b0000000000000000 l
1q
0s
0w
#180000000
0!
0?
#185000000
1!
0.
00
1?
0M
0O
0P
b0000000000000001 k
b0000000000000001 l
0n
0o
1r
#190000000
0!
0?
#195000000
1!
1?
b0000000000000000 k
b0000000000000000 l
0q
1s
#200000000
0!
0?
#205000000
1!
1.
10
1?
1M
1O
1P
b0000000000000001 k
b0000000000000001 l
b0000000000000101 m
1n
1o
0r
1w
b00000010 {
b11 |
b10 '"
#210000000
0!
0?
#215000000
1!
1?
b0000000000000000 k
b0000000000000000 l
1q
0s
0w
#220000000
0!
0?
#225000000
1!
0.
00
1?
0M
0O
0P
b0000000000000001 k
b0000000000000001 l
0n
0o
1r
#230000000
0!
0?
#235000000
1!
1?
b0000000000000000 k
b0000000000000000 l
0q
1s
#240000000
0!
0?
#245000000
1!
1.
10
15
1?
1M
1O
1P
1U
b0000000000000001 k
b0000000000000001 l
b0000000000000110 m
1n
1o
0r
1w
b00000100 {
b100 |
b11 '"
#250000000
0!
0?
#255000000
1!
1?
b0000000000000000 k
b0000000000000000 l
1q
0s
0w
#260000000
0!
0?
#265000000
1!
0.
00
1?
0M
0O
0P
b0000000000000001 k
b0000000000000001 l
0n
0o
1r
#270000000
0!
0?
#275000000
1!
1?
b0000000000000000 k
b0000000000000000 l
0q
1s
#280000000
0!
0?
#285000000
1!
1.
10
05
1?
1M
1O
1P
0U
b0000000000000001 k
b0000000000000001 l
b0000000000000111 m
1n
1o
0r
1w
b00001001 {
b101 |
b100 '"
#290000000
0!
0?
#295000000
1!
1?
b0000000000000000 k
b0000000000000000 l
1q
0s
0w
#300000000
0!
0?
#305000000
1!
0.
00
1?
0M
0O
0P
b0000000000000001 k
b0000000000000001 l
0n
0o
1r
#310000000
0!
0?
#315000000
1!
1?
b0000000000000000 k
b0000000000000000 l
0q
1s
#320000000
0!
0?
#325000000
1!
1.
10
15
1?
1M
1O
1P
1U
b0000000000000001 k
b0000000000000001 l
b0000000000001000 m
1n
1o
0r
1w
b00010010 {
b110 |
b101 '"
#330000000
0!
0?
#335000000
1!
1?
b0000000000000000 k
b0000000000000000 l
1q
0s
0w
#340000000
0!
0?
#345000000
1!
0.
00
1?
0M
0O
0P
b0000000000000001 k
b0000000000000001 l
0n
0o
1r
#350000000
0!
0?
#355000000
1!
1?
b0000000000000000 k
b0000000000000000 l
0q
1s
#360000000
0!
0?
#365000000
1!
1.
10
1?
1M
1O
1P
b0000000000000001 k
b0000000000000001 l
b0000000000001001 m
1n
1o
0r
1w
b00100101 {
b111 |
b110 '"
#370000000
0!
0?
#375000000
1!
1?
b0000000000000000 k
b0000000000000000 l
1q
0s
0w
#380000000
0!
0?
#385000000
1!
0.
00
1?
0M
0O
0P
b0000000000000001 k
b0000000000000001 l
0n
0o
1r
#390000000
0!
0?
#395000000
1!
1?
b0000000000000000 k
b0000000000000000 l
0q
1s
#400000000
0!
0?
#405000000
1!
1.
10
05
1?
1M
1O
1P
0U
b0000000000000001 k
b0000000000000001 l
b0000000000001010 m
1n
1o
0r
1w
b01001011 y
b01001011 {
b1000 |
b111 '"
#410000000
0!
0?
#415000000
1!
1?
b0000000000000000 k
b0000000000000000 l
1q
0s
0w
#420000000
0!
0?
#425000000
1!
0.
00
1?
0M
0O
0P
b0000000000000001 k
b0000000000000001 l
0n
0o
1r
#430000000
0!
0?
#435000000
1!
1?
b0000000000000000 k
b0000000000000000 l
0q
1s
#440000000
0!
0?
#445000000
1!
1.
10
15
1?
1M
1O
1P
1U
b0000000000000001 k
b0000000000000001 l
b0000000000001011 m
1n
1o
0r
1w
b1000 '"
#450000000
0!
0?
#455000000
1!
1?
b0000000000000000 k
b0000000000000000 l
1q
0s
0w
#460000000
0!
0?
#465000000
1!
0.
00
1?
0M
0O
0P
b0000000000000001 k
b0000000000000001 l
0n
0o
1r
#470000000
0!
0?
#475000000
1!
1?
b0000000000000000 k
b0000000000000000 l
0q
1s
#480000000
0!
0?
#485000000
1!
1.
10
05
1?
1M
1O
1P
0U
b0000000000000001 k
b0000000000000001 l
b0000000000001100 m
1n
1o
0r
1w
#490000000
0!
0?
#495000000
1!
1?
b0000000000000000 k
b0000000000000000 l
1q
0s
0w
#500000000
0!
0?
#505000000
1!
0.
00
1?
0M
0O
0P
b0000000000000001 k
b0000000000000001 l
0n
0o
1r
#510000000
0!
0?
#515000000
1!
1?
b0000000000000000 k
b0000000000000000 l
0q
1s
#520000000
0!
0?
#525000000
1!
1.
10
1?
1M
1O
1P
b0000000000000001 k
b0000000000000001 l
b0000000000001101 m
1n
1o
0r
1w
#530000000
0!
0?
#535000000
1!
1?
b0000000000000000 k
b0000000000000000 l
1q
0s
0w
#540000000
0!
0?
#545000000
1!
0.
00
1?
0M
0O
0P
b0000000000000001 k
b0000000000000001 l
0n
0o
1r
#550000000
0!
0?
#555000000
1!
1?
b0000000000000000 k
b0000000000000000 l
0q
1s
#560000000
0!
0?
#565000000
1!
1.
10
15
1?
1M
1O
1P
1U
b0000000000000001 k
b0000000000000001 l
b0000000000001110 m
1n
1o
0r
1w
#570000000
0!
0?
#575000000
1!
1?
b0000000000000000 k
b0000000000000000 l
1q
0s
0w
#580000000
0!
0?
#585000000
1!
0.
00
1?
0M
0O
0P
b0000000000000001 k
b0000000000000001 l
0n
0o
1r
#590000000
0!
0?
#595000000
1!
1?
b0000000000000000 k
b0000000000000000 l
0q
1s
#600000000
0!
0?
#605000000
1!
1.
10
05
1?
1M
1O
1P
0U
b0000000000000001 k
b0000000000000001 l
b0000000000001111 m
1n
1o
0r
1w
#610000000
0!
0?
#615000000
1!
1?
b0000000000000000 k
b0000000000000000 l
1q
0s
0w
#620000000
0!
0?
#625000000
1!
0.
00
1?
0M
0O
0P
b0000000000000001 k
b0000000000000001 l
0n
0o
1r
#630000000
0!
0?
#635000000
1!
1?
b0000000000000000 k
b0000000000000000 l
0q
1s
#640000000
0!
0?
#645000000
1!
1.
10
12
1?
1M
1O
1P
1R
1S
b0000000000000001 k
b0000000000000001 l
b0000000000000000 m
1n
1o
1p
0r
1w
1x
b00000000 {
b0 |
b10100101 &"
b0 '"
#650000000
0!
0?
#655000000
1!
1?
b0000000000000000 k
b0000000000000000 l
1q
0s
1t
0w
0x
#660000000
0!
0?
#665000000
1!
0.
00
1?
0M
0O
0P
b0000000000000001 k
b0000000000000001 l
0n
0o
1r
1u
#670000000
0!
0?
#675000000
1!
1?
b0000000000000000 k
b0000000000000000 l
0q
1s
1v
#680000000
0!
0?
#685000000
1!
1.
10
14
1?
1M
1O
1P
1V
b0000000000000001 k
b0000000000000001 l
b0000000000000001 m
1n
1o
0r
1w
b1 |
b01001010 &"
b1 '"
1("
#690000000
0!
0?
#695000000
1!
1?
b0000000000000000 k
b0000000000000000 l
1q
0s
0w
#700000000
0!
0?
#705000000
1!
0.
00
1?
0M
0O
0P
b0000000000000001 k
b0000000000000001 l
0n
0o
1r
#710000000
0!
0?
#715000000
1!
1?
b0000000000000000 k
b0000000000000000 l
0q
1s
#720000000
0!
0?
#725000000
1!
1.
10
04
15
1?
1M
1O
1P
1U
0V
b0000000000000001 k
b0000000000000001 l
b0000000000000010 m
1n
1o
0r
1w
b10 |
b10010100 &"
b10 '"
0("
#730000000
0!
0?
#735000000
1!
1?
b0000000000000000 k
b0000000000000000 l
1q
0s
0w
#740000000
0!
0?
#745000000
1!
0.
00
1?
0M
0O
0P
b0000000000000001 k
b0000000000000001 l
0n
0o
1r
#750000000
0!
0?
#755000000
1!
1?
b0000000000000000 k
b0000000000000000 l
0q
1s
#760000000
0!
0?
#765000000
1!
1.
10
14
05
1?
1M
1O
1P
0U
1V
b0000000000000001 k
b0000000000000001 l
b0000000000000011 m
1n
1o
0r
1w
b00000001 {
b11 |
b00101000 &"
b11 '"
1("
#770000000
0!
0?
#775000000
1!
1?
b0000000000000000 k
b0000000000000000 l
1q
0s
0w
#780000000
0!
0?
#785000000
1!
0.
00
1?
0M
0O
0P
b0000000000000001 k
b0000000000000001 l
0n
0o
1r
#790000000
0!
0?
#795000000
1!
1?
b0000000000000000 k
b0000000000000000 l
0q
1s
#800000000
0!
0?
#805000000
1!
1.
10
04
15
1?
1M
1O
1P
1U
0V
b0000000000000001 k
b0000000000000001 l
b0000000000000100 m
1n
1o
0r
1w
b00000010 {
b100 |
b01010000 &"
b100 '"
0("
#810000000
0!
0?
#815000000
1!
1?
b0000000000000000 k
b0000000000000000 l
1q
0s
0w
#820000000
0!
0?
#825000000
1!
0.
00
1?
0M
0O
0P
b0000000000000001 k
b0000000000000001 l
0n
0o
1r
#830000000
0!
0?
#835000000
1!
1?
b0000000000000000 k
b0000000000000000 l
0q
1s
#840000000
0!
0?
#845000000
1!
1.
10
1?
1M
1O
1P
b0000000000000001 k
b0000000000000001 l
b0000000000000101 m
1n
1o
0r
1w
b00000101 {
b101 |
b10100000 &"
b101 '"
#850000000
0!
0?
#855000000
1!
1?
b0000000000000000 k
b0000000000000000 l
1q
0s
0w
#860000000
0!
0?
#865000000
1!
0.
00
1?
0M
0O
0P
b0000000000000001 k
b0000000000000001 l
0n
0o
1r
#870000000
0!
0?
#875000000
1!
1?
b0000000000000000 k
b0000000000000000 l
0q
1s
#880000000
0!
0?
#885000000
1!
1.
10
14
05
1?
1M
1O
1P
0U
1V
b0000000000000001 k
b0000000000000001 l
b0000000000000110 m
1n
1o
0r
1w
b00001011 {
b110 |
b01000000 &"
b110 '"
1("
#890000000
0!
0?
#895000000
1!
1?
b0000000000000000 k
b0000000000000000 l
1q
0s
0w
#900000000
0!
0?
#905000000
1!
0.
00
1?
0M
0O
0P
b0000000000000001 k
b0000000000000001 l
0n
0o
1r
#910000000
0!
0?
#915000000
1!
1?
b0000000000000000 k
b0000000000000000 l
0q
1s
#920000000
0!
0?
#925000000
1!
1.
10
04
15
1?
1M
1O
1P
1U
0V
b0000000000000001 k
b0000000000000001 l
b0000000000000111 m
1n
1o
0r
1w
b00010110 {
b111 |
b10000000 &"
b111 '"
0("
#930000000
0!
0?
#935000000
1!
1?
b0000000000000000 k
b0000000000000000 l
1q
0s
0w
#940000000
0!
0?
#945000000
1!
0.
00
1?
0M
0O
0P
b0000000000000001 k
b0000000000000001 l
0n
0o
1r
#950000000
0!
0?
#955000000
1!
1?
b0000000000000000 k
b0000000000000000 l
0q
1s
#960000000
0!
0?
#965000000
1!
1.
10
14
05
b0100101100101101 7
18
1:
1?
1M
1O
1P
0U
1V
b0100101100101101 X
1Y
1[
b00000000000000000000000000000001 e
b00000000000000000000000000000001 f
b0000000000000001 k
b0000000000000001 l
b0000000000001000 m
1n
1o
0r
1w
b00101101 z
b00101101 {
b1000 |
b0100101100101101 }
1!"
0#"
b00000000 &"
b1000 '"
1("
#970000000
0!
0?
#975000000
1!
19
1=
1?
1Z
1^
b0000000000000000 k
b0000000000000000 l
1q
0s
0w
1""
#980000000
0!
0?
#985000000
1!
b0000000000011000 $
1&
0.
00
08
0:
1?
b0000000000011000 B
1D
0M
0O
0P
0Y
0[
b0000000000000001 k
b0000000000000001 l
0n
0o
1r
0!"
#990000000
0!
0?
#995000000
1!
0&
b00000000000000000000000000000001 (
1,
1?
0D
b00000000000000000000000000000001 F
1J
b00000000000000000000000000000001 g
1i
b0000000000000000 k
b0000000000000000 l
0q
1s
