docs/radhdl/0.2.1/simulations/tb_radif_reg_to_i2c_master/tb_radif_reg_to_i2c_master.vcd
$date
  Wed Jul  8 17:29:46 2026
$end
$version
  GHDL v0
$end
$timescale
  1 fs
$end
$scope module standard $end
$upscope $end
$scope module textio $end
$upscope $end
$scope module std_logic_1164 $end
$upscope $end
$scope module numeric_std $end
$upscope $end
$scope module env $end
$upscope $end
$scope module tb_radif_reg_to_i2c_master $end
$var reg 1 ! clk $end
$var reg 1 " rstn $end
$var reg 16 # reg_wr_addr[15:0] $end
$var reg 16 $ reg_rd_addr[15:0] $end
$var reg 1 % reg_wr_en $end
$var reg 1 & reg_rd_en $end
$var reg 32 ' reg_data_in[31:0] $end
$var reg 32 ( reg_data_out[31:0] $end
$var reg 1 ) reg_wr_rdy $end
$var reg 1 * reg_rd_rdy $end
$var reg 1 + reg_wr_valid $end
$var reg 1 , reg_rd_valid $end
$var reg 1 - reg_error $end
$var reg 1 . scl_i $end
$var reg 1 / sda_i $end
$var reg 1 0 scl_oen $end
$var reg 1 1 sda_oen $end
$scope module dut $end
$var reg 1 2 clk $end
$var reg 1 3 rstn $end
$var reg 16 4 reg_wr_addr[15:0] $end
$var reg 16 5 reg_rd_addr[15:0] $end
$var reg 1 6 reg_wr_en $end
$var reg 1 7 reg_rd_en $end
$var reg 32 8 reg_data_in[31:0] $end
$var reg 32 9 reg_data_out[31:0] $end
$var reg 1 : reg_wr_rdy $end
$var reg 1 ; reg_rd_rdy $end
$var reg 1 < reg_wr_valid $end
$var reg 1 = reg_rd_valid $end
$var reg 1 > reg_error $end
$var reg 1 ? i2c_scl_i $end
$var reg 1 @ i2c_sda_i $end
$var reg 1 A i2c_scl_oen $end
$var reg 1 B i2c_sda_oen $end
$var reg 32 C control_r[31:0] $end
$var reg 32 D status_r[31:0] $end
$var reg 16 E clk_div_r[15:0] $end
$var reg 7 F slave_addr_r[6:0] $end
$var reg 8 G tx_data_r[7:0] $end
$var reg 8 H rx_data_r[7:0] $end
$var reg 8 I shift_r[7:0] $end
$comment state is not handled $end
$var reg 16 J div_count[15:0] $end
$var integer 32 K bit_count $end
$var reg 1 L read_mode_r $end
$var reg 1 M scl_oen_r $end
$var reg 1 N sda_oen_r $end
$var reg 1 O wr_valid_r $end
$var reg 1 P rd_valid_r $end
$var reg 1 Q error_r $end
$var reg 32 R rd_data_r[31:0] $end
$upscope $end
$upscope $end
$enddefinitions $end
#0
0!
0"
b0000000000000000 #
b0000000000000000 $
0%
0&
b00000000000000000000000000000000 '
b00000000000000000000000000000000 (
1)
1*
0+
0,
0-
1.
0/
10
11
02
03
b0000000000000000 4
b0000000000000000 5
06
07
b00000000000000000000000000000000 8
b00000000000000000000000000000000 9
1:
1;
0<
0=
0>
1?
0@
1A
1B
b00000000000000000000000000000000 C
b00000000000000000000000000000000 D
b0000000000000001 E
b0000000 F
b00000000 G
b00000000 H
b00000000 I
b0000000000000000 J
b0 K
0L
1M
1N
0O
0P
0Q
b00000000000000000000000000000000 R
#5000000
1!
12
#10000000
0!
02
#15000000
1!
12
#20000000
0!
02
#25000000
1!
12
#30000000
0!
02
#35000000
1!
12
#40000000
0!
1"
02
13
#45000000
1!
b0000000000001000 #
1%
b00000000000000000000000000000001 '
12
b0000000000001000 4
16
b00000000000000000000000000000001 8
b0000000000000001 J
#50000000
0!
02
#55000000
1!
0%
1+
12
06
1<
b0000000000000000 J
1O
#60000000
0!
02
#65000000
1!
b0000000000001100 #
1%
b00000000000000000000000000101010 '
0+
12
b0000000000001100 4
16
b00000000000000000000000000101010 8
0<
b0000000000000001 J
0O
#70000000
0!
02
#75000000
1!
0%
1+
12
06
1<
b0101010 F
b0000000000000000 J
1O
#80000000
0!
02
#85000000
1!
b0000000000010000 #
1%
b00000000000000000000000001011010 '
0+
12
b0000000000010000 4
16
b00000000000000000000000001011010 8
0<
b0000000000000001 J
0O
#90000000
0!
02
#95000000
1!
0%
1+
12
06
1<
b01011010 G
b0000000000000000 J
1O
#100000000
0!
02
#105000000
1!
b0000000000000000 #
1%
b00000000000000000000000000000001 '
0+
12
b0000000000000000 4
16
b00000000000000000000000000000001 8
0<
b0000000000000001 J
0O
#110000000
0!
02
#115000000
1!
0%
1+
12
06
1<
b00000000000000000000000000000001 C
b01010100 I
b1000 K
1O
#120000000
0!
02
#125000000
1!
0+
12
0<
b0000000000000000 J
0O
#130000000
0!
02
#135000000
1!
b0000000000000100 $
1&
01
12
b0000000000000100 5
17
0B
b00000000000000000000000000000001 D
b0000000000000001 J
0N
#140000000
0!
02
#145000000
1!
0&
b00000000000000000000000000000001 (
1,
12
07
b00000000000000000000000000000001 9
1=
b0000000000000000 J
1P
b00000000000000000000000000000001 R
#150000000
0!
02
#155000000
1!
0,
0.
00
12
0=
0?
0A
b0000000000000001 J
0M
0P
#160000000
0!
02
#165000000
1!
12
b0000000000000000 J
#170000000
0!
02
#175000000
1!
1&
11
12
17
1B
b0000000000000001 J
1N
#180000000
0!
02
#185000000
1!
0&
1,
12
07
1=
b0000000000000000 J
1P
#190000000
0!
02
#195000000
1!
0,
1.
10
12
0=
1?
1A
b0000000000000001 J
1M
0P
#200000000
0!
02
#205000000
1!
12
b0000000000000000 J
#210000000
0!
02
#215000000
1!
1&
12
17
b10101000 I
b0000000000000001 J
b111 K
#220000000
0!
02
#225000000
1!
0&
1,
12
07
1=
b0000000000000000 J
1P
#230000000
0!
02
#235000000
1!
0,
0.
00
01
12
0=
0?
0A
0B
b0000000000000001 J
0M
0N
0P
#240000000
0!
02
#245000000
1!
12
b0000000000000000 J
#250000000
0!
02
#255000000
1!
1&
1.
10
12
17
1?
1A
b0000000000000001 J
1M
#260000000
0!
02
#265000000
1!
0&
1,
12
07
1=
b0000000000000000 J
1P
#270000000
0!
02
#275000000
1!
0,
12
0=
b01010000 I
b0000000000000001 J
b110 K
0P
#280000000
0!
02
#285000000
1!
12
b0000000000000000 J
#290000000
0!
02
#295000000
1!
1&
0.
00
11
12
17
0?
0A
1B
b0000000000000001 J
0M
1N
#300000000
0!
02
#305000000
1!
0&
1,
12
07
1=
b0000000000000000 J
1P
#310000000
0!
02
#315000000
1!
0,
1.
10
12
0=
1?
1A
b0000000000000001 J
1M
0P
#320000000
0!
02
#325000000
1!
12
b0000000000000000 J
#330000000
0!
02
#335000000
1!
1&
12
17
b10100000 I
b0000000000000001 J
b101 K
#340000000
0!
02
#345000000
1!
0&
1,
12
07
1=
b0000000000000000 J
1P
#350000000
0!
02
#355000000
1!
0,
0.
00
01
12
0=
0?
0A
0B
b0000000000000001 J
0M
0N
0P
#360000000
0!
02
#365000000
1!
12
b0000000000000000 J
#370000000
0!
02
#375000000
1!
1&
1.
10
12
17
1?
1A
b0000000000000001 J
1M
#380000000
0!
02
#385000000
1!
0&
1,
12
07
1=
b0000000000000000 J
1P
#390000000
0!
02
#395000000
1!
0,
12
0=
b01000000 I
b0000000000000001 J
b100 K
0P
#400000000
0!
02
#405000000
1!
12
b0000000000000000 J
#410000000
0!
02
#415000000
1!
1&
0.
00
11
12
17
0?
0A
1B
b0000000000000001 J
0M
1N
#420000000
0!
02
#425000000
1!
0&
1,
12
07
1=
b0000000000000000 J
1P
#430000000
0!
02
#435000000
1!
0,
1.
10
12
0=
1?
1A
b0000000000000001 J
1M
0P
#440000000
0!
02
#445000000
1!
12
b0000000000000000 J
#450000000
0!
02
#455000000
1!
1&
12
17
b10000000 I
b0000000000000001 J
b11 K
#460000000
0!
02
#465000000
1!
0&
1,
12
07
1=
b0000000000000000 J
1P
#470000000
0!
02
#475000000
1!
0,
0.
00
01
12
0=
0?
0A
0B
b0000000000000001 J
0M
0N
0P
#480000000
0!
02
#485000000
1!
12
b0000000000000000 J
#490000000
0!
02
#495000000
1!
1&
1.
10
12
17
1?
1A
b0000000000000001 J
1M
#500000000
0!
02
#505000000
1!
0&
1,
12
07
1=
b0000000000000000 J
1P
#510000000
0!
02
#515000000
1!
0,
12
0=
b00000000 I
b0000000000000001 J
b10 K
0P
#520000000
0!
02
#525000000
1!
12
b0000000000000000 J
#530000000
0!
02
#535000000
1!
1&
0.
00
11
12
17
0?
0A
1B
b0000000000000001 J
0M
1N
#540000000
0!
02
#545000000
1!
0&
1,
12
07
1=
b0000000000000000 J
1P
#550000000
0!
02
#555000000
1!
0,
1.
10
12
0=
1?
1A
b0000000000000001 J
1M
0P
#560000000
0!
02
#565000000
1!
12
b0000000000000000 J
#570000000
0!
02
#575000000
1!
1&
12
17
b0000000000000001 J
b1 K
#580000000
0!
02
#585000000
1!
0&
1,
12
07
1=
b0000000000000000 J
1P
#590000000
0!
02
#595000000
1!
0,
0.
00
12
0=
0?
0A
b0000000000000001 J
0M
0P
#600000000
0!
02
#605000000
1!
12
b0000000000000000 J
#610000000
0!
02
#615000000
1!
1&
1.
10
12
17
1?
1A
b0000000000000001 J
1M
#620000000
0!
02
#625000000
1!
0&
1,
12
07
1=
b0000000000000000 J
1P
#630000000
0!
02
#635000000
1!
0,
12
0=
b0000000000000001 J
b0 K
0P
#640000000
0!
02
#645000000
1!
12
b0000000000000000 J
#650000000
0!
02
#655000000
1!
1&
0.
00
12
17
0?
0A
b0000000000000001 J
0M
#660000000
0!
02
#665000000
1!
0&
1,
12
07
1=
b0000000000000000 J
1P
#670000000
0!
02
#675000000
1!
0,
1.
10
12
0=
1?
1A
b0000000000000001 J
1M
0P
#680000000
0!
02
#685000000
1!
12
b0000000000000000 J
#690000000
0!
02
#695000000
1!
1&
12
17
b01011010 I
b0000000000000001 J
b1000 K
#700000000
0!
02
#705000000
1!
0&
1,
12
07
1=
b0000000000000000 J
1P
#710000000
0!
02
#715000000
1!
0,
0.
00
12
0=
0?
0A
b0000000000000001 J
0M
0P
#720000000
0!
02
#725000000
1!
12
b0000000000000000 J
#730000000
0!
02
#735000000
1!
1&
1.
10
12
17
1?
1A
b0000000000000001 J
1M
#740000000
0!
02
#745000000
1!
0&
1,
12
07
1=
b0000000000000000 J
1P
#750000000
0!
02
#755000000
1!
0,
12
0=
b10110100 I
b0000000000000001 J
b111 K
0P
#760000000
0!
02
#765000000
1!
12
b0000000000000000 J
#770000000
0!
02
#775000000
1!
1&
0.
00
01
12
17
0?
0A
0B
b0000000000000001 J
0M
0N
#780000000
0!
02
#785000000
1!
0&
1,
12
07
1=
b0000000000000000 J
1P
#790000000
0!
02
#795000000
1!
0,
1.
10
12
0=
1?
1A
b0000000000000001 J
1M
0P
#800000000
0!
02
#805000000
1!
12
b0000000000000000 J
#810000000
0!
02
#815000000
1!
1&
12
17
b01101000 I
b0000000000000001 J
b110 K
#820000000
0!
02
#825000000
1!
0&
1,
12
07
1=
b0000000000000000 J
1P
#830000000
0!
02
#835000000
1!
0,
0.
00
11
12
0=
0?
0A
1B
b0000000000000001 J
0M
1N
0P
#840000000
0!
02
#845000000
1!
12
b0000000000000000 J
#850000000
0!
02
#855000000
1!
1&
1.
10
12
17
1?
1A
b0000000000000001 J
1M
#860000000
0!
02
#865000000
1!
0&
1,
12
07
1=
b0000000000000000 J
1P
#870000000
0!
02
#875000000
1!
0,
12
0=
b11010000 I
b0000000000000001 J
b101 K
0P
#880000000
0!
02
#885000000
1!
12
b0000000000000000 J
#890000000
0!
02
#895000000
1!
1&
0.
00
01
12
17
0?
0A
0B
b0000000000000001 J
0M
0N
#900000000
0!
02
#905000000
1!
0&
1,
12
07
1=
b0000000000000000 J
1P
#910000000
0!
02
#915000000
1!
0,
1.
10
12
0=
1?
1A
b0000000000000001 J
1M
0P
#920000000
0!
02
#925000000
1!
12
b0000000000000000 J
#930000000
0!
02
#935000000
1!
1&
12
17
b10100000 I
b0000000000000001 J
b100 K
#940000000
0!
02
#945000000
1!
0&
1,
12
07
1=
b0000000000000000 J
1P
#950000000
0!
02
#955000000
1!
0,
0.
00
12
0=
0?
0A
b0000000000000001 J
0M
0P
#960000000
0!
02
#965000000
1!
12
b0000000000000000 J
#970000000
0!
02
#975000000
1!
1&
1.
10
12
17
1?
1A
b0000000000000001 J
1M
#980000000
0!
02
#985000000
1!
0&
1,
12
07
1=
b0000000000000000 J
1P
#990000000
0!
02
#995000000
1!
0,
12
0=
b01000000 I
b0000000000000001 J
b11 K
0P
#1000000000
0!
02
#1005000000
1!
12
b0000000000000000 J
#1010000000
0!
02
#1015000000
1!
1&
0.
00
11
12
17
0?
0A
1B
b0000000000000001 J
0M
1N
#1020000000
0!
02
#1025000000
1!
0&
1,
12
07
1=
b0000000000000000 J
1P
#1030000000
0!
02
#1035000000
1!
0,
1.
10
12
0=
1?
1A
b0000000000000001 J
1M
0P
#1040000000
0!
02
#1045000000
1!
12
b0000000000000000 J
#1050000000
0!
02
#1055000000
1!
1&
12
17
b10000000 I
b0000000000000001 J
b10 K
#1060000000
0!
02
#1065000000
1!
0&
1,
12
07
1=
b0000000000000000 J
1P
#1070000000
0!
02
#1075000000
1!
0,
0.
00
01
12
0=
0?
0A
0B
b0000000000000001 J
0M
0N
0P
#1080000000
0!
02
#1085000000
1!
12
b0000000000000000 J
#1090000000
0!
02
#1095000000
1!
1&
1.
10
12
17
1?
1A
b0000000000000001 J
1M
#1100000000
0!
02
#1105000000
1!
0&
1,
12
07
1=
b0000000000000000 J
1P
#1110000000
0!
02
#1115000000
1!
0,
12
0=
b00000000 I
b0000000000000001 J
b1 K
0P
#1120000000
0!
02
#1125000000
1!
12
b0000000000000000 J
#1130000000
0!
02
#1135000000
1!
1&
0.
00
11
12
17
0?
0A
1B
b0000000000000001 J
0M
1N
#1140000000
0!
02
#1145000000
1!
0&
1,
12
07
1=
b0000000000000000 J
1P
#1150000000
0!
02
#1155000000
1!
0,
1.
10
12
0=
1?
1A
b0000000000000001 J
1M
0P
#1160000000
0!
02
#1165000000
1!
12
b0000000000000000 J
#1170000000
0!
02
#1175000000
1!
1&
12
17
b0000000000000001 J
b0 K
#1180000000
0!
02
#1185000000
1!
0&
1,
12
07
1=
b0000000000000000 J
1P
#1190000000
0!
02
#1195000000
1!
0,
0.
00
12
0=
0?
0A
b0000000000000001 J
0M
0P
#1200000000
0!
02
#1205000000
1!
12
b0000000000000000 J
#1210000000
0!
02
#1215000000
1!
1&
1.
10
12
17
1?
1A
b0000000000000001 J
1M
#1220000000
0!
02
#1225000000
1!
0&
1,
12
07
1=
b0000000000000000 J
1P
#1230000000
0!
02
#1235000000
1!
0,
12
0=
b0000000000000001 J
0P
#1240000000
0!
02
#1245000000
1!
12
b0000000000000000 J
#1250000000
0!
02
#1255000000
1!
1&
0.
00
01
12
17
0?
0A
0B
b0000000000000001 J
0M
0N
#1260000000
0!
02
#1265000000
1!
0&
1,
12
07
1=
b0000000000000000 J
1P
#1270000000
0!
02
#1275000000
1!
0,
1.
10
11
12
0=
1?
1A
1B
b00000000000000000000000000000010 D
b0000000000000001 J
1M
1N
0P
#1280000000
0!
02
#1285000000
1!
12
b0000000000000000 J
#1290000000
0!
02
#1295000000
1!
1&
12
17
b0000000000000001 J
#1300000000
0!
02
#1305000000
1!
0&
b00000000000000000000000000000010 (
1,
12
07
b00000000000000000000000000000010 9
1=
b0000000000000000 J
1P
b00000000000000000000000000000010 R
