docs/radhdl/0.2.1/simulations/tb_raddsp_axis_fingerprint/tb_raddsp_axis_fingerprint.vcd
$date
  Wed Jul  8 17:29:35 2026
$end
$version
  GHDL v0
$end
$timescale
  1 fs
$end
$scope module standard $end
$upscope $end
$scope module textio $end
$upscope $end
$scope module std_logic_1164 $end
$upscope $end
$scope module numeric_std $end
$upscope $end
$scope module env $end
$upscope $end
$scope module raddsp_axis_pkg $end
$upscope $end
$scope module vcomponents $end
$upscope $end
$scope module tb_raddsp_axis_fingerprint $end
$var reg 1 ! clk $end
$var reg 1 " rst $end
$var reg 1 # fp_s_valid $end
$var reg 1 $ fp_s_ready $end
$var reg 32 % fp_s_data[31:0] $end
$var reg 1 & fp_s_last $end
$var reg 1 ' fp_m_valid $end
$var reg 1 ( fp_m_ready $end
$var reg 128 ) fp_m_data[127:0] $end
$var reg 1 * fp_m_last $end
$var reg 8 + fp_awaddr[7:0] $end
$var reg 1 , fp_awvalid $end
$var reg 1 - fp_awready $end
$var reg 32 . fp_wdata[31:0] $end
$var reg 1 / fp_wvalid $end
$var reg 1 0 fp_wready $end
$var reg 1 1 fp_bvalid $end
$var reg 1 2 fp_bready $end
$var reg 8 3 fp_araddr[7:0] $end
$var reg 1 4 fp_arvalid $end
$var reg 1 5 fp_arready $end
$var reg 32 6 fp_rdata[31:0] $end
$var reg 1 7 fp_rvalid $end
$var reg 1 8 fp_rready $end
$var reg 1 9 ma_s_valid $end
$var reg 1 : ma_s_ready $end
$var reg 128 ; ma_s_data[127:0] $end
$var reg 1 < ma_s_last $end
$var reg 1 = ma_m_valid $end
$var reg 1 > ma_m_ready $end
$var reg 128 ? ma_m_data[127:0] $end
$var reg 1 @ ma_m_last $end
$var reg 1 A ma_irq $end
$var reg 8 B ma_awaddr[7:0] $end
$var reg 1 C ma_awvalid $end
$var reg 1 D ma_awready $end
$var reg 32 E ma_wdata[31:0] $end
$var reg 1 F ma_wvalid $end
$var reg 1 G ma_wready $end
$var reg 1 H ma_bvalid $end
$var reg 1 I ma_bready $end
$var reg 8 J ma_araddr[7:0] $end
$var reg 1 K ma_arvalid $end
$var reg 1 L ma_arready $end
$var reg 32 M ma_rdata[31:0] $end
$var reg 1 N ma_rvalid $end
$var reg 1 O ma_rready $end
$var reg 128 P captured_fp[127:0] $end
$scope module fp_i $end
$var reg 1 Q clk $end
$var reg 1 R rst $end
$var reg 1 S s_axis_tvalid $end
$var reg 1 T s_axis_tready $end
$var reg 32 U s_axis_tdata[31:0] $end
$var reg 1 V s_axis_tlast $end
$var reg 1 W m_axis_tvalid $end
$var reg 1 X m_axis_tready $end
$var reg 128 Y m_axis_tdata[127:0] $end
$var reg 1 Z m_axis_tlast $end
$var reg 8 [ s_axi_awaddr[7:0] $end
$var reg 3 \ s_axi_awprot[2:0] $end
$var reg 1 ] s_axi_awvalid $end
$var reg 1 ^ s_axi_awready $end
$var reg 32 _ s_axi_wdata[31:0] $end
$var reg 4 ` s_axi_wstrb[3:0] $end
$var reg 1 a s_axi_wvalid $end
$var reg 1 b s_axi_wready $end
$var reg 2 c s_axi_bresp[1:0] $end
$var reg 1 d s_axi_bvalid $end
$var reg 1 e s_axi_bready $end
$var reg 8 f s_axi_araddr[7:0] $end
$var reg 3 g s_axi_arprot[2:0] $end
$var reg 1 h s_axi_arvalid $end
$var reg 1 i s_axi_arready $end
$var reg 32 j s_axi_rdata[31:0] $end
$var reg 2 k s_axi_rresp[1:0] $end
$var reg 1 l s_axi_rvalid $end
$var reg 1 m s_axi_rready $end
$var reg 1 n enable_r $end
$var reg 1 o use_tlast_r $end
$var reg 1 p pair_mode_r $end
$var reg 1 q magnitude_only_r $end
$var reg 16 r frame_bins_r[15:0] $end
$var reg 16 s bin_offset_r[15:0] $end
$var reg 16 t bin_stride_r[15:0] $end
$var reg 5 u mag_shift_r[4:0] $end
$var reg 64 v hash_seed_r[63:0] $end
$var reg 16 w pair_gap_r[15:0] $end
$var reg 64 x hash_r[63:0] $end
$var reg 16 y bin_idx_r[15:0] $end
$var reg 16 z stride_count_r[15:0] $end
$var reg 16 { selected_r[15:0] $end
$var reg 16 | peak_bin_r[15:0] $end
$var reg 32 } peak_mag_r[31:0] $end
$var reg 32 !" frame_count_r[31:0] $end
$comment pair_state_r is not handled $end
$var reg 16 "" pair_wait_r[15:0] $end
$var reg 16 #" pair_delta_r[15:0] $end
$comment cur_peak_bin_r is not handled $end
$comment cur_peak_mag_r is not handled $end
$comment cur_peak_feat_r is not handled $end
$comment a_peak_bin_r is not handled $end
$comment a_peak_mag_r is not handled $end
$comment b_peak_bin_r is not handled $end
$comment b_peak_mag_r is not handled $end
$comment hist_peak_bin_r is not handled $end
$comment hist_peak_mag_r is not handled $end
$comment hist_peak_feat_r is not handled $end
$var reg 64 $" last_hash_r[63:0] $end
$var reg 16 %" last_peak_bin_r[15:0] $end
$var reg 32 &" last_peak_mag_r[31:0] $end
$var reg 16 '" last_selected_r[15:0] $end
$var reg 16 (" last_delta_r[15:0] $end
$var reg 1 )" out_valid_r $end
$var reg 128 *" out_data_r[127:0] $end
$var reg 1 +" busy_r $end
$var reg 1 ," awready_r $end
$var reg 1 -" wready_r $end
$var reg 1 ." bvalid_r $end
$var reg 1 /" arready_r $end
$var reg 1 0" rvalid_r $end
$var reg 32 1" rdata_r[31:0] $end
$upscope $end
$scope module matcher_i $end
$var reg 1 2" clk $end
$var reg 1 3" rst $end
$var reg 1 4" s_axis_tvalid $end
$var reg 1 5" s_axis_tready $end
$var reg 128 6" s_axis_tdata[127:0] $end
$var reg 1 7" s_axis_tlast $end
$var reg 1 8" m_axis_tvalid $end
$var reg 1 9" m_axis_tready $end
$var reg 128 :" m_axis_tdata[127:0] $end
$var reg 1 ;" m_axis_tlast $end
$var reg 1 <" match_irq_o $end
$var reg 8 =" s_axi_awaddr[7:0] $end
$var reg 3 >" s_axi_awprot[2:0] $end
$var reg 1 ?" s_axi_awvalid $end
$var reg 1 @" s_axi_awready $end
$var reg 32 A" s_axi_wdata[31:0] $end
$var reg 4 B" s_axi_wstrb[3:0] $end
$var reg 1 C" s_axi_wvalid $end
$var reg 1 D" s_axi_wready $end
$var reg 2 E" s_axi_bresp[1:0] $end
$var reg 1 F" s_axi_bvalid $end
$var reg 1 G" s_axi_bready $end
$var reg 8 H" s_axi_araddr[7:0] $end
$var reg 3 I" s_axi_arprot[2:0] $end
$var reg 1 J" s_axi_arvalid $end
$var reg 1 K" s_axi_arready $end
$var reg 32 L" s_axi_rdata[31:0] $end
$var reg 2 M" s_axi_rresp[1:0] $end
$var reg 1 N" s_axi_rvalid $end
$var reg 1 O" s_axi_rready $end
$var reg 1 P" enable_r $end
$var reg 1 Q" irq_enable_r $end
$var reg 4 R" load_addr_r[3:0] $end
$var reg 64 S" load_hash_r[63:0] $end
$var reg 32 T" load_meta_r[31:0] $end
$var reg 64 U" match_mask_r[63:0] $end
$var reg 1 V" mem_wr_en $end
$var reg 4 W" mem_wr_addr[3:0] $end
$var reg 97 X" mem_wr_data[96:0] $end
$var reg 4 Y" mem_rd_addr[3:0] $end
$var reg 97 Z" mem_rd_data[96:0] $end
$var reg 1 [" pending_r $end
$var reg 1 \" pending_data_r $end
$var reg 64 ]" pending_hash_r[63:0] $end
$var reg 4 ^" pending_bucket_r[3:0] $end
$var reg 1 _" out_valid_r $end
$var reg 128 `" out_data_r[127:0] $end
$var reg 1 a" irq_r $end
$var reg 64 b" last_hash_r[63:0] $end
$var reg 32 c" last_meta_r[31:0] $end
$var reg 4 d" last_bucket_r[3:0] $end
$var reg 32 e" match_count_r[31:0] $end
$var reg 1 f" awready_r $end
$var reg 1 g" wready_r $end
$var reg 1 h" bvalid_r $end
$var reg 1 i" arready_r $end
$var reg 1 j" rvalid_r $end
$var reg 32 k" rdata_r[31:0] $end
$scope module gen_generic_mem $end
$comment table_r is not handled $end
$var reg 97 l" rd_data_r[96:0] $end
$upscope $end
$upscope $end
$upscope $end
$enddefinitions $end
#0
0!
1"
0#
0$
b00000000000000000000000000000000 %
0&
0'
1(
b00000000000000000000000000000000000000000000000000000000000000000000000000000000000000000000000000000000000000000000000000000000 )
0*
b00000000 +
0,
0-
b00000000000000000000000000000000 .
0/
00
01
12
b00000000 3
04
05
b00000000000000000000000000000000 6
07
18
09
0:
b00000000000000000000000000000000000000000000000000000000000000000000000000000000000000000000000000000000000000000000000000000000 ;
0<
0=
1>
b00000000000000000000000000000000000000000000000000000000000000000000000000000000000000000000000000000000000000000000000000000000 ?
0@
0A
b00000000 B
0C
0D
b00000000000000000000000000000000 E
0F
0G
0H
1I
b00000000 J
0K
0L
b00000000000000000000000000000000 M
0N
1O
b00000000000000000000000000000000000000000000000000000000000000000000000000000000000000000000000000000000000000000000000000000000 P
0Q
1R
0S
0T
b00000000000000000000000000000000 U
0V
0W
1X
b00000000000000000000000000000000000000000000000000000000000000000000000000000000000000000000000000000000000000000000000000000000 Y
0Z
b00000000 [
b000 \
0]
0^
b00000000000000000000000000000000 _
b1111 `
0a
0b
b00 c
0d
1e
b00000000 f
b000 g
0h
0i
b00000000000000000000000000000000 j
b00 k
0l
1m
0n
1o
0p
1q
b0000000000000100 r
b0000000000000000 s
b0000000000000001 t
b00000 u
b0000000000000000000000000000000000000000000000000000000000000000 v
b0000000000000000 w
b0000000000000000000000000000000000000000000000000000000000000000 x
b0000000000000000 y
b0000000000000000 z
b0000000000000000 {
b0000000000000000 |
b00000000000000000000000000000000 }
b00000000000000000000000000000000 !"
b0000000000000000 ""
b0000000000000000 #"
b0000000000000000000000000000000000000000000000000000000000000000 $"
b0000000000000000 %"
b00000000000000000000000000000000 &"
b0000000000000000 '"
b0000000000000000 ("
0)"
b00000000000000000000000000000000000000000000000000000000000000000000000000000000000000000000000000000000000000000000000000000000 *"
0+"
0,"
0-"
0."
0/"
00"
b00000000000000000000000000000000 1"
02"
13"
04"
05"
b00000000000000000000000000000000000000000000000000000000000000000000000000000000000000000000000000000000000000000000000000000000 6"
07"
08"
19"
b00000000000000000000000000000000000000000000000000000000000000000000000000000000000000000000000000000000000000000000000000000000 :"
0;"
0<"
b00000000 ="
b000 >"
0?"
0@"
b00000000000000000000000000000000 A"
b1111 B"
0C"
0D"
b00 E"
0F"
1G"
b00000000 H"
b000 I"
0J"
0K"
b00000000000000000000000000000000 L"
b00 M"
0N"
1O"
0P"
0Q"
b0000 R"
b0000000000000000000000000000000000000000000000000000000000000000 S"
b00000000000000000000000000000000 T"
b1111111111111111111111111111111111111111111111111111111111111111 U"
0V"
b0000 W"
b0000000000000000000000000000000000000000000000000000000000000000000000000000000000000000000000000 X"
b0000 Y"
b0000000000000000000000000000000000000000000000000000000000000000000000000000000000000000000000000 Z"
0["
0\"
b0000000000000000000000000000000000000000000000000000000000000000 ]"
b0000 ^"
0_"
b00000000000000000000000000000000000000000000000000000000000000000000000000000000000000000000000000000000000000000000000000000000 `"
0a"
b0000000000000000000000000000000000000000000000000000000000000000 b"
b00000000000000000000000000000000 c"
b0000 d"
b00000000000000000000000000000000 e"
0f"
0g"
0h"
0i"
0j"
b00000000000000000000000000000000 k"
b0000000000000000000000000000000000000000000000000000000000000000000000000000000000000000000000000 l"
#5000000
1!
1Q
12"
#10000000
0!
0Q
02"
#15000000
1!
1Q
12"
#20000000
0!
0Q
02"
#25000000
1!
1Q
12"
#30000000
0!
0Q
02"
#35000000
1!
1Q
12"
#40000000
0!
0Q
02"
#45000000
1!
1Q
12"
#50000000
0!
0Q
02"
#55000000
1!
1Q
12"
#60000000
0!
0Q
02"
#65000000
1!
1Q
12"
#70000000
0!
0Q
02"
#75000000
1!
1Q
12"
#80000000
0!
0Q
02"
#85000000
1!
1Q
12"
#90000000
0!
0Q
02"
#95000000
1!
1Q
12"
#100000000
0!
0"
0Q
0R
02"
03"
#105000000
1!
b00000100 +
1,
b00000000000000000000000000000100 .
1/
1Q
b00000100 [
1]
b00000000000000000000000000000100 _
1a
12"
#110000000
0!
0Q
02"
#115000000
1!
1-
10
11
1Q
1^
1b
1d
1,"
1-"
1."
12"
#120000000
0!
0Q
02"
#125000000
1!
0,
0-
0/
00
01
1Q
0]
0^
0a
0b
0d
0,"
0-"
0."
12"
#130000000
0!
0Q
02"
#135000000
1!
1Q
12"
#140000000
0!
0Q
02"
#145000000
1!
b00001100 +
1,
b00000000000000000000000000000001 .
1/
1Q
b00001100 [
1]
b00000000000000000000000000000001 _
1a
12"
#150000000
0!
0Q
02"
#155000000
1!
1-
10
11
1Q
1^
1b
1d
1,"
1-"
1."
12"
#160000000
0!
0Q
02"
#165000000
1!
0,
0-
0/
00
01
1Q
0]
0^
0a
0b
0d
0,"
0-"
0."
12"
#170000000
0!
0Q
02"
#175000000
1!
1Q
12"
#180000000
0!
0Q
02"
#185000000
1!
b00010100 +
1,
b00010010001101000101011001111000 .
1/
1Q
b00010100 [
1]
b00010010001101000101011001111000 _
1a
12"
#190000000
0!
0Q
02"
#195000000
1!
1-
10
11
1Q
1^
1b
1d
b0000000000000000000000000000000000010010001101000101011001111000 v
b0000000000000000000000000000000000010010001101000101011001111000 x
1,"
1-"
1."
12"
#200000000
0!
0Q
02"
#205000000
1!
0,
0-
0/
00
01
1Q
0]
0^
0a
0b
0d
0,"
0-"
0."
12"
#210000000
0!
0Q
02"
#215000000
1!
1Q
12"
#220000000
0!
0Q
02"
#225000000
1!
b00011000 +
1,
b10011010101111001101111011110000 .
1/
1Q
b00011000 [
1]
b10011010101111001101111011110000 _
1a
12"
#230000000
0!
0Q
02"
#235000000
1!
1-
10
11
1Q
1^
1b
1d
b1001101010111100110111101111000000010010001101000101011001111000 v
1,"
1-"
1."
12"
#240000000
0!
0Q
02"
#245000000
1!
0,
0-
0/
00
01
1Q
0]
0^
0a
0b
0d
0,"
0-"
0."
12"
#250000000
0!
0Q
02"
#255000000
1!
1Q
12"
#260000000
0!
0Q
02"
#265000000
1!
b00000000 +
1,
b00000000000000000000000000010101 .
1/
1Q
b00000000 [
1]
b00000000000000000000000000010101 _
1a
12"
#270000000
0!
0Q
02"
#275000000
1!
1$
1-
10
11
1Q
1T
1^
1b
1d
1n
1,"
1-"
1."
12"
#280000000
0!
0Q
02"
#285000000
1!
0,
0-
0/
00
01
1Q
0]
0^
0a
0b
0d
0,"
0-"
0."
12"
#290000000
0!
0Q
02"
#295000000
1!
1Q
12"
#300000000
0!
0Q
02"
#305000000
1!
1#
b00000000000010100000000000000001 %
1Q
1S
b00000000000010100000000000000001 U
12"
#310000000
0!
0Q
02"
#315000000
1!
0#
1Q
0S
b0000000000000000000000000000001011100100110101000100100011000100 x
b0000000000000001 y
b0000000000000001 {
b00000000000000000000000000001011 }
1+"
12"
#320000000
0!
0Q
02"
#325000000
1!
1#
b00000000000000111111111111111001 %
1Q
1S
b00000000000000111111111111111001 U
12"
#330000000
0!
0Q
02"
#335000000
1!
0#
1Q
0S
b0000000000000000000000000101111100111000110100111001001001000011 x
b0000000000000010 y
b0000000000000010 {
12"
#340000000
0!
0Q
02"
#345000000
1!
1#
b00000000000111100000000000000010 %
1Q
1S
b00000000000111100000000000000010 U
12"
#350000000
0!
0Q
02"
#355000000
1!
0#
1Q
0S
b0000000000000000000010111110001110111000011001111100000111111001 x
b0000000000000011 y
b0000000000000011 {
b0000000000000010 |
b00000000000000000000000000100000 }
12"
#360000000
0!
0Q
02"
#365000000
1!
1#
b11111111111111000000000000000101 %
1&
1Q
1S
b11111111111111000000000000000101 U
1V
12"
#370000000
0!
0Q
02"
#375000000
1!
0#
0$
0&
1'
b11100000001011001001110111101100010100100110111001101001110011010000000000000010000000000000000000000000001000000000000000000100 )
1*
1Q
0S
0T
0V
1W
b11100000001011001001110111101100010100100110111001101001110011010000000000000010000000000000000000000000001000000000000000000100 Y
1Z
b1001101010111100110111101111000000010010001101000101011001111000 x
b0000000000000000 y
b0000000000000000 {
b0000000000000000 |
b00000000000000000000000000000000 }
b00000000000000000000000000000001 !"
b1110000000101100100111011110110001010010011011100110100111001101 $"
b0000000000000010 %"
b00000000000000000000000000100000 &"
b0000000000000100 '"
1)"
b11100000001011001001110111101100010100100110111001101001110011010000000000000010000000000000000000000000001000000000000000000100 *"
0+"
12"
#380000000
0!
0Q
02"
#385000000
1!
1$
0'
0*
b11100000001011001001110111101100010100100110111001101001110011010000000000000010000000000000000000000000001000000000000000000100 P
1Q
1T
0W
0Z
0)"
12"
#390000000
0!
0Q
02"
#395000000
1!
b00000100 B
1C
b00000000000000000000000000001101 E
1F
1Q
12"
b00000100 ="
1?"
b00000000000000000000000000001101 A"
1C"
#400000000
0!
0Q
02"
#405000000
1!
1D
1G
1H
1Q
12"
1@"
1D"
1F"
b1101 R"
1f"
1g"
1h"
#410000000
0!
0Q
02"
#415000000
1!
0C
0D
0F
0G
0H
1Q
12"
0?"
0@"
0C"
0D"
0F"
0f"
0g"
0h"
#420000000
0!
0Q
02"
#425000000
1!
1Q
12"
#430000000
0!
0Q
02"
#435000000
1!
b00001000 B
1C
b01010010011011100110100111001101 E
1F
1Q
12"
b00001000 ="
1?"
b01010010011011100110100111001101 A"
1C"
#440000000
0!
0Q
02"
#445000000
1!
1D
1G
1H
1Q
12"
1@"
1D"
1F"
b0000000000000000000000000000000001010010011011100110100111001101 S"
1f"
1g"
1h"
#450000000
0!
0Q
02"
#455000000
1!
0C
0D
0F
0G
0H
1Q
12"
0?"
0@"
0C"
0D"
0F"
0f"
0g"
0h"
#460000000
0!
0Q
02"
#465000000
1!
1Q
12"
#470000000
0!
0Q
02"
#475000000
1!
b00001100 B
1C
b11100000001011001001110111101100 E
1F
1Q
12"
b00001100 ="
1?"
b11100000001011001001110111101100 A"
1C"
#480000000
0!
0Q
02"
#485000000
1!
1D
1G
1H
1Q
12"
1@"
1D"
1F"
b1110000000101100100111011110110001010010011011100110100111001101 S"
1f"
1g"
1h"
#490000000
0!
0Q
02"
#495000000
1!
0C
0D
0F
0G
0H
1Q
12"
0?"
0@"
0C"
0D"
0F"
0f"
0g"
0h"
#500000000
0!
0Q
02"
#505000000
1!
1Q
12"
#510000000
0!
0Q
02"
#515000000
1!
b00010000 B
1C
b00000000000000000000000000101010 E
1F
1Q
12"
b00010000 ="
1?"
b00000000000000000000000000101010 A"
1C"
#520000000
0!
0Q
02"
#525000000
1!
1D
1G
1H
1Q
12"
1@"
1D"
1F"
b00000000000000000000000000101010 T"
1f"
1g"
1h"
#530000000
0!
0Q
02"
#535000000
1!
0C
0D
0F
0G
0H
1Q
12"
0?"
0@"
0C"
0D"
0F"
0f"
0g"
0h"
#540000000
0!
0Q
02"
#545000000
1!
1Q
12"
#550000000
0!
0Q
02"
#555000000
1!
b00010100 B
1C
b00000000000000000000000000000001 E
1F
1Q
12"
b00010100 ="
1?"
b00000000000000000000000000000001 A"
1C"
#560000000
0!
0Q
02"
#565000000
1!
1D
1G
1H
1Q
12"
1@"
1D"
1F"
1V"
b1101 W"
b1000000000000000000000000001010101110000000101100100111011110110001010010011011100110100111001101 X"
1f"
1g"
1h"
#570000000
0!
0Q
02"
#575000000
1!
0C
0D
0F
0G
0H
1Q
12"
0?"
0@"
0C"
0D"
0F"
0V"
0f"
0g"
0h"
#580000000
0!
0Q
02"
#585000000
1!
1Q
12"
#590000000
0!
0Q
02"
#595000000
1!
b00000000 B
1C
b00000000000000000000000000000011 E
1F
1Q
12"
b00000000 ="
1?"
b00000000000000000000000000000011 A"
1C"
#600000000
0!
0Q
02"
#605000000
1!
1:
1D
1G
1H
1Q
12"
15"
1@"
1D"
1F"
1P"
1Q"
1f"
1g"
1h"
#610000000
0!
0Q
02"
#615000000
1!
0C
0D
0F
0G
0H
1Q
12"
0?"
0@"
0C"
0D"
0F"
0f"
0g"
0h"
#620000000
0!
0Q
02"
#625000000
1!
1Q
12"
#630000000
0!
0Q
02"
#635000000
1!
19
b11100000001011001001110111101100010100100110111001101001110011010000000000000010000000000000000000000000001000000000000000000100 ;
1<
1Q
12"
14"
b11100000001011001001110111101100010100100110111001101001110011010000000000000010000000000000000000000000001000000000000000000100 6"
17"
#640000000
0!
0Q
02"
#645000000
1!
09
0:
0<
1Q
12"
04"
05"
07"
b1101 Y"
1["
b1110000000101100100111011110110001010010011011100110100111001101 ]"
b1101 ^"
#650000000
0!
0Q
02"
#655000000
1!
1Q
12"
b1000000000000000000000000001010101110000000101100100111011110110001010010011011100110100111001101 Z"
1\"
b1000000000000000000000000001010101110000000101100100111011110110001010010011011100110100111001101 l"
#660000000
0!
0Q
02"
#665000000
1!
1=
b11100000001011001001110111101100010100100110111001101001110011010000000000000000000000000010101000000000000000000000000000001101 ?
1@
1A
1Q
12"
18"
b11100000001011001001110111101100010100100110111001101001110011010000000000000000000000000010101000000000000000000000000000001101 :"
1;"
1<"
0["
0\"
1_"
b11100000001011001001110111101100010100100110111001101001110011010000000000000000000000000010101000000000000000000000000000001101 `"
1a"
b1110000000101100100111011110110001010010011011100110100111001101 b"
b00000000000000000000000000101010 c"
b1101 d"
b00000000000000000000000000000001 e"
#670000000
0!
0Q
02"
#675000000
1!
1:
0=
0@
0A
1Q
12"
15"
08"
0;"
0<"
0_"
0a"
#680000000
0!
0Q
02"
#685000000
1!
1,
b00000000000000000000000000011110 .
1/
1Q
1]
b00000000000000000000000000011110 _
1a
12"
#690000000
0!
0Q
02"
#695000000
1!
0$
1-
10
11
1Q
0T
1^
1b
1d
0n
1p
1,"
1-"
1."
12"
#700000000
0!
0Q
02"
#705000000
1!
0,
0-
0/
00
01
1Q
0]
0^
0a
0b
0d
0,"
0-"
0."
12"
#710000000
0!
0Q
02"
#715000000
1!
1Q
12"
#720000000
0!
0Q
02"
#725000000
1!
b00111000 +
1,
b00000000000000000000000000000000 .
1/
1Q
b00111000 [
1]
b00000000000000000000000000000000 _
1a
12"
#730000000
0!
0Q
02"
#735000000
1!
1-
10
11
1Q
1^
1b
1d
1,"
1-"
1."
12"
#740000000
0!
0Q
02"
#745000000
1!
0,
0-
0/
00
01
1Q
0]
0^
0a
0b
0d
0,"
0-"
0."
12"
#750000000
0!
0Q
02"
#755000000
1!
1Q
12"
#760000000
0!
0Q
02"
#765000000
1!
b00000000 +
1,
b00000000000000000000000000011101 .
1/
1Q
b00000000 [
1]
b00000000000000000000000000011101 _
1a
12"
#770000000
0!
0Q
02"
#775000000
1!
1$
1-
10
11
1Q
1T
1^
1b
1d
1n
1,"
1-"
1."
12"
#780000000
0!
0Q
02"
#785000000
1!
0,
0-
0/
00
01
1Q
0]
0^
0a
0b
0d
0,"
0-"
0."
12"
#790000000
0!
0Q
02"
#795000000
1!
1Q
12"
#800000000
0!
0Q
02"
#805000000
1!
1#
b00000000000000010000000000000001 %
1Q
1S
b00000000000000010000000000000001 U
12"
#810000000
0!
0Q
02"
#815000000
1!
0#
1Q
0S
b0101011110011011110111100000001011100100110001100100100011001010 x
b0000000000000001 y
b0000000000000001 {
b00000000000000000000000000000010 }
1+"
12"
#820000000
0!
0Q
02"
#825000000
1!
1#
b00000000000000100000000000000010 %
1Q
1S
b00000000000000100000000000000010 U
12"
#830000000
0!
0Q
02"
#835000000
1!
0#
1Q
0S
b1111001101111011110000000101111100110110111101111001001100000111 x
b0000000000000010 y
b0000000000000010 {
b0000000000000001 |
b00000000000000000000000000000100 }
12"
#840000000
0!
0Q
02"
#845000000
1!
1#
b00000000001010000000000000000011 %
1Q
1S
b00000000001010000000000000000011 U
12"
#850000000
0!
0Q
02"
#855000000
1!
0#
1Q
0S
b0110111101111000000010111110001101111100110111011101101010001110 x
b0000000000000011 y
b0000000000000011 {
b0000000000000010 |
b00000000000000000000000000101011 }
12"
#860000000
0!
0Q
02"
#865000000
1!
1#
b00000000000001010000000000000101 %
1&
1Q
1S
b00000000000001010000000000000101 U
1V
12"
#870000000
0!
0Q
02"
#875000000
1!
0#
0$
0&
1'
b01101100001011011000100100000010011001001011000111001100000001110000000000000001000000000000001000000000000000000000000000000100 )
1*
1Q
0S
0T
0V
1W
b01101100001011011000100100000010011001001011000111001100000001110000000000000001000000000000001000000000000000000000000000000100 Y
1Z
b1001101010111100110111101111000000010010001101000101011001111000 x
b0000000000000000 y
b0000000000000000 {
b0000000000000000 |
b00000000000000000000000000000000 }
b00000000000000000000000000000010 !"
b0110110000101101100010010000001001100100101100011100110000000111 $"
b00000000000000000000000000101011 &"
b0000000000000001 ("
1)"
b01101100001011011000100100000010011001001011000111001100000001110000000000000001000000000000001000000000000000000000000000000100 *"
0+"
12"
#880000000
0!
0Q
02"
#885000000
1!
1$
0'
0*
1Q
1T
0W
0Z
0)"
12"
#890000000
0!
0Q
02"
#895000000
1!
1Q
12"
#900000000
0!
0Q
02"
#905000000
1!
1Q
12"
#910000000
0!
0Q
02"
#915000000
1!
1Q
12"
#920000000
0!
0Q
02"
#925000000
1!
1Q
12"
#930000000
0!
0Q
02"
#935000000
1!
1Q
12"
#940000000
0!
0Q
02"
#945000000
1!
1Q
12"
#950000000
0!
0Q
02"
#955000000
1!
1Q
12"
#960000000
0!
0Q
02"
#965000000
1!
1#
b00000000000000110000000000000011 %
1Q
1S
b00000000000000110000000000000011 U
12"
#970000000
0!
0Q
02"
#975000000
1!
0#
1Q
0S
b0101011110011011110111100000001011100100101111100100100011001110 x
b0000000000000001 y
b0000000000000001 {
b00000000000000000000000000000110 }
1+"
12"
#980000000
0!
0Q
02"
#985000000
1!
1#
b00000000001100100000000000000001 %
1Q
1S
b00000000001100100000000000000001 U
12"
#990000000
0!
0Q
02"
#995000000
1!
0#
1Q
0S
b1111001101111011110000000101111100110101111001011001001110110010 x
b0000000000000010 y
b0000000000000010 {
b0000000000000001 |
b00000000000000000000000000110011 }
12"
#1000000000
0!
0Q
02"
#1005000000
1!
1#
b00000000000000100000000000000010 %
1Q
1S
b00000000000000100000000000000010 U
12"
#1010000000
0!
0Q
02"
#1015000000
1!
0#
1Q
0S
b0110111101111000000010111110001101011010111011111111000000010011 x
b0000000000000011 y
b0000000000000011 {
12"
#1020000000
0!
0Q
02"
#1025000000
1!
1#
b00000000000000010000000000000001 %
1&
1Q
1S
b00000000000000010000000000000001 U
1V
12"
#1030000000
0!
0Q
02"
#1035000000
1!
0#
0$
0&
1'
b11011111010000100100011111101110011100001000100101000110000000010000000000000001000000000000000100000000000000100000000000000100 )
1*
1Q
0S
0T
0V
1W
b11011111010000100100011111101110011100001000100101000110000000010000000000000001000000000000000100000000000000100000000000000100 Y
1Z
b1001101010111100110111101111000000010010001101000101011001111000 x
b0000000000000000 y
b0000000000000000 {
b0000000000000000 |
b00000000000000000000000000000000 }
b00000000000000000000000000000011 !"
b1101111101000010010001111110111001110000100010010100011000000001 $"
b0000000000000001 %"
b00000000000000000000000000110011 &"
1)"
b11011111010000100100011111101110011100001000100101000110000000010000000000000001000000000000000100000000000000100000000000000100 *"
0+"
12"
