docs/radhdl/0.2.1/simulations/tb_radif_smi16_to_reg/tb_radif_smi16_to_reg.vcd
$date
  Wed Jul  8 18:51:35 2026
$end
$version
  GHDL v0
$end
$timescale
  1 fs
$end
$scope module standard $end
$upscope $end
$scope module textio $end
$upscope $end
$scope module std_logic_1164 $end
$upscope $end
$scope module numeric_std $end
$upscope $end
$scope module radif_pkg $end
$upscope $end
$scope module env $end
$upscope $end
$scope module tb_radif_smi16_to_reg $end
$var reg 1 ! clk $end
$var reg 1 " rstn $end
$var reg 1 # cs_n $end
$var reg 1 $ rd_n $end
$var reg 1 % wr_n $end
$var reg 8 & smi_addr[7:0] $end
$var reg 16 ' smi_din[15:0] $end
$var reg 16 ( smi_dout[15:0] $end
$var reg 1 ) smi_oen $end
$var reg 1 * smi_ack $end
$var reg 16 + wr_addr[15:0] $end
$var reg 16 , rd_addr[15:0] $end
$var reg 1 - wr_en $end
$var reg 1 . rd_en $end
$var reg 64 / reg_din[63:0] $end
$var reg 64 0 reg_dout[63:0] $end
$var reg 1 1 wr_rdy $end
$var reg 1 2 rd_rdy $end
$var reg 1 3 wr_valid $end
$var reg 1 4 rd_valid $end
$var reg 1 5 reg_error $end
$comment ro_regs is not handled $end
$comment rw_regs is not handled $end
$scope module u_smi $end
$var reg 1 6 clk $end
$var reg 1 7 rstn $end
$var reg 1 8 smi_cs_n_i $end
$var reg 1 9 smi_rd_n_i $end
$var reg 1 : smi_wr_n_i $end
$var reg 8 ; smi_addr_i[7:0] $end
$var reg 16 < smi_data_i[15:0] $end
$var reg 16 = smi_data_o[15:0] $end
$var reg 1 > smi_data_oen $end
$var reg 1 ? smi_ack_o $end
$var reg 16 @ reg_wr_addr[15:0] $end
$var reg 16 A reg_rd_addr[15:0] $end
$var reg 1 B reg_wr_en $end
$var reg 1 C reg_rd_en $end
$var reg 64 D reg_data_in[63:0] $end
$var reg 64 E reg_data_out[63:0] $end
$var reg 1 F reg_wr_rdy $end
$var reg 1 G reg_rd_rdy $end
$var reg 1 H reg_wr_valid $end
$var reg 1 I reg_rd_valid $end
$var reg 1 J reg_error $end
$var reg 1 K cs_meta $end
$var reg 1 L cs_sync $end
$var reg 1 M rd_meta $end
$var reg 1 N rd_sync $end
$var reg 1 O rd_prev $end
$var reg 1 P wr_meta $end
$var reg 1 Q wr_sync $end
$var reg 1 R wr_prev $end
$comment state is not handled $end
$var reg 16 S wr_addr_r[15:0] $end
$var reg 16 T rd_addr_r[15:0] $end
$var reg 64 U wr_data_r[63:0] $end
$var reg 64 V rd_cache_r[63:0] $end
$var reg 16 W rd_data_r[15:0] $end
$var reg 4 X wr_lane_valid[3:0] $end
$var reg 16 Y wr_base_addr[15:0] $end
$var reg 16 Z rd_cache_addr[15:0] $end
$var integer 32 [ pending_lane $end
$var reg 1 \ rd_cache_v $end
$var reg 1 ] wr_en_r $end
$var reg 1 ^ rd_en_r $end
$var reg 1 _ ack_r $end
$scope module gen_xilinx_vendor $end
$upscope $end
$upscope $end
$scope module u_regs $end
$var reg 1 ` clk $end
$var reg 1 a rstn $end
$var reg 16 b wr_addr[15:0] $end
$var reg 16 c rd_addr[15:0] $end
$var reg 1 d wr_en $end
$var reg 1 e rd_en $end
$var reg 64 f data_in[63:0] $end
$var reg 64 g data_out[63:0] $end
$comment read_only_regs_i is not handled $end
$comment read_write_regs_o is not handled $end
$var reg 1 h wr_rdy $end
$var reg 1 i rd_rdy $end
$var reg 1 j wr_valid $end
$var reg 1 k rd_valid $end
$var reg 1 l error $end
$comment regs is not handled $end
$var reg 64 m rd_data_r[63:0] $end
$var reg 1 n wr_v_r $end
$var reg 1 o rd_v_r $end
$var reg 1 p err_r $end
$scope module gen_xilinx_vendor $end
$upscope $end
$upscope $end
$upscope $end
$enddefinitions $end
#0
0!
0"
1#
1$
1%
b00000000 &
b0000000000000000 '
b0000000000000000 (
1)
0*
b0000000000000000 +
b0000000000000000 ,
0-
0.
b0000000000000000000000000000000000000000000000000000000000000000 /
b0000000000000000000000000000000000000000000000000000000000000000 0
11
12
03
04
05
06
07
18
19
1:
b00000000 ;
b0000000000000000 <
b0000000000000000 =
1>
0?
b0000000000000000 @
b0000000000000000 A
0B
0C
b0000000000000000000000000000000000000000000000000000000000000000 D
b0000000000000000000000000000000000000000000000000000000000000000 E
1F
1G
0H
0I
0J
1K
1L
1M
1N
1O
1P
1Q
1R
b0000000000000000 S
b0000000000000000 T
b0000000000000000000000000000000000000000000000000000000000000000 U
b0000000000000000000000000000000000000000000000000000000000000000 V
b0000000000000000 W
b0000 X
b0000000000000000 Y
b0000000000000000 Z
b0 [
0\
0]
0^
0_
0`
0a
b0000000000000000 b
b0000000000000000 c
0d
0e
b0000000000000000000000000000000000000000000000000000000000000000 f
b0000000000000000000000000000000000000000000000000000000000000000 g
1h
1i
0j
0k
0l
b0000000000000000000000000000000000000000000000000000000000000000 m
0n
0o
0p
#5000000
1!
16
1`
#10000000
0!
06
0`
#15000000
1!
16
1`
#20000000
0!
06
0`
#25000000
1!
16
1`
#30000000
0!
06
0`
#35000000
1!
16
1`
#40000000
0!
06
0`
#45000000
1!
16
1`
#50000000
0!
1"
06
17
0`
1a
#55000000
1!
16
1`
#60000000
0!
06
0`
#65000000
1!
16
1`
#70000000
0!
06
0`
#75000000
1!
16
1`
#80000000
0!
06
0`
#85000000
1!
16
1`
#90000000
0!
06
0`
#95000000
1!
16
1`
#100000000
0!
0#
0%
b0001000100100010 '
06
08
0:
b0001000100100010 <
0`
#105000000
1!
16
0K
0P
1`
#110000000
0!
06
0`
#115000000
1!
16
0L
0Q
1`
#120000000
0!
06
0`
#125000000
1!
1*
b0000000000000000000000000000000000000000000000000001000100100010 /
16
1?
b0000000000000000000000000000000000000000000000000001000100100010 D
0R
b0000000000000000000000000000000000000000000000000001000100100010 U
b0001 X
1_
1`
b0000000000000000000000000000000000000000000000000001000100100010 f
#130000000
0!
06
0`
#135000000
1!
0*
16
0?
0_
1`
#140000000
0!
06
0`
#145000000
1!
16
1`
#150000000
0!
1#
1%
06
18
1:
0`
#155000000
1!
16
1K
1P
1`
#160000000
0!
06
0`
#165000000
1!
16
1L
1Q
1`
#170000000
0!
06
0`
#175000000
1!
16
1R
1`
#180000000
0!
06
0`
#185000000
1!
16
1`
#190000000
0!
06
0`
#195000000
1!
16
1`
#200000000
0!
0#
0%
b00000001 &
b0011001101000100 '
06
08
0:
b00000001 ;
b0011001101000100 <
0`
#205000000
1!
16
0K
0P
1`
#210000000
0!
06
0`
#215000000
1!
16
0L
0Q
1`
#220000000
0!
06
0`
#225000000
1!
1*
b0000000000000000000000000000000000110011010001000001000100100010 /
16
1?
b0000000000000000000000000000000000110011010001000001000100100010 D
0R
b0000000000000000000000000000000000110011010001000001000100100010 U
b0011 X
1_
1`
b0000000000000000000000000000000000110011010001000001000100100010 f
#230000000
0!
06
0`
#235000000
1!
0*
16
0?
0_
1`
#240000000
0!
06
0`
#245000000
1!
16
1`
#250000000
0!
1#
1%
06
18
1:
0`
#255000000
1!
16
1K
1P
1`
#260000000
0!
06
0`
#265000000
1!
16
1L
1Q
1`
#270000000
0!
06
0`
#275000000
1!
16
1R
1`
#280000000
0!
06
0`
#285000000
1!
16
1`
#290000000
0!
06
0`
#295000000
1!
16
1`
#300000000
0!
0#
0%
b00000010 &
b0101010101100110 '
06
08
0:
b00000010 ;
b0101010101100110 <
0`
#305000000
1!
16
0K
0P
1`
#310000000
0!
06
0`
#315000000
1!
16
0L
0Q
1`
#320000000
0!
06
0`
#325000000
1!
1*
b0000000000000000010101010110011000110011010001000001000100100010 /
16
1?
b0000000000000000010101010110011000110011010001000001000100100010 D
0R
b0000000000000000010101010110011000110011010001000001000100100010 U
b0111 X
1_
1`
b0000000000000000010101010110011000110011010001000001000100100010 f
#330000000
0!
06
0`
#335000000
1!
0*
16
0?
0_
1`
#340000000
0!
06
0`
#345000000
1!
16
1`
#350000000
0!
1#
1%
06
18
1:
0`
#355000000
1!
16
1K
1P
1`
#360000000
0!
06
0`
#365000000
1!
16
1L
1Q
1`
#370000000
0!
06
0`
#375000000
1!
16
1R
1`
#380000000
0!
06
0`
#385000000
1!
16
1`
#390000000
0!
06
0`
#395000000
1!
16
1`
#400000000
0!
0#
0%
b00000011 &
b0111011110001000 '
06
08
0:
b00000011 ;
b0111011110001000 <
0`
#405000000
1!
16
0K
0P
1`
#410000000
0!
06
0`
#415000000
1!
16
0L
0Q
1`
#420000000
0!
06
0`
#425000000
1!
1-
b0111011110001000010101010110011000110011010001000001000100100010 /
16
1B
b0111011110001000010101010110011000110011010001000001000100100010 D
0R
b0111011110001000010101010110011000110011010001000001000100100010 U
b1111 X
1]
1`
1d
b0111011110001000010101010110011000110011010001000001000100100010 f
#430000000
0!
06
0`
#435000000
1!
0-
13
16
0B
1H
0]
1`
0d
1j
1n
#440000000
0!
06
0`
#445000000
1!
1*
03
16
1?
0H
b0000 X
1_
1`
0j
0n
#450000000
0!
1#
1%
06
18
1:
0`
#455000000
1!
0*
16
0?
1K
1P
0_
1`
#460000000
0!
06
0`
#465000000
1!
16
1L
1Q
1`
#470000000
0!
06
0`
#475000000
1!
16
1R
1`
#480000000
0!
06
0`
#485000000
1!
16
1`
#490000000
0!
06
0`
#495000000
1!
16
1`
#500000000
0!
06
0`
#505000000
1!
16
1`
#510000000
0!
06
0`
#515000000
1!
16
1`
#520000000
0!
06
0`
#525000000
1!
16
1`
#530000000
0!
06
0`
#535000000
1!
16
1`
#540000000
0!
06
0`
#545000000
1!
16
1`
#550000000
0!
06
0`
#555000000
1!
16
1`
#560000000
0!
06
0`
#565000000
1!
16
1`
#570000000
0!
06
0`
#575000000
1!
16
1`
#580000000
0!
06
0`
#585000000
1!
16
1`
#590000000
0!
06
0`
#595000000
1!
16
1`
#600000000
0!
0#
0$
b00000000 &
06
08
09
b00000000 ;
0`
#605000000
1!
16
0K
0M
1`
#610000000
0!
06
0`
#615000000
1!
0)
16
0>
0L
0N
1`
#620000000
0!
06
0`
#625000000
1!
1.
16
1C
0O
1^
1`
1e
#630000000
0!
06
0`
#635000000
1!
0.
b0111011110001000010101010110011000110011010001000001000100100010 0
14
16
0C
b0111011110001000010101010110011000110011010001000001000100100010 E
1I
0^
1`
0e
b0111011110001000010101010110011000110011010001000001000100100010 g
1k
b0111011110001000010101010110011000110011010001000001000100100010 m
1o
#640000000
0!
06
0`
#645000000
1!
b0001000100100010 (
1*
04
16
b0001000100100010 =
1?
0I
b0111011110001000010101010110011000110011010001000001000100100010 V
b0001000100100010 W
1\
1_
1`
0k
0o
#650000000
0!
06
0`
#655000000
1!
0*
16
0?
0_
1`
#660000000
0!
06
0`
#665000000
1!
16
1`
#670000000
0!
06
0`
#675000000
1!
16
1`
#680000000
0!
1#
1$
06
18
19
0`
#685000000
1!
16
1K
1M
1`
#690000000
0!
06
0`
#695000000
1!
1)
16
1>
1L
1N
1`
#700000000
0!
06
0`
#705000000
1!
16
1O
1`
#710000000
0!
06
0`
#715000000
1!
16
1`
#720000000
0!
0#
0$
b00000001 &
06
08
09
b00000001 ;
0`
#725000000
1!
16
0K
0M
1`
#730000000
0!
06
0`
#735000000
1!
0)
16
0>
0L
0N
1`
#740000000
0!
06
0`
#745000000
1!
b0011001101000100 (
1*
16
b0011001101000100 =
1?
0O
b0011001101000100 W
1_
1`
#750000000
0!
06
0`
#755000000
1!
0*
16
0?
0_
1`
#760000000
0!
06
0`
#765000000
1!
16
1`
#770000000
0!
06
0`
#775000000
1!
16
1`
#780000000
0!
06
0`
#785000000
1!
16
1`
#790000000
0!
06
0`
#795000000
1!
16
1`
#800000000
0!
1#
1$
06
18
19
0`
#805000000
1!
16
1K
1M
1`
#810000000
0!
06
0`
#815000000
1!
1)
16
1>
1L
1N
1`
#820000000
0!
06
0`
#825000000
1!
16
1O
1`
#830000000
0!
06
0`
#835000000
1!
16
1`
#840000000
0!
0#
0$
b00000010 &
06
08
09
b00000010 ;
0`
#845000000
1!
16
0K
0M
1`
#850000000
0!
06
0`
#855000000
1!
0)
16
0>
0L
0N
1`
#860000000
0!
06
0`
#865000000
1!
b0101010101100110 (
1*
16
b0101010101100110 =
1?
0O
b0101010101100110 W
1_
1`
#870000000
0!
06
0`
#875000000
1!
0*
16
0?
0_
1`
#880000000
0!
06
0`
#885000000
1!
16
1`
#890000000
0!
06
0`
#895000000
1!
16
1`
#900000000
0!
06
0`
#905000000
1!
16
1`
#910000000
0!
06
0`
#915000000
1!
16
1`
#920000000
0!
1#
1$
06
18
19
0`
#925000000
1!
16
1K
1M
1`
#930000000
0!
06
0`
#935000000
1!
1)
16
1>
1L
1N
1`
#940000000
0!
06
0`
#945000000
1!
16
1O
1`
#950000000
0!
06
0`
#955000000
1!
16
1`
#960000000
0!
0#
0$
b00000011 &
06
08
09
b00000011 ;
0`
#965000000
1!
16
0K
0M
1`
#970000000
0!
06
0`
#975000000
1!
0)
16
0>
0L
0N
1`
#980000000
0!
06
0`
#985000000
1!
b0111011110001000 (
1*
16
b0111011110001000 =
1?
0O
b0111011110001000 W
1_
1`
#990000000
0!
06
0`
#995000000
1!
0*
16
0?
0_
1`
#1000000000
0!
06
0`
#1005000000
1!
16
1`
#1010000000
0!
06
0`
#1015000000
1!
16
1`
#1020000000
0!
06
0`
#1025000000
1!
16
1`
#1030000000
0!
06
0`
#1035000000
1!
16
1`
#1040000000
0!
1#
1$
06
18
19
0`
#1045000000
1!
16
1K
1M
1`
#1050000000
0!
06
0`
#1055000000
1!
1)
16
1>
1L
1N
1`
#1060000000
0!
06
0`
#1065000000
1!
16
1O
1`
