docs/radhdl/0.2.0/simulations/tb_raddsp_axis_float_fixed/tb_raddsp_axis_float_fixed.vcd
$date
  Wed Jul  8 14:45:04 2026
$end
$version
  GHDL v0
$end
$timescale
  1 fs
$end
$scope module standard $end
$upscope $end
$scope module textio $end
$upscope $end
$scope module std_logic_1164 $end
$upscope $end
$scope module numeric_std $end
$upscope $end
$scope module env $end
$upscope $end
$scope module raddsp_axis_pkg $end
$upscope $end
$scope module tb_raddsp_axis_float_fixed $end
$var reg 1 ! clk $end
$var reg 1 " rst $end
$var reg 1 # f2x_s_valid $end
$var reg 1 $ f2x_s_ready $end
$var reg 32 % f2x_s_data[31:0] $end
$var reg 1 & f2x_s_last $end
$var reg 1 ' f2x_m_valid $end
$var reg 16 ( f2x_m_data[15:0] $end
$var reg 1 ) f2x_m_last $end
$var reg 1 * x2f_s_valid $end
$var reg 1 + x2f_s_ready $end
$var reg 16 , x2f_s_data[15:0] $end
$var reg 1 - x2f_s_last $end
$var reg 1 . x2f_m_valid $end
$var reg 32 / x2f_m_data[31:0] $end
$var reg 1 0 x2f_m_last $end
$scope module f2x_i $end
$var reg 1 1 clk $end
$var reg 1 2 rst $end
$var reg 1 3 s_axis_tvalid $end
$var reg 1 4 s_axis_tready $end
$var reg 32 5 s_axis_tdata[31:0] $end
$var reg 1 6 s_axis_tlast $end
$var reg 1 7 m_axis_tvalid $end
$var reg 1 8 m_axis_tready $end
$var reg 16 9 m_axis_tdata[15:0] $end
$var reg 1 : m_axis_tlast $end
$var reg 1 ; out_valid_r $end
$var reg 16 < out_data_r[15:0] $end
$var reg 1 = out_last_r $end
$var reg 1 > ready_i $end
$upscope $end
$scope module x2f_i $end
$var reg 1 ? clk $end
$var reg 1 @ rst $end
$var reg 1 A s_axis_tvalid $end
$var reg 1 B s_axis_tready $end
$var reg 16 C s_axis_tdata[15:0] $end
$var reg 1 D s_axis_tlast $end
$var reg 1 E m_axis_tvalid $end
$var reg 1 F m_axis_tready $end
$var reg 32 G m_axis_tdata[31:0] $end
$var reg 1 H m_axis_tlast $end
$var reg 1 I out_valid_r $end
$var reg 32 J out_data_r[31:0] $end
$var reg 1 K out_last_r $end
$var reg 1 L ready_i $end
$upscope $end
$upscope $end
$enddefinitions $end
#0
0!
1"
0#
1$
b00000000000000000000000000000000 %
0&
0'
b0000000000000000 (
0)
0*
1+
b0000000000000000 ,
0-
0.
b00000000000000000000000000000000 /
00
01
12
03
14
b00000000000000000000000000000000 5
06
07
18
b0000000000000000 9
0:
0;
b0000000000000000 <
0=
1>
0?
1@
0A
1B
b0000000000000000 C
0D
0E
1F
b00000000000000000000000000000000 G
0H
0I
b00000000000000000000000000000000 J
0K
1L
#5000000
1!
11
1?
#10000000
0!
01
0?
#15000000
1!
11
1?
#20000000
0!
01
0?
#25000000
1!
11
1?
#30000000
0!
01
0?
#35000000
1!
11
1?
#40000000
0!
01
0?
#45000000
1!
11
1?
#50000000
0!
01
0?
#55000000
1!
0"
11
02
1?
0@
#60000000
0!
01
0?
#65000000
1!
1#
b00111111100000000000000000000000 %
11
13
b00111111100000000000000000000000 5
1?
#70000000
0!
01
0?
#75000000
1!
0#
1'
b0000000100000000 (
11
03
17
b0000000100000000 9
1;
b0000000100000000 <
1?
#80000000
0!
01
0?
#85000000
1!
0'
11
07
0;
1?
#90000000
0!
01
0?
#95000000
1!
1#
b10111111000000000000000000000000 %
11
13
b10111111000000000000000000000000 5
1?
#100000000
0!
01
0?
#105000000
1!
0#
1'
b1111111110000000 (
11
03
17
b1111111110000000 9
1;
b1111111110000000 <
1?
#110000000
0!
01
0?
#115000000
1!
0'
11
07
0;
1?
#120000000
0!
01
0?
#125000000
1!
1*
b0000001000000000 ,
11
1?
1A
b0000001000000000 C
#130000000
0!
01
0?
#135000000
1!
0*
1.
b01000000000000000000000000000000 /
11
1?
0A
1E
b01000000000000000000000000000000 G
1I
b01000000000000000000000000000000 J
#140000000
0!
01
0?
#145000000
1!
0.
11
1?
0E
0I
#150000000
0!
01
0?
#155000000
1!
1*
b1111111110000000 ,
11
1?
1A
b1111111110000000 C
#160000000
0!
01
0?
#165000000
1!
0*
1.
b10111111000000000000000000000000 /
11
1?
0A
1E
b10111111000000000000000000000000 G
1I
b10111111000000000000000000000000 J
#170000000
0!
01
0?
#175000000
1!
0.
11
1?
0E
0I
#180000000
0!
01
0?
#185000000
1!
1*
b0000000000000000 ,
11
1?
1A
b0000000000000000 C
#190000000
0!
01
0?
#195000000
1!
0*
1.
b00000000000000000000000000000000 /
11
1?
0A
1E
b00000000000000000000000000000000 G
1I
b00000000000000000000000000000000 J
